Organization,FirstName,LastName,Email,Street,Street2,City,Province,Country,PostalCode,BusPhone,HomePhone,MobPhone,Fax,SecStreet,SecStreet2,SecCity,SecProvince,SecCountry,SecPostalCode,Notes
"Adventure Camper Rentals",,,info@adventurecamper.com,"15603 E Fremont Drive, Unit A",,Centennial,Colorado,"United States",80112,"(303) 680-3670",,,,,,,,,,"http://www.adventurecamper.com/
"
"Bear Creek Lodge",Mark,Murphy,mmurphy@bearcreeklodgetelluride.com,"135 San Joaquin Road",,"Mountain Village",Colorado,"United States",81435,,,,,,,,,,,BearCreekLodgeTelluride.com
"Ally Crilly Design and Illustration",Ally,Crilly,allycrilly@mac.com,,,,,,,,970-728-4001,,,,,,,,,
"Annie Johnson",Annie,Johnson,annie@aalimos.net,"1544 Mallard Dr",,Johnstown,Colorado,"United States",80534,970.581.1006,,,,,,,,,,
"The Diamond Success Group",Ava,Diamond,ava@avadiamond.com,"P.O. Box 8181",,"Fort Collins",Colorado,"United States",80526,970-224-3015,,,,,,,,,,www.avadiamond.com
"Bee Herz, Psychic Medium",Bee,Herz,laurie@blueskiesmktg.com,www.beeherzpsychicmedium.com,,,,,,,"(970) 871-4594","(970) 819-1611",,,,,,,,
"Pioneer Candy Company",Benjamin,Holcomb,benholcomb@gmail.com,"7054 Spanish Bay Dr.",,Windsor,CO,,80550,benholcomb@gmail.com,,,,"Rich Gasparian","174 Middlesex Turnpike",Bedford,Massachusetts,"United States",01730,"pioneercandy@gmail.com




"
www.bonnieluftig.com,Bonnie,Luftig,bonnie.luftig@yahoo.com,,,,,,,,,,,,,,,,,
"Advanced Digital Consulting, Inc.",Brian,Gardel,bgardel@advdigitalconsulting.com,"PO Box 1185",,"Fort Collins",Colorado,"United States",80522,970.484.0643,,,888.647.9425,,,,,,,"www.advdigitalconsulting.com 
"
"Norther Colorado United FC",Carol,Aguero,coaguero@msn.com,,,,,,,,,,,,,,,,,
"Family Health and Wealth","Carol & Osvaldo",Aguero,coaguero@msn.com,"P.O. Box 152",,Severance,Colorado,"United States",80546-9612,"(970) 686-9612",,,,,,,,,,"(970) 430-0287"
"Full Life Coaching",Catherine,Workman,lw331@msn.com,"124 W Magnolia",,"Fort Collins",Colorado,"United States",80524-2907,,,,,,,,,,,
"Catherine Workman",Catherine,Workman,lw331@msn.com,,,,,,,,,,,,,,,,,
"Cheryl Fox, CPA",Cherl,Fox,cheryl@cfoxcpa.com,"123 N. College Ave.","Suite 200","Fort Collins",Colorado,"United States",80524,970.212.4706,,,970.493.4876,,,,,,,
"Urban West Connection",Chris,Domenick,cdom200@hotmail.com,,,,,,,,435.640.0124,,,,,,,,,
"RealFoodies, Inc.",Claudia,Ossa,claudia@realfoodies.com,"PO Box 475342",,"SAN FRANCISCO",California,"United States",94147,"949 275 6812",,"949 275 6812",,,,,,,,"


"
"Dusty Snider",Dusty,Snider,dusty.snider@gmail.com,"391 Tanyia Lane",,Columbus,Mississippi,"United States",39701,"(662) 883-0138",,662-364-0945,,,,,,,,
"My Baby Shops",Colby,Brister,mybabybeddingshop@gmail.com,"1034 East Broad St.",,"West Point",Mississippi,"United States",39773,662.295.3615,662.295.3615,,,,,,,,,
eDarling.net,Damian,,robertbsherwood@gmail.com,,,,,"United States",,,,,,,,,,,,
"Dan Bullock",Dan,Bullock,drdanb@nctv.com,,,Medford,Oregon,"United States",,,,,,"Just Ask Dr. Dan,LLC","P.O. Box 195","Mount Shasta",California,"United States",96067-0195,
Triptiva,Dave,Costlow,dcostlow@triptiva.com,"PO Box 1989",,"Fort Collins",Colorado,"United States","80522 ",,,,,,,,,,,
"Winney for Wyoming '08",Bill,Winney,bill.winney@hotmail.com,"P.O. Box 334",,"Bondurant ",Wyoming,"United States",82922,,,,,,,,,,,"David Featherly
PO Box 2135
Cheyenne, Wyoming 82003"
"David McQueen",David,McQueen,dkmcqueen@earthlink.net,"1444 Montana Ave Ste 209 ",,"El Paso",Texas,"United States",79902,"(915) 544-5710",,,,,,,,,,
"ERS Design LLC",Denise,Cupoli,dcupoli@ersdesignllc.com,"One Currier Rd",,Mendon,Vermont,"United States",05701,802.773.0800,,802.304.9165,,,,,,,,
"ERS Design LLC.","Denise D.",Cupoli,dcupoli@ersdesignllc.com,"One Currier Rd.",,Mendon,Vermont,"United States",05701,802.773.0800,,,802.304.9165,,,,,,,
"Denys Reid Margolin","Denys Reid",Margolin,denysmargolin@comcast.net,"24963 Outlook Lane",,Carmel,California,"United States",93923,831-622-9751,831.622.9751,831.383.8119,,,,,,,,
"Dianne Wandruff",Dianne,Wandruff,diannedave@gmail.com,"PO Box 99",,Fortine,Montana,"United States",59918,406.882.4050,,,,,,,,,,"FLYN PENOYER RECRUIT"
"Dira de la Rosa",Dira,"de la Rosa",ddlr@bellsouth.net,,,Hollywood,Florida,"United States",,,,,,,,,,,,
"Rico Hotel",Eamonn,O'Hara,ricobnb@fone.net,"124 Glasgow Avenue, Highway 145",,Rico,Colorado,,81332,970.967.3000,,,,,,,,,,
"Front Range Interiors",Elese,Finn,frontrangeint@aol.com,"3060 W. 29th Street",,Greeley,Colorado,"United States",80631,970.506.0604,,,970.506.0594,,,,,,,"Jerry - manager"
"eMarketing Strategies",Elge,Premeau,elge@emarketingstrategist.com,"1706 NE Going St",,Portland,Oregon,"United States",97211-5726,503.284.2888,,503.952.6550,,,,,,,,
"Harrison Counseling",Elizabeth,Harrison,elizharrison@comcast.net,"315 West Oak St, 5th Floor",,"Fort Collins",Colorado,"United States",80521,"(970) 744-1164",,,"(970) 493-5131",,,,,,,
"Magnolia Restaurant",Emily,Heseman,ehess33@yahoo.com,"1381 Forest Park Circle",,Lafayette,Colorado,"United States",80026,,,515-238-9070,,,,,,,,
"Robbins Statter Group LLC",Erin,Statter,imwiley@yahoo.com,"2437 Mathews St",," Fort Collins",Colorado,"United States",80525,970.232.9871,970.449.2939,,,,,,,,,
"Penoyer Communicationss",Flyn,Penoyer,penoyercom@comcast.net,"Penoyer Communications","P.O. Box 7487","San Jose",California,"United States",95150-7487,408.296.6880,,,,,,,,,,
"Brister's Online Stores LLC","Freddie & Joyce",Brister,coachb51@yahoo.com,"1043 East Broad Street",,"West Point",Mississippi,"United States",39773,662.574.5886,,,,,,,,,,
"Fred Kelley",Fred,Kelley,fredk@quitsmoking.com,"3675 Glennvale Ct",,Cumming,GA,,30041,770-346-9222,,770-664-0067,,,,,,,,"

"
"Multigrain International",George,Jibilian,george@multigrain.com,"Multigrain International, LLC","314 Peterson Street ","Fort Collins",CO,,80524,,970.490.1878,,,,,,,,,
"The Actors Market",Gwyn,Gilliss,ggilliss@gmail.com,"393 West End Ave, #9B",,"New York","New York","United States",10024,(212)595-9001,,"(917) 774-1724",,,,,,,,
"Jack Myers",Jack,Myers,jack@lucidorigin.com,,,,,,,,,,,,,,,,,
"Hopkins Law LLC",James,Hopkins,JamesHopkins@HopkinsLawLLC.com,"1635 Foxtrail Drive","Number 309",Loveland,Colorado,"United States",80538,970.744.4679,,,970.797.6419,,,,,,,"www.HopkinsLawLLC.com
"
"Imagine Beverages, LLC",James,Lee,imaginebeverages@yahoo.com,"505 Yates Circle",,Broomfield,Colorado,"United States",80020-5760,,,650.400.1451,,,,,,,,
"Jane Perdue",Jane,Perdue,janeperdue@comcast.net,,,,,"United States",,,,,,,,,,,,
"Robin Nolan Teaches",Jason,Rogan,jrogan@gmail.com,,,,,,,,,,,,,,,,,
"Native Arts Dept, Denver Art Museum",Jennifer,Pray,jpray@denverartmuseum.org,"100 W 14th Ave Pkwy",,Denver,Colorado,"United States",80204-2788,720.913.0162,,,,,,,,,,
"Jerrid Levi Stores",Jerry,Levine,jerry@perielane.com,"3961 Perie Lane",,"San Jose",California,"United States",95132,408.834.8427,,,,,,,,,,
"Tomboy Soap Co",Jessica,Newens,jessican2@mindspring.com,"PO Box 2261",,Telluride,Colorado,"United States",81435,970.327.0304,,970.589.6168,,,,,,,,
"JJ Currie",JJ,Currie,jjcurrie@gmail.com,,,,,"United Kingdom",,,,,,,,,,,,
"Outside Edge Marketing",Laura,Cusenbary,laura@outsideedgemarketing.com,"PO Box 882244",,"Steamboat Spring",Colorado,"United States",80488,970-846-6247,"970-846-6247 ",,,,,,,,,"laura@OutsideEdgeMarketing.com
"
"John and Sandra Hall","John and Sandra",Hall,John@teething-teeth.com,"1399 Saxony Road S.W.",,"Palm Bay",Florida,"United States",32908,321.608.9117,,321.368.6166,,,,,,,,
"Cinco Puntos Press",John,Byrd,johnbyrd@cincopuntos.com,"701 Texas Avenue",,"El Paso",Texas,"United States",79901,915.838.1635,,,,,,,,,,
"John Currie",John,Currie,jcurrie@gmail.com,"3914 Seaton Place",,"Las Vegas",Nevada,"United States",89121,,,,,,,,,,,
"Creative Programming Group",John,Shipp,john@creativeprogramminggroup.com,"Shipp Enterprises, LLC ","714 State Street ",Brule,,"United States",69127,,,,,,,,,,,
"John Tobin",John,Tobin,jtob60610@yahoo.com,"244 Aurora St.",,Hudson,Ohio,"United States",44236,330.962.3416,,,,,,,,,,
"John Voight",John,Voight,voightja@hotmail.com,"972 Lambourne Lane",,"Virginia Beach",Virginia,"United States",23462,"757 320-2247",,,,,,,,,,
"Real Fitness For Life",Jolene,Puffer,jolenepuffer@charter.net,"88 Sigmon Rd",,Fletcher,"North Carolina","United States",28732-9106,828.216.8134,,,,,,,,,,
"Obros Office Solutions",Jonah,Watson,johan@obros.co.za,,,Johannesburg,,"South Africa",,"(27) 11 804 8843",,"(27) 83 298 6795","(27) 11 804 8850",,,,,,,
"Bluecorn Naturals",Jon,Kornbluh,jon@beeswaxcandles.com,"13 S. Glasgow","PO Box 122",Rico,Colorado,"United States",81332,970.967.2306,,,,,,,,,,
"GoodLight Natural Candles",David,Callicott,david@naturalcandles.com,"PO Box 789",,Ridgway,Colorado,"United States",81432,1-800-519-2353,,,,,,,,,,
"Judith K Hamman LLC",Judith,Hamman,coach@JudithHamman.com,"2814 Iowa Drive",,"Fort Collins",Colorado,"United States",80525,970.493.6006,,,970.493.6008,,,,,,,"www.judithhamman.com
coach@judithhamman.com"
"Interactive Studios",Judith,Schaefer,judy-help@i-stuff.com,"502 A Los Pandos",,Taos,"New Mexico","United States",87571,,,505-870-9815,,,,,,,,
"Juli Shore Design",Juli,Shore,juli@julishoredesign.com,"3702 Grand Avenue",,Oakland,California,"United States",94610,510.922.1482,,510.220.5885,,,,,,,,"www.julishoredesign.com
"
"Madison Avenue",Karyn,Madison,kmadison@worthwear.com,,,"Fort Collinds",Colorado,"United States",,970.206.1895,,970.690.0189,,,,,,,,"shopmadisonave.net
"
"ResortQuest Real Estate",Keith,Kirchner,kkirchner@resortquest.com,,,,,,,970.547.3300,,970.389.4154,970.547.3215,,,,,,,
"40 Weeks of Miracles",Kristi,Nay,singoutkristi@yahoo.com,"2518 Pinecone Circle",,"Fort Collins",Colorado,"United States",80525,"(970) 282-8475","(970) 282-8475","(970) 218-0207",,,,,,,,
"Soul Point",Lania,Desmond,lania@soulpoint.com,,,,,"United States",,828.236.1230,,,,,,,,,,
"Blue Skies Marketing",Laurie,Macomber,laurie@blueskiesmktg.com,"117 E Mountain Ave, Suite 222",,"Fort Collins",Colorado,"United States",80524,970.689.3000,970.689.3000,970.631.6496,,,,,,,,
"5 Aces Lifestyle Coaching",Lia,Stone,nidigriti@hotmail.com,,,,,"United States",,,,,,,,,,,,
"Pennypacker Inc",Lillian,Pennypacker,PennypackerInc@gmail.com,"6220 Canturybury Drive","Apt. 9-206","Culver City",California,,90230,,,410.463.0600,,,,,,,,
"Lisa Hale",Lisa,Hale,mona@acorncs.com,,,,,,,,,,,,,,,,,lisahchat@gmail.com
"CFT Labels",Louise,Diesel,louised@cft.co.za,"P.O. Box 1563",,Gauteng,Southdale,"South Africa",2136,"011 683-1155",,,,,,,,,,
"Love Bug",Vera,Gregg,vtgregg@msn.com,"2020 Caribou Drive","Suite 101 ","Fort Collins",Colorado,"United States",80525,970-223-2000,,970.232.4456,,,,,,,,
"Lynne Hull",Lynne,Hull,Lynne.Hull@eco-art.org,"P.O. Box 1239",,"Fort Collins",Colorado,"United States",80522,"970-416-1881 ",,,,,,,,,,
"Madeline Binder",Madeline,Binder,thegoodlife@comcast.net,,,,,,,,"(847) 864-0901",,,,,,,,,
"Marjorie Weiss",Margie,Weiss,mbweiss@nyc.rr.com,"100 West 15th Street",,"New York","New York","United States",10011,212.675.0787,,,,,,,,,,
"Resumes by a Pro",Marissa,Letendre,resumesbymarissa@gmail.com,,,,,"United States",,,,,,,,,,,,
"Leave a Legacy",Marsha,Knackstedt,marsha@leavealegacytoday.com,"1827 E. Harmony Rd",,"Fort Collins",,"United States",80528,970.226.0102,,,,,,,,,,
"Chi For Longevity, Inc.",Master,Chen,mona.pennypacker@gmail.com,"2601 S. Lemay Ave, Suite 7233",,"Fort Collins",Colorado,"United States",80525,,,,,,,,,,,
"Alpine Arms",Matt,Solomon,matt@AlpineArms.com,"PO Box 5246",,Eagle,Colorado,,81631,970.306.4121,,970.376.2146,,,,,,,,"Skype: AlpineArms"
"Michael Gruber",Michael,Gruber,gruber@bresnan.net,"2 Perins Vista Drive",,Durango,Colorado,"United States",81301,,970.247.0814,,,,,,,,,
"Qigong Energy Healing",Michael,Mohoric,mohoric9@gmail.com,"PO Box 6548",,"Laguna Niguel",California,"United States",92607,949.939.8019,,,,,,,,,,
CAIL,Kevin,Jagdeo,mona@monapennypacker.com,"665 Hood Rd",,Markham,Ontario,Canada,"L3R 4E1","(800) 668-5769","(952) 426-2003","(952) 261-9453",,,,,,,,"665 Hood Rd
Markham, ON L3R 4E1

dgelo@att.blackberry.net

791 Foxdale Ave.
Winnetka IL
60093
Tel: 1-800-668-5769
Fax: 847-446-4851
"
"Shanta Foundation",Mike,Karpfen,mike@durango.net,"P.O. Box 1603",,Durango,Colorado,,81302,970.259.5120,,,,,,,,,,
"--   Testing  --",Mona,Pennypacker,mona@acorncs.com,,,,,,,,,,,,,,,,,
"Maid Smart, Inc.",Nancy,Glass,maidsmartinc@aol.com,"536 W 66th Street",,Loveland,Colorado,"United States",80538,970.226.6055,,,,,,,,,,
"Nick D Benson",Nick,Benson,grayoak@usa.net,"2502 Timberwood Drive #84",,"Fort Collins",Colorado,"United States",80528-8550,970.372.7752,,,,,,,,,,
"StirStick Studio",Nicole,Codek,nicole@stirstick.com,"PO Box 124",,Grainfield,Kansas,"United States","67737 ",,,,,,,,,,,
"Literacy League",Nylene,Sherman,nylene@verizon.net,,,Cambridge,Maryland,"United States",21613,,,,,,,,,,,
"Ossie Aguero Construction, LLC",Ossie,Aguero,coaguero@msn.com,"PO Box 152",,Severance,Colorado,"United States",80546-0512,,,,,,,,,,,
"Key To Success Coaching",Pamela,Beaudet,psotirbeau@aol.com,"70 Old Post Road",,"East Walpole",Massachusetts,"United States",02032,508.668.8487,,,,,,,,,,
"Home Matters",Pam,Lampe,pam@4homematters.com,"433 West 12th Street",,Loveland,Colorado,,80357,970.669.5046,,970.581.6739,,,,,,,,
"Elemental Nutrition",Patrick,Rhodes,patrick@elementalnutrition.com,,,,Arizona,"United States",,,,,,,,,,,,
"Crashboxx Telematics",Peter,Byrne,peter@crashboxx.com,"2614 S. Timberline #109 PMB 124",,"Fort Collins",Colorado,"United States",80525,,,,,,,,,,,
"A Witness to Life Photography",Rhonda,Thompson,rhonda.thompson@yahoo.com," PO Box 515",,Keenesburg,Colorado,"United States",80643,303.910.2092,,,,,,,,,,
"Rodney Trotter",Rodney,Trotter,rodney@trotter.com,"5416 70th Place",,Lubbock,Texas,"United States",79424,806.798.0643,,806.438.3556,,,,,,,,
"Roger James",Roger,James,mona@acorncs.com,rogerjames@yahoo.com,,,,,,,,,,,,,,,,
"Ron Pfizenmaier",Ron,Pfizenmaier,ron@gosidewayz.com,"416 Sol Court",,"Fort Collins",Colorado,"United States",80524,970.218.8212,,,,,,,,,,
"Code Geek",Ron,Zasadzinski,ronz@codegeek.net,"117 E Mountain Ave","Suite 222","Fort Collins",Colorado,"United States",80524,,970.227.0489,,,,,,,,,
"3BIDZ - Window and Siding Replacement",Rusty,Huelle,rusty@3-bidz.com,"4703-A Boardwalk",,"Fort Collins",Colorado,"United States",80525,,,,,,,,,,,
"St James Systems",Sam,Goddard,goddard@stjamessystems.com," St James House"," 21 Kelmarsh Ave","Wigston / City of Kings",Leicester,"United Kingdom","LE18 3QW","0116 2836699",,,,,,,,,,www.stjamessystems.com
"Trust Guard","Scott and Dave",Brandley,admin@dsbrandley.com,,,,Utah,"United States",,,,,,,,,,,,
"Trust Guard Web Design","Scott & Dave",Brandley,admin@dsbrandley.com,"David Brandley","1163 S 920 E",Ogden,Utah,"United States",84404-6441,801.334.7078,,,,,,,,,,
"Wyoming Security Systems, Inc.","Shelley and Tom",Russell,wss@wyoming.com,"PO Box 15730",,Cheyenne,Wyoming,"United States",82003,"307-634-8513 ",,,"307-634-6841 ",,,,,,,
"Toy Connex",Suni,Petersen,toyconnex@gmail.com,"520 Chestnut St #102",,"San Francisco",California,"United States",94133,415.971.1127,,,,,,,,,,
"SKB Events",Susan,Brooks,susan@skbevents.com,,,,,,,,,,,,,,,,,
"SheShe Nail and Waxing Lounge",Susan,Byrum,snosurfgirl@yahoo.com,,,"Fort Collins",Colorado,"United States",,,,,,,,,,,,
"City Representative Susie Byrd",Susie,Byrd,ByrdSM@elpasotexas.gov,"City of El Paso ","2 Civic Center Plaza ","El Paso",Texas,,79901,541-4416,,,,,,,,,,
"Parent Pages",Tara,Schulze,tara@parentpages.info,"(970) 412-4119",,,,"United States",,,,,,,,,,,,
"Canyon Music Woodworks",Tina,Clausen,info@canyonmusicwoodworks.com,"734 East Second Avenue",,Durango,Colorado,"United States",81301,970.259.1622,,,,,,,,,,
"Bennett Forgeworks",Tom,Bennett,tomb@fone.net,"PO Box 251",,Rico,Colorado,,81332,970.967.2100,,,,,,,,,,www.forgework.com
"Bridger Bay",Tym,Barker,tbarker@bridgerbay.com,,,,,Canada,,,,,,,,,,,,
"Trego Hill Publications",Vicki,Hill,vtregohill@sbcglobal.net,"4264 Canterbury Drive",,"El Paso",,"United States",79902,915.533.2985,,,,,,,,,,
"Vic Schendel",Vic,Schendel,vic@vicschendel.com,,,"Fort Collins",Colorado,"United States",,970.217.6563,,,,,,,,,,
"Always Extraordinary",Viveka,"von Rosen",viveka@theexecutivecenter.com,"123 N. College Ave","Suite 200","Fort Collins",,"United States",80524,970.212.4701,970.212.4617,,970.2124739,,,,,,,"TRADE for office space"
"Wes Knackstedt",Wes,Knackstedt,wes@kbarusa.com,,,,,,,,,,,,,,,,,
