#,WBS,Task,Documents,Comments,Description,Priority,Assignments,Complete,Status,Work,Labor Cost,Work Completed,Work Remaining,Finish,Bill Rate,Billable,Blocked,Buffer,Constraint,Constraint Date,Created,Created By,Duration,Id,Labels,Location,Material Cost,Milestone,Other Cost,Parent,Planned Buffer,Planned Duration,Planned Finish,Planned Labor Cost,Planned Material Cost,Planned Other Cost,Planned Start,Planned Total Cost,Planned Work,Predecessors,Schedule by Work,Scheduled,Start,Successors,Total Cost,Updated,Updated By
1,1,MAS/CRM Education,,,,,,10%,OK,27 hrs,1550,2.7 hrs,24.3 hrs,5/30/2012 14:00,,,,0 days,ASAP,,1/18/2012 23:06,tina@demandmcg.com,69 days?,4481035.16.16,,,,,,,0 days,69 days,5/30/2012 14:00,,,,2/24/2012 10:00,,27,,Yes,Yes,2/24/2012 10:00,,1550,4/19/2012 19:24,tina@demandmcg.com
2,1.1,CRM Evaluation,0,,,,,,OK,20 hrs,1000,0 hrs,20 hrs,5/30/2012 14:00,,,,0 days,ASAP,,1/18/2012 22:12,tina@demandmcg.com,69 days,4481035.16.6,,,,,,MAS/CRM Education (4481035.16.16),0 days,69 days,5/30/2012 14:00,,,,2/24/2012 10:00,,20,,,Yes,2/24/2012 10:00,,1000,4/19/2012 19:24,tina@demandmcg.com
3,1.1.1,Microsoft Dynamics,,,,,,,OK,20 hrs,1000,0 hrs,20 hrs,5/30/2012 14:00,,,,0 days,ASAP,,1/24/2012 19:38,tina@demandmcg.com,69 days,4481035.23.4,,,,,,CRM Evaluation (4481035.16.6),0 days,69 days,5/30/2012 14:00,,,,2/24/2012 10:00,,20,,,Yes,2/24/2012 10:00,,1000,4/19/2012 19:24,tina@demandmcg.com
4,1.1.1.1,Dynamics CRM Training,,,Self training on dynamics CRM,,Tina Aquilla,,OK,20 hrs,1000,0 hrs,20 hrs,5/30/2012 14:00,50,,,0 days,ASAP,,2/24/2012 18:28,tina@demandmcg.com,69 days,4481035.91.43,,,,,,Microsoft Dynamics (4481035.23.4),0 days,69 days,5/30/2012 14:00,,,,2/24/2012 10:00,,20,,,Yes,2/24/2012 10:00,,1000,4/19/2012 19:24,tina@demandmcg.com
5,1.2,MAS Vendor Evaluation,,,,,,100%,OK,3 hrs,150,3 hrs,0 hrs,3/9/2012 14:00,,,,0 days,ASAP,,1/18/2012 23:06,tina@demandmcg.com,11 days?,4481035.16.18,,,,,,MAS/CRM Education (4481035.16.16),0 days,11 days,3/9/2012 14:00,,,,2/24/2012 10:00,,3,,,Yes,2/24/2012 10:00,,150,4/19/2012 19:24,tina@demandmcg.com
6,1.2.1,Pardot,,,,,,100%,OK,3 hrs,150,3 hrs,0 hrs,3/9/2012 14:00,,,,0 days,ASAP,,3/13/2012 21:20,tina@demandmcg.com,11 days?,4481035.115.1,,,,,,MAS Vendor Evaluation (4481035.16.18),0 days,11 days,3/9/2012 14:00,,,,2/24/2012 10:00,,3,,,Yes,2/24/2012 10:00,,150,4/19/2012 19:24,tina@demandmcg.com
7,1.2.1.1,Pardot Partner Meeting,,,Exploring a partnership with Pardot,,"Brett, Cory Nickerson, Tina Aquilla",100%,OK,1 hr,50,1 hr,0 hrs,2/24/2012 11:00,50,,,0 days,ASAP,,2/24/2012 18:08,tina@demandmcg.com,1 hr,4481035.91.37,,,,,,Pardot (4481035.115.1),0 days,1 hr,2/24/2012 11:00,,,,2/24/2012 10:00,,1,,,Yes,2/24/2012 10:00,,50,4/19/2012 19:24,tina@demandmcg.com
8,1.2.1.2,Pardot Deep Dive,,,Meeting to cover the back end of Pardot,,Tina Aquilla,100%,OK,2 hrs,100,2 hrs,0 hrs,3/9/2012 14:00,50,,,0 days,ASAP,,2/28/2012 23:00,tina@demandmcg.com,2 days?,4481035.103.1,,,,,,Pardot (4481035.115.1),0 days,2 days,3/9/2012 14:00,,,,3/8/2012 10:00,,2,,,Yes,3/8/2012 10:00,,100,4/19/2012 19:24,tina@demandmcg.com
9,1.3,Hubspot,,,,,,100%,OK,1 hr,50,1 hr,0 hrs,3/14/2012 14:00,,,,0 days,ASAP,,3/14/2012 20:51,tina@demandmcg.com,1 day?,4481035.115.7,,,,,,MAS/CRM Education (4481035.16.16),0 days,1 day,3/14/2012 14:00,,,,3/14/2012 10:00,,1,,,Yes,3/14/2012 10:00,,50,4/19/2012 19:24,tina@demandmcg.com
10,1.3.1,HS: Follow-Up Partner Call,,,,,Tina Aquilla,100%,OK,1 hr,50,1 hr,0 hrs,3/14/2012 14:00,50,,,0 days,ASAP,,3/14/2012 20:52,tina@demandmcg.com,1 day?,4481035.115.9,,,,,,Hubspot (4481035.115.7),0 days,1 day,3/14/2012 14:00,,,,3/14/2012 10:00,,1,,,Yes,3/14/2012 10:00,,50,4/19/2012 19:24,tina@demandmcg.com
11,1.4,Silverpop,,,,,,100%,OK,3 hrs,350,3 hrs,0 hrs,3/16/2012 14:00,,,,0 days,ASAP,,3/13/2012 21:20,tina@demandmcg.com,4 days?,4481035.115.2,,,,,,MAS/CRM Education (4481035.16.16),0 days,3 days,3/15/2012 14:00,,,,3/13/2012 10:00,,3,,,Yes,3/13/2012 10:00,,350,4/19/2012 19:24,tina@demandmcg.com
12,1.4.1,SilverPop Initial Call,,,,,Tina Aquilla,100%,OK,3 hrs,150,3 hrs,0 hrs,3/15/2012 14:00,50,,,0 days,ASAP,,3/13/2012 21:20,tina@demandmcg.com,3 days?,4481035.115.3,,,,,,Silverpop (4481035.115.2),0 days,3 days,3/15/2012 14:00,,,,3/13/2012 10:00,,3,,,Yes,3/13/2012 10:00,,150,4/19/2012 19:24,tina@demandmcg.com
13,1.4.2,SP: Demo,,,,,Tina Aquilla,100%,OK,,200,,,3/16/2012 14:00,50,,,0 days,ASAP,,3/20/2012 16:59,tina@demandmcg.com,1 day?,4481035.117.4,,,,,,Silverpop (4481035.115.2),1 day,1 day,,,,,,,,,,Yes,3/16/2012 10:00,,200,4/19/2012 19:24,tina@demandmcg.com
14,2,"Create PPT to demonstrate why integrating your website, email marketing, and crm to demonstrate ROI",,1,,,,5%,Late,4 hrs,50,0.2 hrs,3.8 hrs,6/20/2012 14:00,,,,0 days,ASAP,,1/18/2012 22:13,tina@demandmcg.com,85 days,4481035.16.10,,,,,,,0 days,85 days,6/20/2012 14:00,,,,2/23/2012 10:00,,4,,,Yes,2/23/2012 10:00,,50,4/19/2012 19:24,tina@demandmcg.com
15,2.1,Create PPT,,,,,Tina,22%,Late,3 hrs,,0.66 hrs,2.34 hrs,3/14/2012 14:00,,,,0 days,ASAP,,2/23/2012 22:28,tina@demandmcg.com,15 days,4481035.91.31,,,,,,"Create PPT to demonstrate why integrating your website, email marketing, and crm to demonstrate ROI (4481035.16.10)",0 days,15 days,3/14/2012 14:00,,,,2/23/2012 10:00,,3,,,Yes,2/23/2012 10:00,,,3/19/2012 17:53,tina@demandmcg.com
16,2.2,Present to Team,,,,,Tina Aquilla,,OK,1 hr,50,0 hrs,1 hr,6/20/2012 14:00,50,,,0 days,ASAP,,1/18/2012 23:04,tina@demandmcg.com,54 days,4481035.16.12,,,,,,"Create PPT to demonstrate why integrating your website, email marketing, and crm to demonstrate ROI (4481035.16.10)",0 days,54 days,6/20/2012 14:00,,,,4/6/2012 10:00,,1,,,Yes,4/6/2012 10:00,,50,4/19/2012 19:24,tina@demandmcg.com
17,3,Other Vendor evaluation,,,,,,8%,Late,7.25 hrs,300,0.58 hrs,6.67 hrs,3/29/2012 14:00,,,,0 days,ASAP,,1/18/2012 22:12,tina@demandmcg.com,46 days?,4481035.16.8,,,,,,,0 days,46 days,3/29/2012 14:00,,,,1/26/2012 10:00,,7.25,,,Yes,1/26/2012 10:00,,300,4/19/2012 19:24,tina@demandmcg.com
18,3.1,InfusionSoft,,,,,Tina Aquilla,,Late,5 hrs,250,0 hrs,5 hrs,3/29/2012 14:00,50,,,0 days,ASAP,,1/24/2012 19:38,tina@demandmcg.com,46 days,4481035.23.7,,,,,,Other Vendor evaluation (4481035.16.8),0 days,46 days,3/29/2012 14:00,,,,1/26/2012 10:00,,5,,,Yes,1/26/2012 10:00,,250,4/19/2012 19:24,tina@demandmcg.com
19,3.2,Radian6,,,,,,100%,OK,0.75 hrs,,0.75 hrs,0 hrs,3/14/2012 14:00,,,,0 days,ASAP,,3/14/2012 20:52,tina@demandmcg.com,1 day?,4481035.115.11,,,,,,Other Vendor evaluation (4481035.16.8),0 days,1 day,3/14/2012 14:00,,,,3/14/2012 10:00,,0.75,,,Yes,3/14/2012 10:00,,,3/20/2012 17:04,tina@demandmcg.com
20,3.2.1,R6: Initial Demo Call,,,,,,100%,OK,0.75 hrs,,0.75 hrs,0 hrs,3/14/2012 14:00,,,,0 days,ASAP,,3/14/2012 20:52,tina@demandmcg.com,1 day?,4481035.115.12,,,,,,Radian6 (4481035.115.11),0 days,1 day,3/14/2012 14:00,,,,3/14/2012 10:00,,0.75,,,Yes,3/14/2012 10:00,,,3/20/2012 17:04,tina@demandmcg.com
21,3.3,ReturnPath,,,,,,100%,OK,1.5 hrs,50,1.5 hrs,0 hrs,3/20/2012 14:00,,,,0 days,ASAP,,3/14/2012 20:55,tina@demandmcg.com,5 days?,4481035.115.16,,,,,,Other Vendor evaluation (4481035.16.8),0 days,3 days,3/19/2012 11:00,,,,3/14/2012 10:00,,1.5,,,Yes,3/14/2012 10:00,,50,4/19/2012 19:24,tina@demandmcg.com
22,3.3.1,RP: Initial Partnership Call,,,,,,100%,OK,0.5 hrs,,0.5 hrs,0 hrs,3/14/2012 14:00,,,,0 days,ASAP,,3/14/2012 20:55,tina@demandmcg.com,1 day?,4481035.115.17,,,,,,ReturnPath (4481035.115.16),0 days,1 day,3/14/2012 14:00,,,,3/14/2012 10:00,,0.5,,,Yes,3/14/2012 10:00,,,3/20/2012 17:04,tina@demandmcg.com
23,3.3.2,Return Path Demo,,,,,"Brett, Tina Aquilla",100%,OK,1 hr,50,1 hr,0 hrs,3/20/2012 14:00,50,,,0 days,ASAP,,3/14/2012 20:56,tina@demandmcg.com,8 hrs,4481035.115.19,,,,,,ReturnPath (4481035.115.16),0 days,1 hr,3/19/2012 11:00,,,,3/19/2012 10:00,,1,,,Yes,3/19/2012 10:00,,50,4/19/2012 19:24,tina@demandmcg.com
24,4,Internal MCG IT Projects,,,,,,17%,Late,29 hrs,1325,4.93 hrs,24.07 hrs,6/1/2012 14:00,,,,0 days,ASAP,,2/23/2012 20:23,tina@demandmcg.com,72 days?,4481035.91.1,,,,,,,0 days,72 days,6/1/2012 14:00,,,,2/23/2012 10:00,,26.5,,,Yes,2/23/2012 10:00,,1325,4/19/2012 19:24,tina@demandmcg.com
25,4.1,SFDC,,,,,Tina Aquilla,,OK,20 hrs,1000,0 hrs,20 hrs,6/1/2012 14:00,,,,0 days,ASAP,,2/23/2012 20:24,tina@demandmcg.com,71 days,4481035.91.5,,,,,,Internal MCG IT Projects (4481035.91.1),0 days,71 days,6/1/2012 14:00,,,,2/24/2012 10:00,,20,,,Yes,2/24/2012 10:00,,1000,4/19/2012 19:24,tina@demandmcg.com
26,4.1.1,Investigate communication with clients through Chatter,,,,,,,OK,20 hrs,1000,0 hrs,20 hrs,5/30/2012 14:00,,,,2 days,ASAP,2/24/2012 12:00,2/23/2012 22:30,tina@demandmcg.com,276 hrs,4481035.91.34,,,,,,SFDC (4481035.91.5),2 days,276 hrs,5/30/2012 14:00,,,,2/24/2012 10:00,,20,,Yes,Yes,2/24/2012 10:00,,1000,4/19/2012 19:24,tina@demandmcg.com
27,4.1.1.1,SFDC Training,,,,,Tina Aquilla,,OK,20 hrs,1000,0 hrs,20 hrs,5/30/2012 14:00,50,,,0 days,ASAP,,2/24/2012 18:29,tina@demandmcg.com,69 days,4481035.91.45,,,,,,Investigate communication with clients through Chatter (4481035.91.34),0 days,69 days,5/30/2012 14:00,,,,2/24/2012 10:00,,20,,,Yes,2/24/2012 10:00,,1000,4/19/2012 19:24,tina@demandmcg.com
28,4.2,Viewpath,,,,,,67%,Late,7 hrs,325,4.69 hrs,2.31 hrs,4/6/2012 14:00,,,,0 days,ASAP,,2/23/2012 20:26,tina@demandmcg.com,32 days?,4481035.91.7,,,,,,Internal MCG IT Projects (4481035.91.1),0 days,15 days,3/15/2012 11:00,,,,2/23/2012 10:00,,6.5,,,Yes,2/23/2012 10:00,,325,4/19/2012 19:24,tina@demandmcg.com
29,4.2.1,VP Implementation,,,"Purchase, Install, initial training",,Tina Aquilla,100%,OK,5 hrs,250,5 hrs,0 hrs,3/14/2012 14:00,50,,,0 days,ASAP,,2/23/2012 20:26,tina@demandmcg.com,3 wks,4481035.91.10,,,,,,Viewpath (4481035.91.7),0 days,3 wks,3/14/2012 14:00,,,,2/23/2012 10:00,,5,,,Yes,2/23/2012 10:00,,250,4/19/2012 19:24,tina@demandmcg.com
30,4.2.2,Trained Cory on VP/SFDC Integration,,,Ad-hoc training,,Tina Aquilla,100%,OK,0.5 hrs,25,0.5 hrs,0 hrs,2/23/2012 14:00,50,,,0 days,ASAP,,2/23/2012 20:54,tina@demandmcg.com,1 day?,4481035.91.19,,,,,,Viewpath (4481035.91.7),0 days,1 day,2/23/2012 14:00,,,,2/23/2012 10:00,,0.5,,,Yes,2/23/2012 10:00,,25,4/19/2012 19:24,tina@demandmcg.com
31,4.2.3,Review Viewpath on SFDC AppExchange,,,,,Tina,,Late,0.5 hrs,,0 hrs,0.5 hrs,4/6/2012 14:00,,,,0 days,ASAP,,3/27/2012 21:35,tina@demandmcg.com,8 days?,4481035.119.8,,,,,,Viewpath (4481035.91.7),1 day,1 day,,,,,,,,,,Yes,3/28/2012 10:00,,,4/19/2012 19:23,tina@demandmcg.com
32,4.2.4,Additional Viewpath training for the Team,,,Internal training/Q&A with team,,Tina Aquilla,100%,OK,1 hr,50,1 hr,0 hrs,3/15/2012 11:00,50,,,0 days,ASAP,,3/8/2012 23:06,tina@demandmcg.com,1 hr,4481035.106.12,,,,,,Viewpath (4481035.91.7),0 days,1 hr,3/15/2012 11:00,,,,3/15/2012 10:00,,1,,,Yes,3/15/2012 10:00,,50,4/19/2012 19:24,tina@demandmcg.com
33,4.3,IT Management,,,,,Tina Aquilla,,Late,2 hrs,,0 hrs,2 hrs,3/28/2012 14:00,,,,0 days,ASAP,,3/20/2012 16:45,tina@demandmcg.com,4 days,4481035.117.1,,,,,,Internal MCG IT Projects (4481035.91.1),1 day,1 day,,,,,,,,,,Yes,3/23/2012 10:00,,,4/2/2012 19:05,tina@demandmcg.com
34,4.3.1,Vertical Response,,,,,Tina,,Late,2 hrs,,0 hrs,2 hrs,3/28/2012 14:00,,,,0 days,ASAP,,3/22/2012 20:46,tina@demandmcg.com,4 days,4481035.117.11,,,,,,IT Management (4481035.117.1),1 day,1 day,,,,,,,,,,Yes,3/23/2012 10:00,,,4/2/2012 19:05,tina@demandmcg.com
35,5,Writing Projects,,,,,,40%,Late,5 hrs,250,2 hrs,3 hrs,3/30/2012 14:00,,,,0 days,ASAP,,2/23/2012 20:33,tina@demandmcg.com,28 days?,4481035.91.16,,,,,,,0 days,4 days,2/27/2012 14:00,,,,2/22/2012 10:00,,2,,,Yes,2/22/2012 10:00,,250,4/19/2012 19:24,tina@demandmcg.com
36,5.1,March Blog Post - Demand Generation,,,Marketing measurement,,"Brett (25%), Tina Aquilla",100%,OK,2 hrs,100,2 hrs,0 hrs,2/27/2012 14:00,50,,,0 days,ASAP,,2/23/2012 20:34,tina@demandmcg.com,4 days?,4481035.91.17,,,,,,Writing Projects (4481035.91.16),0 days,4 days,2/27/2012 14:00,,,,2/22/2012 10:00,,2,,,Yes,2/22/2012 10:00,,100,4/19/2012 19:24,tina@demandmcg.com
37,5.2,April Blog Post,,,,,Tina Aquilla,,Late,3 hrs,150,0 hrs,3 hrs,3/30/2012 14:00,50,,,0 days,ASAP,,3/22/2012 19:26,tina@demandmcg.com,6 days,4481035.117.8,,,,,,Writing Projects (4481035.91.16),1 day,1 day,,,,,,,,,,Yes,3/23/2012 10:00,,150,4/19/2012 19:24,tina@demandmcg.com
38,6,MCG,0,,,,,1%,OK,300 hrs,15000,3 hrs,297 hrs,7/17/2013 14:00,,,,0 days,ASAP,,2/23/2012 22:22,tina@demandmcg.com,365 days?,4481035.91.25,,,,,,,0 days,365 days,7/17/2013 14:00,,,,2/23/2012 10:00,,300,,,Yes,2/23/2012 10:00,,15000,4/19/2012 19:24,tina@demandmcg.com
39,6.1,MCG - Generic,0,,"Emails, internal discussion, etc.",,Tina,,OK,0 hrs,,0 hrs,0 hrs,7/17/2013 14:00,,,,0 days,ASAP,,2/23/2012 22:21,tina@demandmcg.com,365 days,4481035.91.23,,,,,,MCG (4481035.91.25),0 days,365 days,7/17/2013 14:00,,,,2/23/2012 10:00,,0,,,Yes,2/23/2012 10:00,,,3/19/2012 17:53,tina@demandmcg.com
40,6.2,MCG - Internal Meetings,,,"Account meetings, time tracking, Lunch and Learns, Etc.",,Tina Aquilla,,OK,300 hrs,15000,0 hrs,300 hrs,7/17/2013 14:00,50,,,0 days,ASAP,,2/23/2012 22:21,tina@demandmcg.com,365 days,4481035.91.24,,,,,,MCG (4481035.91.25),0 days,365 days,7/17/2013 14:00,,,,2/23/2012 10:00,,300,,,Yes,2/23/2012 10:00,,15000,4/19/2012 19:24,tina@demandmcg.com
41,6.3,Biz Dev,,,,,Tina Aquilla,100%,OK,0 hrs,0,0 hrs,0 hrs,3/8/2012 14:00,,,,0 days,ASAP,,3/7/2012 21:01,tina@demandmcg.com,2 days?,4481035.106.4,,,,,,MCG (4481035.91.25),0 days,2 days,3/8/2012 14:00,,,,3/7/2012 10:00,,0,,,Yes,3/7/2012 10:00,,0,4/19/2012 19:24,tina@demandmcg.com
42,6.3.1,ArcMail,,,Possible new Salesforce discussion,,Tina Aquilla,100%,OK,0 hrs,0,0 hrs,0 hrs,3/8/2012 14:00,50,,,0 days,ASAP,,3/7/2012 21:01,tina@demandmcg.com,2 days?,4481035.106.5,,,,,,Biz Dev (4481035.106.4),0 days,2 days,3/8/2012 14:00,,,,3/7/2012 10:00,,0,,,Yes,3/7/2012 10:00,,0,4/19/2012 19:24,tina@demandmcg.com
43,6.3.2,Prospecting,,,Discussions with potential new clients or partners,,Tina Aquilla,100%,OK,0 hrs,0,0 hrs,0 hrs,3/8/2012 14:00,50,,,0 days,ASAP,,3/8/2012 21:55,tina@demandmcg.com,1 day?,4481035.106.8,,,,,,Biz Dev (4481035.106.4),0 days,1 day,3/8/2012 14:00,,,,3/8/2012 10:00,,,,,Yes,3/8/2012 10:00,,0,4/19/2012 19:24,tina@demandmcg.com
