,Client,Phone Numbers,Email,Full Name,Billing Address
,A Woman's Work,,slemke@awomanswork.com,Sandra Lemke,"2401 Rice Blvd.
Houston TX 77005"
,AAA Laser,,melinda@aaalaser.com,Melinda Patterson,"24 Westech Dr
Tyngsboro MA 01879"
,Accident Care & Treatment Center,Phone: (405) 620-5037,DenaMarler@gmail.com,Dena Marler,"3233 NW 63rd Street
Oklahoma City OK 73116"
,ACME TESTERS,,curtis@brochurebuilders.com,Johnny Testaform,
,Advance Homecare,Phone: (949) 939-3161,advancehomecare@hotmail.com,Wendy Kennen,
,Advanced Dialysis Center,,advanceddialysis@comcast.net,Zarita Pearson,"104 Ashton Knolls Lane
Ashton MD 20861"
,Advantage Inspection Service,Phone: (602) 341-3412,azinspect@gmail.com,Davad Swartz,"14835 North 1st Ave.
Pheonix AZ 85023"
,Advantage SBS,Phone: (713) 859-1195,rhalvorsen@advantagesbs.com,Rob Halvorsen,"22503 Katy Freeway
Suite 54
Katy TX 77450
USA"
,Affirmative Technologies USA,"Phone: (727) 772-9881 , ext",rtitterud@affirmativeusa.com,Richard,"3511 U.S. Highway North Suite 200
Palm Harbor FL 34684"
,AIP Trading,Phone: 832-631-6316,jbaker@aiptrading.com,Josie Baker,"9595 Six Pines Suite 8210
The Woodlands TX 77380"
,Airport Art Program - Atlanta,Phone: (404) 382-2478,david.vogt@atlanta-airport.com,David Vogt,"P.O. Box 20509
Atlanta GA 30320"
,All Fencing and Repair,Phone: (954) 605-6236,gesenia69@yahoo.com,Jessie,"10042 NW 50th Street
Sunrise FL 33351"
,ALLCRYO,"Phone: (936) 441-8333
Mobile: (936) 672-3128",jimmy@allcryo.com,Jimmy Ballard,"21500 Sharp Rd
Montgomery Tx 77356
USA"
,Allure Medical Aesthetic,,aperalta_rn@yahoo.com,Alma Peralta,
,AM Restaurants,,mtaylor057@gmail.com,Michael Taylor,"21 Waterway Ave, Suite 300
The Woodlands TX 77380"
,American Evaluation and Translation,,gbligh@aetsinternational.com,Jeff Bligh,
,AMF Appraisal Group,Phone: (936) 521-6833,andrea@amfappraisalgroup.com,Andrea Fahrenthold,Tx
,Anchor Bookkeeping,,cpadgett619@att.net,,
,Annabel Chotzen,,annabel@annabelchotzen.com,Annabel Chotzen,"3675 Woodlawn Terrace PL
Honolulu HI 96822"
,Apex Cast Stone Perez,,apexstone@sbcglobal.net,Alex Perez,Apex Cast Stone
,Appraise All,,sandiegohelp@yahoo.com,Bryan Knowlton,"4901 Morena Blvd #215
San Diego CA 92117"
,Aqui Realty,,enrique@enriquerosales.com,Enrique Rosales,The Woodlands TX 77380
,"Arise Initiatives, LLC",Phone: (337) 794-3421,mcooley777@aol.com,Matt Cooley,"4361 Dean Drive
Sulphur LA 70665"
,Arms Reach Elderly Services,Phone: (215) 264-9017,slc.lynne@gmail.com,Sherrie Couglin,
,"Ashco Construction, Inc.",Phone: 801-259-2259,dashley@ashcoconstruction.com,David Ashley,"1756 West Precipice Way
Brigham City UT 84302"
,ATG Construction,,kgwalton@gmail.com,ATG Construction,"13327 Lake Breeze Ln
Willis TX 77318
USA"
,Atlanta Graphic Design,,cablue1@hotmail.com,Caesar Blue,"1195 Milton Terrace
#4307
Atlanta GA 30315"
,Atlantic Health Group,,mlecamus@atlantic-health.com,Jerry Mee,"1415 North Loop West Suite 1100
Houston TX 77008"
,Atomic Media Research,Phone: (323) 972-5145,matthew_kolokoff@hotmail.com,Matthew Kolokoff,
,Auto Doctor | Advance Auto Inc.,Mobile: 5083417102,jason@theautodoctor.net,Jason Malo,
,Avatar Interactive Logistics,,tvgreen@avatarinteractivelogistics.com,Terek Green,"235 Peachtree Street NE Suite 400
Atlanta GA 30303"
,AVL Concepts,,thuyvan@avlconcept.com,Van Campbell,"17220 12th Place
Lynnwood WA 98037"
,AvSource,Phone: 713-291-2281,operations@avsourcemanuals.com,Az Shah,"Avsource
10904 Scarsdale #350-181
Houston TX 77089"
,Badge Express,Phone: 800-251-1752 x380,gsayour@badgeexpress.com,George Sayour,"5763 North Andrews Way
Ft. Lauderdale FL 33309"
,Bantu Group,,info@bantugroup.com,Marcela Delgado,
,Bayou City Lumber,Phone: 7139912377,warren@bayoucitylumber.com,Warren Spencer,"11106 Telephone Road
Houston TX 77075"
,"Bell-Anderson and Associates, LLC AMO",Phone: (253) 852-8195,sdurham@bell-anderson.net,Stephanie Durham,"10615 SE 256th St Suite #201
Kent WA 10615 SE 256th St Suite #201"
,Better Living & Care Homes,Phone: (323) 651-2733,Lucien@betterlivingandcare.com,Lucien Ezros,"734 North La Jolla Ave
Los Angeles CA 90046"
,Big State Fabrication,,cgoff@bigstatefab.com,David P Turner,"18910 West Industrial Pkwy
New Caney TX 77357"
,BikeBarPads.com,,jtass1@yahoo.com,Jim Tassone,
,Boone's Landscaping,Phone: (281) 684-7037,boone@booneslandscaping.com,Boone McDonald,"2203 Nicholas Crossing
Conroe Tx 77304
USA"
,Brendan Custom Homes,"Phone: 281-932-9835
Mobile: 281-932-9836",brendanhomes@aol.com,Kurt LaBarge,"714 Stonewall Jackson Ct.
Conroe TX 77302"
,"Brown, Koro & Romag",,audrey@russbrown.com,Audrey Nesbitt,"13047 Ventura Blvd
Studio City Ca 91607"
,Brownard Security,,hq@brownard.com,Josh Blancett,"119 South Main Street 5th floor
Memphis TN 38103"
,Bulb and Battery Center,Phone: (770) 732-6148,info@bulbandbattery.com,Jack Reilly,"591 Thornton Rd
Suite J, Dock 9
Lithia Springs GA 30122"
,Burke Center for Youth,Phone: (512) 858-4258,karyn@theburkecenter.org,Karyn Rogers,"20800 FM 150 West
Driftwood TX 78619"
,Burney Industries,,TEXEAKIN@aol.com,Frank Eakin,
,Burrow Global Companies,Phone: (713) 963-0930,Alicia.Dutton@demar-ltd.com,John Meyer,"6200 Savoy Dr. 
Suite 800
Houston TX 77036"
,C&R Electric,,gwendalyn@gmail.com,Wendy Beltnick,"6821 Leapick Drive
Mt. Pleasant MI 48858"
,CAL Sports Academy,Phone: (215) 896-0910,corey@calsportsacad.com,Corey Lord,"642 CowPath Rd, Suite 383
Lansdale PA 19446"
,Campos Lawn Services,Phone: (713) 202-8759,camposerk@yahoo.com,Jorge Campos,"15370 Iris Crossing
Houston TX 77049"
,Cannon Machine Products,Phone: (509) 627-0505 x152,rcannon@cannonmch.com,Bob Cannon,"1204 S. Clodfelter Rd
Kennewick WA 99338"
,Capital Christian Center,,pastor_dawn@juno.com,Dawn Wagner,
,Capitol Services Management,Phone: (202) 563-5200,kevin@thecsmi.com,Kevin Vaughn,"3215 Martin Luther King Jr Ave
Washington DC 20032"
,"Career Contentment, Inc",Phone: (847) 607-8854,jeffgarton@careercontentment.com,Jeff Garton,"8 Queensway
Lincolnshire Il 60069"
,Career Exploration,Phone: (203) 273-4037,devin@ceinternships.com,Devin Stagg,"227 E. 96th
Suite 6F
New York NY 10128
USA"
,Career Fulfillment,Phone: 713.419.2942,ykishimoto@gmail.com,Yuko Kishimoto,"2520 Robinhood St. #1604
Houston TX 77005"
,"CareMor Precision Metals, LP","Phone: 936-203-5969
Fax: 936-582-6044",rod@caremorprecision.com,Rod Acker,"10385 Commerce Row, Ste. A
Montgomery TX 77356"
,Casita Builders,Phone: (480) 326-6383,steve@casitabuilders.com,Steve Myers,"3202 N. 136th Drive
Avondale AZ 85392"
,CBS Mechanical,,irishkaj@gmail.com,,
,Centurion Development Group,Phone: 281.226.0810,brabham22@yahoo.com,Brandon Brabham,"9505 Dry Springs Drive
LaPorte TX 77571"
,Century Construction Services,Phone: (281) 468-0939,Jmoak@centuryconstructionservices.com,Jillian Moak,"34507 Highway 249
Pinehurst TX 77362"
,CFTC,Phone: (202) 418-5307,bglover@CFTC.gov,Bonita Glover,
,Chalk Bluff Ranch,,regina@wincomasonry.com,Melvin Bass,
,Citizens for Beth Akeson,"Phone: (309) 682-6447
Mobile: (309) 696-7530",bethakeson@comcast.net,Beth Akeson,Peoria IL
,Clark Fish LLC,Phone: (305) 424-2234,hiro@superfishusa.com,Hiro Mutoh,"1301 NW 89th Court
Doral FL 33172
USA"
,Clarus Benefits Group,Phone: (713) 403-2582,cgoss1@gmail.com,Cary Goss,"6800 West Loop South, Suite 228
Houston TX 77401"
,Classic Clocks,,Missy_Koutsobinas@tfcomp.com,Missy Koutsobinas,"25214 Collingtree Drive
Spring TX 77389"
,Clear The Air,Phone: (281) 992-7866,jason@comfort.pro,Jason Stom,"107 W Heritage Dr
Friendswood TX 77546"
,Coastal Solutions Group,,smorgan@coastalgroups.com,Shawn Morgan,
,Computer Tex,,greg@stringfellowconsulting.com,Greg Stringfellow,"2617C W Holcombe #113
Houston TX 77025"
,Conner Consulting,,conner678@comcast.net,Larry Conner,"3258 Bay View Dr
Jonesboro GA 30236"
,Contact Line,Phone: (281) 362-2716,carlosayala@contactlinellc.com,Carlos Ayala,"21 Waterway Ave, Suite 300
The Woodlands TX 77380"
,Contact Line:HBC Executive Suites,Phone: (281) 362-2716,carlosayala@contactlinellc.com,HBC Executive Suites,"21 Waterway Ave, Suite 300
The Woodlands TX 77380"
,ConXis Technologies,Phone: (507) 951-5529,chris@conxis.com,Chris Popp,"3270 19th Street NW
Suite 102
Rochester MN 55901"
,Copy Plus,"Phone: 2813621311
Mobile: 7138291505",copypluswoodlands@yahoo.com,Kenneth Coulliette,"1715-A Sawdust Rd.
The Woodlands TX 77380"
,"Corporate Benefit Services, Inc.",Phone: 301-230-0076 x 13,charles@corben.com,Charles Lewandowski,"6219 Executive Blvd.
Rockville MD 20852"
,Corporate Solutions,Phone: 956-928-0688,ron@corpsolpeo.com,Ron Misage,"2032 Orchid Ave.
McAllen TX 78504"
,Costa Rica Roy Fine Cigars,Phone: 979-277-4786,crossroadp@aol.com,Roy Streckfuss,"3503 Shadow Springs Ct.
Houston TX 77082"
,Cotton Industries,,jeffrey.miller@cottonteam.com,Jeffrey Miller,"Jennifer Abad
1718 Fry Road
Suite 205
Houston TX 77084"
,Countrywide Builders Ltd,Phone: (847) 710-8300,erickarick@aol.com,Rick Calamia,"34476 North Hickory Lane
Round Lake Il 60073"
,Couture Virgin Hair Inc,Phone: (202) 498-3737,newleafsolutions@yahoo.com,Christopher Bradley,"7120 Juliette Low Lane
Hughesville MD 20637"
,Covenant Christian School,,gayle.martin@ccsconroe.org,Gayle Martin,
,CrannieMack Bird Hunting,Phone: (217) 556-1712,1dmack@consolidated.net,Dennis McCammack,"11 Lakecrest Ln
Hillsboro Il 62049"
,Criminal Justice Protections,Phone: (239) 931-6600,cjpinc@earthlink.net,Steve Maldonado,"6540 Corporate Park Circle
Ft. Meyers FL 33966"
,Crossroad Personnel,,crossroadp@aol.com,Roy C Streckfuss,
,Crow Corp,,daved@crowcorp.com,Dave DeHart,"23715 FM 2978
Tomball TX 77375"
,"CSQ Engineering, Inc",Phone: (707) 455-0248,eng@csq1.com,Wendell Cibulka,"631 Cornell Court
Vacaville Ca 95687"
,Cute Baby Shoes,,alexa@cutebabyshoes.com,Alexa Faulkner,"2109 Mosley St.
Wayneboro VA 22980"
,Cyber Evidence,Phone: 281-296-0465 x112,steve.throneberry@cyberevidence.com,Steve Throneberry,"5 Grogans Park #211
The Woodlands TX 77380"
,DarkHorse Security Systems,,crossroadp@aol.com,Roy Streckfuss,
,Data Verify,Phone: 636-532-9797 ext. 13,mwootten@dataverify.com,Matt Wootten,"16100 Chesterfield Parkway, Suite 200
Chesterfield MO 63017"
,Datatraxx,Phone: (800) 687-6260,dshure@datatraxx.com,David,"11160-C1 South Lakes Dr. Suite 722
Reston VA 20191"
,Daufenbach Camera,Phone: (312) 226-0042,lawrence@daufenbachcamera.com,Lawrence Daufenbach,
,David Moore | LCSW,Phone: (713) 956-2662,amoore@holisticexpectations.com,David Moore | LCSW,"730 N. Post Oak, Suite 301
Houston TX 77024"
,Davidson Landscape Architecture,Phone: 281-796-4508,kdavidson@davidsonla.com,Kolby Davidson,"6046 FM 2920 #610
Spring TX 77379"
,Davis Tools,,blakeb@davistl.com,blake bennett,"Blake Bennett
3740 NW Aloclek Place
Hillsboro OR 97124"
,DCMA,,peter.king.ctr@dcma.mil,Peter King,"495 Summer St.
Boston MA 02210"
,DeBorde Law Offices,"Phone: 7135266300
Fax: 7132361802
Mobile: 8325413612",ndeborde@houston.rr.com,Nicole DeBorde,"917 Franklin, Suite 550
Houston TX 77002"
,Decision Support Service,,David.Smith@DecisionSupportService.com,David Smith,"24 E Stonewall Drive, STE 3
Front Royal VA 22630"
,DecoraDiva,Phone: 281-655-1077,brineyfam@hotmail.com,Tonya Briney,"15902 Camillia Trail
Tomball TX 77377"
,Demar Unlimited Service,Phone: (713) 963-0930,Fernanda.Soares@demar-ltd.com,Fernanda Soares,"6200 Savoy Drive, Suite 800
Houston TX 77036"
,DeMontrond Automotive,,hr2@demontrond.com,,
,Dental Implant Specialties,Phone: (310) 470-2211,aadya@dentalimplantspecialties.org,Dental Implant Specialties,"2370 Westwood Blvd., Suite I
Los Angeles CA 90064"
,Diamond Detective Agency,,edlockwood@diamond-security.com,Ed Lockwood,"1651 South Halsted
Chicago Heights IL 60411"
,Diana Hu Berry,Phone: (615) 986-8111,dhudirect@yahoo.com,Diana Hu Berry,"3617 Fair Meadows Court
Nashville TN 37211
USA"
,Digital Peripheral Solutions Inc.,Phone: 714-998-3440 Ext 492,kamal@dpsi-usa.com,Kamal Tolani,"8015 E. Crystal Dr.
Anaheim CA 92807
US"
,Dimension Research,Phone: 936-537-8632,dmleners@yahoo.com,Donald Leners,"14888 Hwy 105 West Suite 109
Montgomery TX 77356"
,"Diversified GC Unlimited, Inc.",Phone: 2813990195,hansen_enterprises@msn.com,Kimberly Hansen,"3091 College Park Dr. Ste. 240
The Woodlands TX 77384"
,Dogs Day Out/Inn,Phone: 713-408-0238,dogsdayinn1@yahoo.com,Angie Yarborough,"1625 Sawdust Road
The Woodlands TX 77381"
,Dougherty & Dougherty,,dndlaw@aol.com,Judy Dougherty,
,Dove Data,Phone: (864) 346-7128,BWells@dovedata.com,Brad Wells,"273 Hallmark Dr.
Lexington SC 29072"
,Down Under Security,Phone: (256) 714-0205,wrskid@gmail.com,Will Skidmore,"191 FM 1183
Ennis TX 75119"
,Dr Mac's Vitamins,,tfma@austin.rr.com,Dr. Douglas McMullen,"2301 West North Loop
Austin TX 78756"
,Dr. Anthony Paglia,Phone: (954) 458-1199,apmsresume@aol.com,Linda,"2500 East Hallandale Beach Blvd Suite 81
Hallandale Beach FL 33009
USA"
,Dr. Clayton Davis,"Phone: 770-476-9747
Mobile: 678-860-6882",drclayd@bellsouth.net,Dr. Clayton Davis,"3473 Satellite Blvd.
Suite 102
Duluth GA 30096"
,Dream Careers,Phone: (212) 367-4656,cody@dreamcareersinc.com,Cody Leclaire,"2010 Broadway
Redwood CA 94063
USA"
,E3 Residential Solutions,Phone: (936) 444-6393,E3ResidentialSolutions@yahoo.com,Michael T. Mounce,"4105 Windswept Drive
Montgomery TX 77356"
,Earth's Pure Remedy,Phone: (832) 372-4642,earthspureremedy@yahoo.com,Steven Wright,"1705 Round Oak Lane
Conroe TX 77304"
,Eastern Property Group,Phone: (610) 293-1400 x10,lshaffer@easternpropertygrouup.com,Lisa Shaffer,"1 Still Meadow Lane
Malvern PA 19355"
,EcoWater,Phone: (713) 569-5848,donayres35@yahoo.com,Don Ayers,"1300 S. Frazier, Suite #419
Conroe TX 77301"
,Eden Coast,,duane@edencoast.com,Duane Laricey,"1665 Lakes Parkway
Suite 114
Lawrenceville GA 30043"
,Efficient Wealth Management,,assist@ewealthmgmt.com,Kellie Disbro,"8505 Technology Forest Place, Suite 104
The Woodlands TX 77384"
,EGSCI Consulting Inc,Phone: (770) 379-8590,JBaber@egsci.com,Jessica Baber,
,Elite Limos of Houston,,renz@writeme.com,Renzo Ormsbee,"9597 Jones Road #163
Houston TX 77065"
,Emery Lauten,,emery@emerylauten.com,Emery Lauten,"1240 West 18th Street
Houston TX 77008"
,Employers Resource,,maria@employersresources.net,Maria Bynum,"717 Copper Meadow Blvd
Youngsville LA 70592"
,Energy Assault Solutions,Phone: (713) 689-9905,Darin@energyassault.com,Darin Williams,
,Energy Coating Systems,,milton@energycoatingsystems.com,Milton Downs,
,"Engineering Partners International, Inc.",,klinefelterc@engpartintl.com,Kline Felter,"1302 Kingwood Dr.
Kingwood TX 77339"
,Entourage Coach,Phone: (903) 513-0389,chris@entouragecoach.com,Chris Duggan,"14803 FM 322
Elkhart TX 75839"
,Envirotech,,sams@envirotech-tx.com,Sam Storensky,"270 Lake Meadows Dr
Montgomery TX 77316"
,Evangelical Child and Family Agency,Phone: (630) 653-6400,kyleh@evancfa.org,Kyle Homberg,"1530 N. Main Street
Wheaton Il 60187"
,Everest GIS,,brian.klawinski@mklaw.us,Brian Klawinski,"5338A Darling Street
Houston TX 77007"
,Excognito Inc.,Phone: 678-361-4200,kim@excognito.com,Mr. Kim Gokce,"1955 Fairway Circle NE
Atlanta GA 30319"
,Executive Landscapes,Phone: (913) 609-1425,anthony@executivelandscapes.net,Anthony Hollingsworth,"11809 Parallel Parkway
Kansas City KS 66109"
,Executive Search Consultants,,jbaker@esc-3.com,Jeanette Baker,"Les Virgil
6035 Lake Rd West #134
Ashtabula OH 44004"
,Expectation of Life,,,,
,Faithwest Academy,,gjolliff@faithwest.org,George Jolliff,"2225 Porter Rd
Katy TX 77493"
,Ferstar Services LLC,,rpd@ferstarservices.com,Rodrigo Pelaez,"21 Waterway Avenue Suite 300
The Woodlands TX 77380"
,Fieldwise,Phone: 713-300-0472 x 1002,alicia.klawinski@field-wise.com,Alicia Klawinski,"5338 A. Darling St.
Houston TX 77007"
,Fisher Construction,Phone: 281-464-3900,chris@fisher-commercial.com,Chris Fisher,"820 Lawrence Rd Suite 122
Kemah TX 77565"
,Fleming Manufacturing,Phone: (936) 539-1571,flemingcr125@yahoo.com,James Fleming,"2208 North Frazier
Conroe TX 77303"
,Flo-Spec,Phone: 281-362-2735,ericahill@flospec.com,Fabio Arenas,"21 Waterway Ave
Suite 300
The Woodlands TX 77380"
,Floors Now,Phone: (860) 548-9554,peter@floorsnowoutlet.com,Peter Vescovi,
,Florentia Properties,Mobile: (617) 894-4946,sia@florentiaproperties.com,Sia Fard,
,Forefront Innovation,,jennifer@forefrontinnovation.com,Ivan Lightfoot,"25275 Budde Rd., Suite 33
The Woodlands TX 77380"
,Francis Farrell,Phone: (215) 834-4288,ffarrellu@aol.com,Francis Farrell,"5396 Charles Street
Philadelphia PA 19124"
,Frank Eakin,Phone: (832) 236-9899,eakinfilms@mac.com,Frank Eakin,"43 Mistflower Place
The Woodlands TX 77381"
,Fredrickson Law Firm,Phone: 281-655-1000,eric@fredricksonlawfirm.com,Eric Fredrickson,"18531 Kuykendahl
Spring TX 77379"
,Friedkin Business Services,Phone: 713-580-3496,mkoutsobinas@friedkin.com,Missy Koutsobinas,"1375 Enclave Parkway
Houston TX 77077"
,G3 Direct Mail Advertising,,bhirte@g3direct.com,Bill Hirte,
,Gardendale Hospice,,rkeenan@gardendalehospice.com,Ryan H Keenan,"Gardendale Hospice
Ryan Keenan
753 West 2nd Avenue
Corsicana Tx 75110
USA"
,Georgia PTA,Phone: (202) 285-0052,bhoffman@pta.org,Bev Hoffman,GA
,Gigi Cupcakes,,tgrowell@gmail.com,Jerry Rowell,"4747 Research Forest Drive, Suite 150
The Woodlands TX 77380"
,GIVF,Phone: (703) 876-3878,nhmalik@gmail.com,Nadeem Malik,
,Global Edge,Phone: 281-362-2877,admin@theglobaledgeconsultants.com,Janet Petrak,"21 Waterway Ave, Ste 300
The Woodlands TX 77380"
,GMP Technical Solutions,,kgrady@gmptechnical.com,Kevin Grady,"64 Jodi Lane
Strafford NH 03884"
,Golden Vault,Phone: 281-923-8710,globalrose@sbcglobal.net,David Kelly,"7731 Ashton
Houston TX 77095"
,Gonzales Instruction Services,Phone: 512-350-8757,josephagonzales@hotmail.com,Joseph Gonzales,
,Grace Community Church,,ted_seago@msn.com,Ted Seago,
,Grace Memory Care,,anniecotrau@yahoo.com,Annie Cotrau,"423 Pinewood Ridge Dr
Spring TX 77386"
,Greenland USA,,fida_38@yahoo.com,Fiona Dawn,"815 South Weller St.
Seattle WA 98104"
,Harbo Auto Sales,Phone: (508) 234-6767,mikeh@harbroauto.com,Michael Hare,"546 Providence Rd Route 122
Whitinsville MA 01525"
,"Hartwig Excavating Services, Inc.",Mobile: 832-731-8788,jrosser@fotw.org,Jim Rosser,"18740 FM 2090
Conroe TX 77306"
,Headwaters Land Conservance,Phone: (989) 731-0573,grender@headwatersconservancy.org,Gina Render,"110 South Elm Avenue
Gaylord MI 49735"
,HealthBase,Phone: 858.361.1200,jjohnston@kaisystems.com,Joel Johnston,"249 South Highway 101 #300
Solana Beach CA 92075"
,Healthy Start MD,,kslaughter@healthystartmd.com,Kaitlin Slaughter,"290 Medical Center Blvd
Webster TX 77598"
,Heartwood Custom Homes,Phone: (936) 273-1122,Frederick@HeartwoodCustomHomes.com,Frederick R. Roberts,
,Heavy Haulers,Phone: 912-427-0282,heavyhaulersinc@yahoo.com,Chelsea Zak,"244 Ohio Road
Jesup GA 31545"
,Helen's Care Cottages,Phone: 713.419.7357,helen@helenscarecottages.com,Helen Elliot,
,Hevla Coffee,Phone: 607.785.7612,sales@gentlejavacoffee.com,Casey Stein,"225 Harrison Ave
Endicott NY 13760"
,Hides,"Phone: (772) 781-7930
Mobile: (772) 215-2844",kcarothers@hides.com,Karen Carothers,"537 SE Central Pkwy
Stuart FL 34994
USA"
,Holistic Expectations,Phone: (713) 705-7257,amoore@holisticexpectations.com,Amanda Moore,
,Holland Porter Group,,holland@hollandportergroup.com,Holland Porter,"150 Wintergreen Trail
The Woodlands TX 77382"
,Home Analyzers,,jim@homeanalyzers.com,Jim Woerner,"1779 Kirby Parkway #1-352
Memphis TN 38138-0631"
,Home Analyzers - Mississippi,Phone: (601) 297-0086,ben@homeanalyzers.com,Ben Berteau,"25 Redfern Trail
Patel MS 39465
USA"
,Home Healthcare and Hospice,Phone: (570) 876-2900,rdavis@hhcpinc.com,Rick Davis,"940 Scranton-Carbondale HWY
Enyon PA 18403"
,Home-Rite Remolders and Builders,,caprio68@comcast.net,Emilio Caprio,
,Homespect,,inspection@homespect.us,Benny Kleven,"39724 Ridgedale Dr.
Murrieta CA 92563"
,Homewatch Caregivers,,beverly@eldercareofhouston.com,Beverly Brinson,"1776 Woodstead Ct
Suite 111
The Woodlands TX 77380"
,Homewise,,service@homewisetx.com,Inga Burton-Smith,
,Houston Training and Conference,Phone: 281-448-8432,awelch@tiec.com,Angel Welch,"480 N. Sam Houston Parkway E.
Suite 270
Houston TX 77060"
,HPS Advanced Dentistry,Phone: (248) 652-4782,drpranzarone@comcast.net,Heather Pranzarone,"4741 24 Mile Rd Suite C
Shelby Township MI 48316"
,Hunger and Homeless Ministry,Phone: 936-788-3212,brian@upclosetogod.com,Brian,"16170 Cedar Lane Loop
Willis TX 77378"
,Idea Connections,,nciolek@innovating.com,Nancy Ciolek,"693 East Avenue
Rochester NY 14607"
,Incept Ghana Limited,,abbey_benjamin@hotmail.com,Benjamin Abbey,
,Income Portfolio Strategies,Phone: 903-509-2289,denverdyer@lasalle-st.com,Denver Dyer,"3310 South Broadway Ste 205
Tyler TX 75701"
,Increase Performance,Phone: (918) 437-7001,martha@increase-performance.com,Martha Schmitt,"3158 South 108th E Ave. Suite 280
Tulsa OK 74146"
,Innovative Software Technologies Inc.,Phone: (860) 508-6731,hlawrence@isoftechnologies.com,Horace Lawrence,
,Intrepid Security Group,Phone: (866) 936-7569,m.bynum@intrepid-security.com,Maria Bynum,"2701 Johnston Suite 306
Lafayette LA 70503"
,"ISEE Corporation Universal, Inc.",,kglass@hotmail.com,Ken Glass,"Ken Glass
P.O. Box 271048
Louisville CO 80027-1048"
,Islamic Foundation of South Florida,Phone: (954) 610-9843,samirkakli@yahoo.com,Samir Kakli,"5457 NW 108th Ave
Sunrise FL 33351
USA"
,iThrive,Phone: (407) 687-3098,Victor@iThriveDevelopment.com,Victor Montalvo,
,ixsea offshore,,ech@ixsea.com,Ed Cheesman,
,"Jarreau & Associates, Inc.",Phone: (713) 993-7627,narcisa@jarreauinc.com,Narcisa Parrales,"1415 North Loop West - Suite 810
Houston TX 77008"
,Je'Tem Spa,,,Hellen V Carroll,
,Jet Black,Phone: (941) 320-3131,bp@jetbiz.us,Brian Paul,"871 Venetia Bay Blvd.
Suite 310
Venice FL 34285"
,JumpSource,,mporterjr@jumpsource.com,Mike Porter,"100 Cummings Center, Suite 359C
Beverly MA 01915"
,K&G Mortgage,,wkleckley@kgcm.com,Wes Kleckley,"2170 Buckthorne Pl.
The Woodlands TX 77380"
,"Kai Systems, Inc.",Phone: 828.230.5843,jjohnston@kaisystems.com,Joel Johnston,"20 Rosebay Lane
Asheville NC 28803"
,"KAM OIL RECYCLING, LLC",Phone: (870) 275-1978,kamwvo@yahoo.com,"KAM OIL RECYCLING, LLC","326 CR 791
Brookland AR 72417"
,Karesse,Phone: 832-640-4516,knguyen@logikz.com,Khanh Nguyen,"7457 Harwin Dr., Suite 180
Houston TX 77036"
,KB Custom Pools,Phone: (214) 783-9137,tyson911lexi@yahoo.com,George Barnett,
,Kele Polymers,Phone: 832-628-1980,tgrowell@gmail.com,Jerry Rowell,
,Kestrel,Phone: (281) 935-5237,buzz.crowell@kestrelidm.net,Buzz Crowell,"747 Kenrick Drive, Suite 100
Houston TX 77060"
,KNF Canada / Total Crane,Phone: (647) 388-8385,derek.m.thompson@hotmail.com,Derek Thompson,"487 Piercy Rd
Bolton Ontario L7E-5B8
Canada"
,Kraftsman,,maxr@kppe.com,Max Ramos,"19535 Haude Road
Spring TX 77388"
,Kukkiwon Academy,Phone: (612) 239-8484,young.kim8484@gmail.com,Young Kim,"8563 Dunkirk Ct NE
Blaine MN 55449"
,Labor Enabler,Phone: (832) 444-5630,kathleen@laborenabler.com,Kathleen Wilson,
,Lacy Enterprises,Phone: 850-857-0908,baghouse1@aol.com,Ray Lacy,"2319 Arriviste Way
Pensacola FL 32504"
,Lamar University,Phone: 409-880-1734,ramonica.scypion@live.com,Garland Chenier,"Office of Student Affairs
1050 East LaVaca
Beaumont TX 77705"
,Latch Oil,Phone: (409) 384-6853,allanhansen@latchoil.com,Allan Hansen,"2210 State Highway 63 W #100
Jasper TX 75951"
,"LAW OFFICES OF BRIAN J. McGOVERN, LLC",Phone: (201) 880-1808,cohen@brianjmcgovernlaw.com,"Michelle A. Cohen, Esq.","161 Main Street
Hackensack NJ 07601"
,Law Offices of Nejadpour & Associates,Phone: (213) 632-5297,irlanda@divorcelaws.biz,Irlanda Fernandez,"3540 Wilshire Blvd. Suite 901
Los Angeles CA 90010"
,Lawernce Ripak,Phone: (631) 694-1818 x229,clawlor@ripak.com,Charlie Lawlor,"165 Fields St.
West Babylon NY 11704"
,Lawn Ranger,Phone: 281-802-0733,walt@lawnrangercompany.com,Walt Crowder,"11187 Cox Rd.
Conroe TX 77385"
,Ledger Solutions,Phone: (832) 482-4240,rfisher@ledger-solutions.com,Roy Fisher,"1776 Woodstead Ct, Suite 220
The Woodlands TX 77380"
,Lenny Semaan,,ls8108@yahoo.com,Lenny Semaan,Coral Springs FL 33071
,Let Me Shine,,den2000@peoplepc.com,Dennis O'Conner,"9819 North Lake View
Montgomery TX 77316"
,LH Credit Repair,,leeharrison@aol.com,Lee Harrison,"1969 FM 2888
Naples TX 75568"
,Little Tokyo Service Center,,hjjenks@yahoo.com,Hillary Jenks,Historic Cultural Neighborhood Council
,Living Patterns,Phone: (281) 684-1118,keridon@lplifestylecoaching.com,Keridon M Davis,"Keridon M. Davis
21102 Coldde Meadow Ln
Spring TX 77379"
,"LMF Credit Services, Inc.",Phone: (718) 275-4896,rob@lmfcredit.com,Rob Fishbein,"110-20 Jamaica Ave. Ste 2A
Richmond Hill NY 11418"
,Lockheed Martin Enterprise Business Servi,Phone: (407) 306-4262,claudia.v.deyoung@lmco.com,Claudia DeYoung,"100 Global Innovation Circle
Orlando FL 32825"
,Lonesome Coyote Ranch,Phone: (361) 215-9283,afgray97@gmail.com,Amanda Gray,TX
,Long Ridge Limousine,Phone: (203) 667-0819,ldacunha@longridgelimousine.com,Luis DaCunha,"PO Box 16781
Stamford CT 06905
USA"
,Lubchem,Phone: (281) 350-9600,khightower@lubchem.com,Keith Hightower,"23609 W. Hardy Rd
Spring TX 77383"
,Luxe Concierge,,luxeconcierge@sbcglobal.net,Tammie Gandarillas,"46 Wildflower Trace Place
The Woodlands TX 77382"
,Magnetiks,Phone: 832-567-0833,wesley@magnetiks.com,Wesley Padgett,"1544 Sawdust Road, Suite 270
The Woodlands TX 77382"
,Make It Reel,,lee@makeitreel.net,Lee Kaplan,New York NY
,MARSH,,shanev@consolidated.net,Shane Vanderburg,"1009 Chris Carrie Ln
Conroe TX 77303"
,"Math Made Simple, Etc",,Cbarnes@mathmsimple.com,Cornelius Barnes,"2889 Whitten Road
Bartlett TN 38134"
,Maximus Data,Phone: (508) 431-8603,bbaker@maximusdata.com,Brian Baker,"106 Sycamore Lane
Westport MA 02790
USA"
,MC McLane International,,kelleyt@mcmclane.com,Mike Julian,"1400 Woodloch Forest Dr
Suite 200
The Woodlands TX 77380"
,McCluskey Dental Sales & Service,Phone: (214) 616-5794,colleen@mccluskeydental.com,Colleen McCluskey,Little Elm TX 75068-1625
,McLaren's Kenpo Karate,Phone: (859) 982-9515,mclarenskenpokarate@gmail.com,Thomas McLaren,"24 E. 26th St
Covington KY 41014
USA"
,MedTegra,Phone: (336) 931-0099,larry@MedTegra.com,Larry Allen,"1186 Pleasant Ridge Road
Colfax NC 27235"
,Mendocino Beauty,Phone: (707) 937-9977,amy@mendocinobeauty.com,Amy Wall,"45060 Suite A Ukiah St.
Mendocino CA 95460"
,Mentis Neuro-Rehabilitation,Phone: (713) 820-4216,dmarquez@mentisneuro.com,Delmy Marquez,"1415 North Loop West
Suite 1140
Houston TX 77008"
,Meridian Technologies,Phone: (281) 619-8308,frances.s.poage@gmail.com,Francis Poage,"3121 Sea Channel Drive
Seabrook TX 77586"
,Merritt Group,,harris@merrittgrp.com,Brandon Harris,"11600 Sunrise Valley Dr Suite 320
Reston VA 20191"
,Metro Tech Hvac,Phone: (800) 251-8216,Dingargiola@metrotechhvac.com,Debbie Ingargiola,"1355 Remington Rd Suite C
Schaumburg Il 60173"
,Metropolitan Vetrinary Centers,"Phone: 412-344-6888 x 456
Fax: (412) 344-6598",jdavis@metvetpgh.net,Jessie Davis,"560 McNeilly Rd
Pittsburgh PA 15226
USA"
,MH1 Web Design,,mike@mh1webdesign.com,Mike Hallaron,"21 Waterway Ave, Suite 300
The Woodlands TX 77380"
,"Miami Logistics Services, LLC","Phone: (305) 588-2274
Mobile: (305) 588-2274",hmootoe@yahoo.com,"Miami Logistics Services, LLC","7341 NW 79 Ter
Miami FL 33166"
,Michael Storm,Phone: 832-922-8690,storm1073@aol.com,Jeff Jennings,
,Midwest Fire & Security,Phone: (847) 888-6882,kadlec13@hotmail.com,Steven Kadlec,"1712 Berkley
Elgin IL 60123"
,Milestones Therapeutic Services,Phone: 310.577.1834,erinbadour@hotmail.com,Erin Kayen,"Erin Kayem
8055 West Manchester Ave
Suite 505
Playa del Rey CA 90293"
,Mission Voice Network,,,Rhonda L. Crank,Mission Vision Network
,Muscle Trap Gyms,Phone: 832.585.4820,trainer@muscletrap.com,Danny Gallehugh,"19073 I-45 North Suite 135
Shenandoah TX 77385"
,Musick & Musick LLP,Phone: (832) 448-1148,stevenhalpert@crimdefenseattorney.com,JoAnne Musick,"363 N. Sam Houston PKWY E.
Suite 1100
Houston TX 77060"
,My Deep Clean LLC,,oakleaf2005@gmail.com,Chris Reid,Tampa FL 33646
,National Space & Technology Association,,blyngaas@nstahouston.org,Bruce Lyngaas,"4918 Golden Pond Dr.
Kingwood TX 77345"
,Nationwide,,moenm@nationwide.com,Mitch Moen,"3300 Southwest Williston
Gainesville FL 36208"
,Natural Concepts,Phone: (281) 364-8546,dibyrne@hotmail.com,Diane Byrne,
,Neurorehabilitation Specialists,,anacubat@yahoo.com,Cindy Ivanhoe,"2211 Norfolk #220
Houston TX 77098"
,New Horizon Property Management,Phone: (267) 718-4448,tvelocity41@aol.com,Troy Brennan,
,"New Leaf Solutions, LLC",Phone: (240) 346-0733,newleafsolutions@yahoo.com,Christopher Bradley,"7120 Juliette Low Lane
Hughesville MA 20637"
,Newcomers of The Woodlands,Phone: (281) 413-4092,anitasitter15@gmail.com,Anita Sitter,"47 Vintage Path Place
The Woodlands TX 77481"
,Nobilus,,mmarrs@nobilus.com,Michael Marrs,
,North Florida Pharmacy,,pharmgirl714@hotmail.com,Jennifer Norman,"347 SouthWest Main Blvd, Suite 102
Lake City Fl 32025"
,Nuclear Imaging Services,Phone: (832) 467-4404,amanda@nis-mit.com,Mike Hewitt,"11050 West Little York
Suite C-2
Houston TX 77041"
,NWOS,Phone: 206-368-1230,joechebli@hotmail.com,Dr. Joseph Chebli,"1570 North 115th Street Suite 5
Seattle WA 98133"
,Office of the Chief of Infantry,Phone: (678) 938-3004,jimross509@yahoo.com,Jimmy Ross,
,Omni Development,,kevan.bb@omnidevelopment.net,Kevan Bay,"1202 Parkway Drive, Suite B
Santa Fe NM 87507"
,omni health care,Phone: (281) 465-0505,maryanne@omnihcc.com,Mary Anne Ramirez,"538 Sawdust Rd
Spring Tx 77380
USA"
,One Call Disaster Recovery,Phone: (650) 302-3446,dan@1callusa.com,Daniel Hartjoy,"249 W Jackson #323
Hayward CA 94544"
,"Open Hand, Inc.",Phone: (317) 694-8669,RodESmith@mac.com,Rod Smith,
,OSS Law Enforcement Advisors,Phone: 281-288-9190 ext 205,david.salmon@ossrisk.com,David Salmon II,"19018 Candleview Dr.
Spring TX 77388-5209"
,Paint Plus,,surefootng@aol.com,Randy Greene,"18470 Flora Drive
Yorba Linda CA 92886"
,"Pamela Wilson, M.D.",,pamelawilsonmd@gmail.com,"Pamela Wilson, M.D.","25440 I-45 N, Ste 200
Spring TX 77386"
,Panga Surf,Mobile: (408) 565-5990,pangasurf@hotmail.com,Paula Layman,
,PanLegis,,Joakim.gustafsson@panlegis.com,Joakim Gustafsson,
,Partners Electrical Services,,jimk@3partners.biz,Jim Keesling,"7303 Windfern Rd Suite 200
Houston TX 77040"
,"Patent Insights, Inc",Phone: (847) 249-2712,pi@patentinsights.com,Gary Oosta,"5377 Ashwood Ln
Gurnee IL 60031"
,Patriot Contractors Inc,Phone: (972) 923-1577,johnr@patriot1.com,John Raftery,"907 E. Ovilla Road  Ste. 103
Red Oak Tx 75154"
,Patriot Technologies,Phone: (719) 799-6707,lori@patriot-technologies.com,Lori Huthoefer,"4400 Leisure Time Dr.
Diamondhead MS 39525"
,Payless Tax Services,Phone: (504) 343-8387,andre101@cox.net,Andre Baira,"2201 Williams Blvd
Kenaer LA 70062"
,"PEMF Systems, Inc.",Phone: (818) 267-0095,trudy@pemfsystems.com,Trudy Rich,NV
,People First Resources,,janet.clark@pfres.com,Gregory Griffith,Gregory B. Griffith
,Perennial Homes,Phone: (936) 582-4174,Lisa.perennialhomes@yahoo.com,Lisa Carver,"15201 Walden Rd
Montgomery Tx 77356
USA"
,PerfectPetMatch.com,Phone: (516) 314-3550,mthalhe@gmail.com,Marc Thalheim,"200 East 33rd St Apt 5G
New York NY 10016"
,Performance Printing,Phone: (816) 628-9053,larprint@earthlink.net,Larry Reid,
,Peyton Peebles,,peebleslaw@gmail.com,,
,Pharmacy Specialist,Phone: (313) 300-8082,mshahbain@gmail.com,Moe Shahbain,
,Philip Lane Homes,,plane@consolidated.net,Philip Lane,
,PMRA,,jsoltra@comcast.net,Joseph Soltra,
,PowerBook Medic,Phone: (866) 726-3342,bradley@powerbookmedic.com,Bradley Wallace,"500 Wynn Dr STE 510
Huntsville AL 35816"
,Powermaster,Phone: 936-494-3501,BMTEX@aol.com,Bill McDuffie,"11133 I 45 South Bldg. J.
Conroe TX 77302"
,Precision Home Entertainment,,bpate11@yahoo.com,Brian Pate,"21530 Hannover Forest
Spring TX 77388"
,Premier Electronics,,chris.roberson@premierems.com,Chris Roberson,"13219-B Stafford Road
Missouri City TX 77489"
,Proctor & Gamble,,haley.al@pg.com,April Haley,"6200 Bryan Park Road
Brown Summit NC 27214"
,Professional Business Solutions,,carolc@staffforceleasing.com,Carol Crean,"15915 Katy Freeway
Suite 170
Houston TX 77094"
,Professional Services,,andrew.hill@spanbridge.com,Andrew Hill,
,"Prospect Wire, Inc",Phone: 305-527-7127,matt@prospectwire.com,Matt Bomeisl,"13255 Lakeside Terrace
Cooper City FL 33330"
,"Qualtech Consulting, Inc.",Phone: (941) 321-5651,todd@FAAConsultants.com,Todd White,"8374 Market Street, Suite 445
Bradenton FL 34202"
,Quantum Orthopedics,,info@quantumorthopedics.com,Todd Andres,"2744 Loker Ave West Suite 100
Carlsbad CA 92008"
,RealSkies,"Phone: (858) 692-2134
Fax: (760) 692-1424
Mobile: (858) 658-0081",chris@realskies.com,Chris Bourgault,
,Realty Design Group,,realtydesigngroup@yahoo.com,Angela Thomas,
,REHG Landscapes,,rehglandscapes@gmail.com,Ray,
,RejuveRX,,billysderision@gmail.com,,
,Renal Professional Staffing,Phone: 301-438-7505,troydanley@gmail.com,Troy Danley,"4511 Arabia Ave
Baltimore MA 21214"
,Render Construction,"Phone: (989) 786-4801
Mobile: (231) 499-7754",gina@renderconstruction.com,Eric J Render,"Render Construction, Inc.
2889 Kneeland St.
Lewiston MI 49756
USA"
,"Restruction General Contrators, LLC",Phone: 800.708.4130 Ext. 1,scottw@rgc24.com,Scott Weitzman,"1363 Shermer Road Suite 205
Northbrook IL 60062"
,Ricks Energy Consulting,,johnricks@recllc.com,John Ricks,"John L Ricks III
Two Allen Center
1200 Smith Street Suite 1600
Houston TX 77002"
,River Oaks Windows & Doors,,row_dwa@yahoo.com,Dennis Alverson,"6205 W. 34th Street
Suite D
Houston TX 77092"
,Riverside Associates,Phone: (509) 961-9508,ron@riverside-assoc.com,Ron Hicks,"1123 Pomona Rd
Yakima WA 98901"
,Robert Peng,Phone: (212) 987-9988,dongmei23@gmail.com,Robert Peng,"58 EAST 79TH STREET # 4R
New York NY 10075"
,"ROI Institute, Inc",Phone: (205) 422-3334,patti@roiinstitute.net,Patti Phillips,"350 Crossbrook Dr.
Chealsea AL 35043"
,Ronald Couming,Phone: (978) 606-5432,rcouming@gmail.com,Ronald Couming,
,Russell Family Dentistry,,LARDentist@aol.com,Louis Russell,
,"SAF Technologies,  Inc.",Phone: 704-844-0955 X11,alan.weeks@saftechnologies.com,Alan Weeks,"2032-B Independence Commerce Drive
Matthews NC 28104"
,Safer Houston,Phone: 281-638-2188,eblanches@yahoo.com,Blanche Ramsey,"S.A.F.E.R Houston
7 E Racing Cloud Ct
The Woodlands Tx 77381
USA"
,Sam Montessori,,olohi1@aol.com,,
,Sande Construction,Phone: (515) 332-2021,tubben@sandeconstruction.com,Tom Ubben,"1111 16th Ave. N
Humboldt IA 50548"
,Save A Life Medical Transportati,Phone: (267) 401-4547,savealife.medical@gmail.com,Vishal Dhanda,
,SB Training,,lydia@sbtraining.org,Lydia Kitahara,"820 E. Haley St
Santa Barbara CA 93103"
,Sbarro,Phone: 917-915-2174,eprotter@sbarro.com,Erwin Protter,
,SC Mountain Retreats,"Phone: 281-650-2277
Mobile: 970-368-4800",karenfuller@scmountainretreats.com,Karen Fuller,"200 West Buffalo
Dillon CO 80435"
,Schilleci Consulting,,wschilleci@msn.com,Wayne Schilleci,"31 East Bay Boulevard
The Woodlands TX 77380"
,Schilleci's New Orleans Kitchen,Phone: (281) 382-5017,wschilleci@msn.com,Wayne Schelleci,"9595 Six Pines Dr Ste 1120
The Woodlands TX 77380"
,Schleicher-Read Dental Group,Phone: (832) 476-1573,patty@schleicherdental.com,Patty DeRosa,"9099 Katy Freeway,Ste.180
Houston Tx 77024"
,Sea Spray Inn,Phone: (772) 231-5210,info@seasprayinnverobeach.com,Leslie Jones,"965 East Causeway Boulevard
Vero Beach FL 32963"
,Secure ITnet,Phone: 952-698-8200 x1610,tomb@secure-itnet.com,Tom Berken,"3033 Campus Drive
Suite W105
Plymouth MN 55441"
,Serendipity Designs,Phone: 281-795-9878,serendipitydesignsbydenise@yahoo.com,Denise Pennington,"400 South Roosevelt Ave.
Cleveland TX 77327"
,SES,,craig@strategicemployerservices.com,Craig Inabnet,
,Settleforless.net,,rob@settleforless.net,Robert Fishbein,"67-53 Woodhaven Blvd
Rego Park NY 11374"
,Shower Doors of Dallas,,monica@showerdoordallas.com,Monica Gantenbein,"1730 North Greenville Ave
Richardson Tx 75081"
,Simmco,,chris@entouragecoach.com,Chris Duggan,"14803 FM 322
Elkhart TX 75839"
,Skillerns Business Systems,Phone: 903 561 5591,bskillern@skillerns.com,Bill Skillern,"Bill Skillerns
1604 Grande Blvd
Tyler TX 75703"
,Skin Junkie,"Phone: 281-252-8263
Mobile: 832-922-8687",loganca@aol.com,Jeff Jennings,"Leslie Jennings
2311 Timberbriar Ct
Magnolia TX 77355"
,Smart Border,Phone: 716-681-5130 x203,dgionis@smartborder.com,Dean Gionis,"2875 Union Rd Suite 45
Buffalo NY 14227"
,SmarterMeds,,aaronemmel@bellsouth.net,Aaron Emmel,"5279 Cypress Links Blvd
Elkton FL 32033"
,Smith Behavioral Health,Phone: (214) 789-7279,annelssp@aol.com,Anne Smith,
,South Coast Commercial,"Phone: 619-226-6011 ext 106
Mobile: (619) 840-5462",cashflowsandiego@gmail.com,David Cameron,"3405 Kenyon St #411
San Diego CA 92110"
,Sovereign Global Advisors,Phone: (866) 790-9700,jdragotta1@yahoo.com,John Dragotta,"68 South Service Rd.#100
Melville NY 11747"
,Spags,,anthony@spags.net,Anthony Spagnoletti,"Spag's Collision
26230 Hanna Road
Conroe TX 77385"
,Spore Stoppers,Phone: Spore Stoppers,sporestoppers@aol.com,Dave Leal,"1313 Torrington Ave
Wellington FL 33414"
,Spring Life Chek,Phone: (832) 928-4316,tthomas@springlifechek.com,Tronown Thomas,"440 Rayford Rd
Suite 155
Spring Tx 77386
USA"
,SPRNGBoard Ministries,,matt@mattrobersononline.com,Matt Roberson,"805 W. Steele St.
Marlow OK 73055"
,Starfish Roofing,"Phone: 713-729-7663
Mobile: 281-804-9669",stevemartin@starfishroofing.com,Steve Martin,"12999 Murphy Rd. #N4
Stafford TX 77477"
,"Sterling Building Maintenance, LLC",,kristen@silvalink.com,Gretchen Ericson,"981 Hwy 98 E, Ste 3-166
Destin FL 32541"
,Sterling Fabrication,Phone: (713) 591-9004,clay@sterlingfabtech.com,Clay Kehrer,
,Stewart Land Designs,Phone: 281-251-1725,melissa@stewartlanddesigns.com,Melissa Stewart,"8711 Huffsmith Kuykendal
Tomball TX 77375"
,Stringfellow Consulting,Phone: 281-404-5641,greg@stringfellowconsulting.com,Greg Stringfellow,"2617C W Holcombe #113
Houston TX 77025"
,Subsea Hydraulic Leads,Phone: (832) 327-4853,clauds@subsealeads.com,Claud Stiles,"6401 Cunningham
Houston TX 77041"
,Susie Major,,s.rose.major@gmail.com,"Platinum WasteConsultants, LLC","7737 Minstrel Ave.
West Hills, CA 91304"
,"Syan Video Production, Inc.",Phone: (734) 261-0936,raj@syanvideo.com,Rajinder Syan,"28523 Ford Rd
Garden City MI 48135"
,"Synchron Systems, Inc",Phone: (215) 781-3565,mirandx@gmail.com,Brian Miranda,"1250 Veterans Hwy Suite G16
Bristol PA 19007"
,Tangible Assets Foundation,Phone: (571) 232-0490,panamaop@gmail.com,Paul Gulbronson,"405 NE 2nd
Hollandale FL 33009"
,Tanner & Wester,,dan@tannerwester.com,Daniel F. Tanner,"317 Main Street
BlackShear GA 31516"
,Taylor & Associates,Phone: (516) 228-0100,robert.b.launer@ampf.com,Rob Launer,"333 Earle Orington Blvd.
Suite 903
Mitchel NY 11553
USA"
,TBA Ink Jets,Phone: 424.270.0844,dnewton@ijcent.com,Don Newton,"1850 Evergreen St
Duerte CA 91010"
,"TBS Facility Services Group, LLC",Phone: (240) 351-6007,tbsfacilityservices@gmail.com,Tasha Berry,"125 Ripley Street Apt 204
Alexandria VA 22304"
,Teachers 2 Go,Phone: (713) 789-2352,DBPianoGuy@aol.com,David Brake,"800 Wilcrest Drive #258
Houston TX 77042"
,Team TSI,,andrewporch@teamtsi.com,Andrew Porch,"600 College St.
Albertville AL 35950"
,"Tech-Flo Consulting, LLC",,wjj@tech-flo.net,,
,TEICC,Phone: 281-892-2283,kurbey.faherty@teicc.com,Kurbey Faherty,"6961 Brookhollow West Dr #130
Houston TX 77040"
,TEPCO,Phone: 832-514-2489,Bridgette.Woodruff@tepco.us,Bridgette Woodruff,"606 Rolling Brook
Suite 2E
Baytown TX 77521"
,Terry L. Simon,,,,
,Texas Flyfishing,,dlemke@sbcglobal.net,David Lemke,
,Texas Hauling,,ROS2546@yahoo.com,Richard O Sullivan,"1101 Wilson Rd Apt 1104
Conroe TX 77301"
,Texas Home Theaters | Woodlands Home Secu,"Phone: 281-681-1373
Mobile: (832) 830-1864",sean@texas-hometheaters.com,Sean Whatley,"28100 Robinson Rd. Ste F
Conroe TX 77385"
,The Carpet Strore,,alanjenks@comcast.net,Alan Jenks,"5803 Chimney Rock Rd.,
Houston TX 77081"
,The Credit Card Ladies,,gunger@gvtc.com,,
,The Eagle Ford Directory,,bmitchell12@austin.rr.com,Bill Mitchell,
,The Flight Department USA Inc.,Phone: 203.300.9438,waldron@FLTDep.com,Brian P Waldron,"69 Kenosia Ave
Danbury CT 06810"
,The Woodlands Christian Center,Phone: 281-224-5520,tobey@thewoodlandscc.org,Tobey Barker,"24418 I-45 N.
Spring TX 77386"
,The Woodlands Skin Surgery Center,,wschilleci@msn.com,Brent Shook,"8850 Six Pines Drive, Suite 290
The Woodlands TX 77301"
,Thomas Ruggerio,Phone: (508) 975-2111,thomas.ruggiero@oasecurities.com,Thomas Ruggerio,"959 Concord Street, Suite 100
Framingham MA 01701"
,Tile-n-All,"Phone: (901) 301-3331
Mobile: (901) 301-3331",bhill@titan-financial.com,Bill Hill,MS 38672
,Tim Walker,Phone: (817) 715-7105,pastortimwalker@gmail.com,Tim Walker,"Arlington TX 76094
USA"
,TLC Doula Services,,dorin1117@yahoo.com,Dorin Jordan,"22 Verdin Place
The Woodlands TX 77389"
,Tobias Safety,Phone: (985) 804-4211,jtobias@tobiassafetyservices.com,Jennifer Tobias,"Tobias Safety Services
610 Highland Drive
Houma LA 70364"
,Top Valley Deals,Phone: (845) 297-7359,maddmaxart@aol.com,Andy Hengelhaupt,"17 Swenson Dr.
Wappingers Falls NY 12590
USA"
,TorqueLock Corp,Phone: (936) 760-2700,mah@gandytec.com,Mellisa Hallaron,"200 River Pointe Drive, Suite 110
Conroe Tx 77304"
,Total Medical Imaging,Phone: (954) 251-0744,abugnone@totalmedicalimaging.com,Alejandro Bugnone,"20801 Biscayne Boulevard, Suite 400
Miami FL 33180"
,Total Training,Phone: (501) 551-4020,vanesa.rambo@gmail.com,Vanesa Rambo,"2608 West Meadowbrook
Benton AK 72019"
,Tower Property,Phone: (732) 309-4216,towerpbms@gmx.com,Jerry Jaquinto,"8 Ley Place
Sussex NJ 07461"
,Town Center Theatre,,tctinfo@yahoo.com,Aaron Stryk,
,TR Strawberries,Phone: (209) 604-7653,drewtelles@sbcglobal.net,Drew Telles,"654 Page Ave.
Los Banos CA 93635"
,"TractBuilder, LLC",,brian.klawinski@mklaw.us,Brian Klawinski,"TractBuilder, LLC
Attn: Alicia Klawinski
5338A Darling Street
Houston TX 77007"
,TRCPI,,deanamarek@shsu.edu,Deanna Marek,"One Financial Plaza Suite 420
Bank of America Tower
Huntsville TX 77341"
,Tri County Services,,shaneb@tricountyservices.org,,
,"Tricor America, Inc.","Phone: 650.877.3650
Fax: 650.583.3197",garrick.louie@mail.tricor.com,Garrick Louie,"717 Airport Blvd.
South San Francisco CA 94080"
,Tru Unity,Phone: (202) 957-4428,ptmn11@yahoo.com,Helen Pham,
,Truth Worldwide,,pkerim@truthind.com,Patrick Kerim,"8701 New Trails Suite 115
The Woodlands TX 77380"
,TruVice,Phone: 281-413-9977,beauadams@truvicesurgical.com,Beau Adams,"18910 Oriole Point
Cypress TX 77429"
,TVC Solutions,,,Michael Marks,"102 Cafferty Rd
PO BOX 154
Point Pleasant PA 18950"
,Twilight Technologies,Phone: (602) 684-0198,bharris@essentialcomp.com,Brian Harris,"14362 N. Frank Lloyd Wright Blvd. Suite 1000
Scottsdale AZ 85260"
,"Tyler Homes, Inc. Clayton",,steve@tylercustomhomes.com,Kristen Clayton,
,Underthings,,underthings@satx.rr.com,Lisa Curbello,"8055 West Ave. Suite 106
San Antonio TX 78213"
,University of Pittsburgh,Phone: (412) 647-3510,deanra@upmc.edu,Robin DeAngelo,"200 Lothrop Street, Room D-132
Pittsburgh PA 15213-2582"
,USA Fasteners,Phone: 713-641-4600,miked@usafgrp.com,Mike Dierschke,"1300 Gazin
Houston TX 77020"
,Van Brunt & Associates,"Phone: 713.662.2636
Mobile: 713.725.8781",avanbrunt@vbenergy.com,Annette Van Brunt,"2316 Wordsworth
Houston TX 77030"
,VC Fine Arts,Phone: (561) 400-2765,KrisCW1313@gmail.com,Kristina Wilson,
,Vein and Laser Center,,azitareger@yahoo.com,Azita Reger,"9004 Forest Crossing Drive, Suite D
The Woodlands TX 77381"
,Venture Metals,Phone: 9727401809,john@venturemetals.com,John Rose,"11221 Tantor Rd.
Dallas TX 75229"
,Vernon Tube Tools,Phone: 936-494-3501,BMTEX@aol.com,Bill McDuffie,"11133 I-45 South Building J
Conroe TX 77302"
,Wallee Dog,,ikedunson@roadrunner.com,Ike Dunson,"3220 Peninsula Rd
Suite 167
Oxnard CA 93035"
,Watchful Eye and Lending Hand,Phone: (352) 653-8821,ken.warren@weandlh.com,Ken Warren,"10689 NE HWY 314
Silver Springs FL 34488"
,Water Color Maintenance,,tommysilvasr@gmail.com,Tommy Silva,"174 Water Color Way Suite 418
Santa Rosa Beach FL 3245
USA"
,Weldwire,Phone: 713-691-6381,rpelham@weldwire-tx.com,Regina Pelham,"PO Box 130243
The Woodlands TX 77393"
,WEPA,Phone: 205-422-1603,egrisham@wepanow.com,Frank Griffith,"410 Knightsbridge
Alabaster AL 35007"
,Wesley Tippit,,wes117@charter.net,Wesley Tippit,"219 Burns Farm Blvd. N.
Edwardsville IL 62025"
,West Virginia Republican Party,Phone: (304) 768-0493,troyberman@gmail.com,Troy Berman,"5 Greenbrier St
Charleston WA 25311"
,Whitney  Stassi,Phone: (503) 702-3075,whitneystassi@yahoo.com,Whitney Stassi,
,Will Hartzell,,will@safewatersystems.com,Will Hartzell,
,Will McCusker,Phone: (800) 734-0819 x 101,will@mccuskerco.com,Will McCusker,
,Wireworks,,k_curbello@yahoo.com,Kelly Curbello,"Kelly Curbello
2814 burning log
San Antonio TX 78247"
,WoodCrafters,Phone: (209) 333-1377,dawn@woodcraftersinc.com,Dawn Liebig,"25575 N. Hwy 99
Acampo CA 99220
USA"
,Woodlands Christian Athletic Association,,buzzc60@yahoo.com,Buzz,"12 Green Bough Ct.
Spring TX 77380"
,Woodlands Elite Cheer Camp,Phone: 281-681-1253 ext 101,jessica@woodlandselite.com,Woodlands Elite Cheer Camp,"1067 Pruitt Road
The Woodlands TX 77380"
,Woodlands Home Security,,Seanwhatley@yahoo.com,Sean Whatley,"27493 Hanna Rd
Suite 3
Conroe TX 77385"
,Woodlands Institute Health and Wellness,Phone: (281) 298-6742,jswan@twihw.com,Mila McManus,"26100 Oakridge Drive,
The Woodlands TX 77380"
,Workspace Resource,Phone: (936) 756-1512,jstrole@workspace-resource.com,James Strole,"Riverbend Station
11133 I-45 South Ste 330
Conroe TX 77302"
,Worldata Link,,,,
,WorldataLink,,mgadoush@worldatalink.com,Mohamed Gadoush,"21 West Main Street
Westbury CT 06702"
,Worldlink,Phone: 508-370-7778 x0,cmcmahon@wlnet.com,Cristina McMahon,"1101 Worcester Rd.
Framingham MA 01701"
,WYP,,jcallison@houston.rr.com,Joe Callison,"Joe Callison
23 Timberlea Place
The Woodlands TX 77382"
,Xavier Structures,,dmoore@xavierstructures.com,Donna Moore,"3900 Essex Lane Suite 330
Houston TX 77027"
,XCEL Air Conditioning Services,Phone: (985) 626-7424,bhollowayxcelair@yahoo.com,Brett Holloway,"269 W. Causeway Approach
Mandeville LA 70448"
,Your Complete Supply,Phone: (936) 672-6961,salyercaleb@yahoo.com,Caleb Salyer,"7089 Whispering WInd Drive
Willis Tx 77318"
,Your Vision Builder,Phone: (936) 672-6961,salyercaleb@yahoo.com,Caleb Salyer,"Your Vision Builder
7089 Whispering Wind Drive
Willis TX 77318"
,Yvonne Esch,Phone: 713-858-8743,contactyvonne@sbcglobal.net,Yvonne Esch,"Parthenon Management
6003 Charlestown Colony Court
Houston TX 77084"
,Zac Murtha Custom Homes Murtha,Phone: 936.443.3314,zac@zacmurthahomes.com,Zac Murtha,"330 Rayford Road PMB 333
Spring TX 77386"
,ZMachine Real Estate,Phone: (978) 660-0892,zeb@zmachinere.com,Zeb Couch,"30 Billerica Ave
North Billerica MA 01862"
,,,,,
,,,,,
"Saturday, Jun 25, 2011 12:31:48 PM GMT-5",,,,,
,,,,,
,,,,,
,,,,,
,,,,,
