Client,First name,Last name,Title,Email,Office Phone,Mobile Phone,Fax,Client AddressAvante Imaging Solutions,Carl,Denti,,orders@avanteis.com,,,,"218 W. Hampton, #13
Mesa, AZ 85210"Avante Imaging Solutions,Carl,Denti,,orders@avanteis.com,,,,"218 W. Hampton, #13
Mesa, AZ 85210"Prudential,Kathy,McCord,,kathy.mccord@pruaz.com,,,,"14635 N. Kierland Blvd. Suite 160
Scottsdale, AZ 85254"