First Name,Last Name,Display Name,Nickname,E-mail Address,E-mail 2 Address,E-mail 3 Address,Home Phone,Business Phone,Home Fax,Pager,Mobile Phone,Home Street,Home Address 2,Home City,Home State,Home Postal Code,Home Country,Business Address,Business Address 2,Business City,Business State,Business Postal Code,Business Country,Country Code,Related name,Job Title,Department,Organization,Notes,Birthday,Web Page,Web Page 2,Categories
à¹à¸­à¸¡,,à¹à¸­à¸¡,,,,,,026172444 #2066,026198400,,0819008065,,,,,,,,,,,,,,,à¸ˆà¸±à¸”à¸‹à¸·à¹‰à¸­,,Phyathai Hospital,Project: eMagazine PYT2 à¸£à¸±à¸šà¸§à¸²à¸‡à¸šà¸´à¸¥à¹„à¸¡à¹ˆà¹€à¸à¸´à¸™à¸§à¸±à¸™à¸—à¸µà¹ˆ 30 à¸£à¸±à¸šà¹€à¸Šà¹‡à¸„à¸§à¸±à¸™à¸—à¸µà¹ˆ 25 à¸‚à¸­à¸‡à¹€à¸”à¸·à¸­à¸™à¸–à¸±à¸”à¹„à¸› (Credit Term 30 Days),,,,Client Contacts
Amornrat,Cheedam,Amornrat Cheedam,,Pr@thainakarin.co.th,,,,,,,089-456-2349,,,,,,,,,,,,,,,,,Thainaknrin Hospital,,,,,Client Contacts
Anatta,Chantaratchada,Anatta Chantaratchada,K.à¸à¸§à¸²à¸‡,anatta@muthimaya.com,,,,02-257-0455,02-257-0459,,081-9160817,,,,,,,,,,,,,,,Website Designer,,"Tenface,Kirimaya Hotel",,,www.muthimaya.com,,Client Contacts
Anchalee,Anuchachart,Anchalee Anuchachart,,anchalee.anu@tmbbank.com,,,02-299-2090,,,,086-617-9242,,,,,,,,,ถนนพหลโยธิน แขวงจอมพล เขตจตุจักร กรุงเทพ,10900,3000,,,,,,TMB BANK,ผู้จัดการ,,www.tmbbank.com,,Client Contacts
Anchalee,Khunprasert,Anchalee Khunprasert,,Anchalee_k@pruksa.com,,,,02-298-0101 Ext.1480,02-298-0101 Ext.1484,,081-403-1606,,,,,,,,,,,,,,,,,Pruksa,,,www.pruksa.com,,Client Contacts
Anchalee,Niamdee,Anchalee Niamdee,,sales3@theuniquecollection.com,,,,02-250-4527-9,02-250-4525,,080-261-0089,,,,,,,"496-502 Unit No.3,2nd Fl Amarin Plaza Ploenchit Rd., Lunpini",,Bangkok,,10330,,,,Sale Manager,,The Unique Collection of Hotels & Resorts,,,www.theuniquecoleection.com,,Client Contacts
Aniwach,Rangrod,Aniwach Rangrod,Golf,creative@viehotelbangkok,,,02-309-3939,,,,084-332-9262,,,,,,,"117/39-40 Phaya Thai Road, Ratchathewi",,bangkok,,10400,Thailand,,,Marketing Creative Executive,,Vie Hotel Bangkok,,,"www.viehotelbangkok.com,%20www.accorhotels.com",,Client Contacts
Apiwat,Khamdaengdee,Apiwat Khamdaengdee,,Fom@eastineasySiampim.com,,,,02-917-5212,02-917-5704,,087-185-2525,,,,,,,,,,,,,,,,,Eastin Easy Siam Piman Bangkok,,,www.siampimanhotel.com,,Client Contacts
Art,Yuvaboon,Art Yuvaboon,Aun (à¸­à¸±à¹‰à¸™),art@rosegardenriverside.com,,,,(034)322-544,(034)322-773,,,,,,,,,Km.32 Pet Kasem Rd Sampran,,Nakorn Pathom,,73110,Thailand,,,Assistant Managing Director,,Rose Garden Riverside,,,www.rosegardenriverside.com,,Client Contacts
Atitaya,Thanasombut,Atitaya Thanasombut,K.à¸›à¸¸à¹‰à¸¢,atitaya@visitamanta.com,,,,026606442,026606313,,0817781226,,,,,,,,,,,,,,,Assistant Sales Manager,,Amanta Ratchada,,,www.visitamanta.com,,Client Contacts
Attaphol,Anurutdhikorn,Attaphol Anurutdhikorn,,m@vanavarin.com,,,,02-379-4521,02-731-6844,,089-699-9888,,,,,,,,,,,,,,,,,Vanavarin Resort,,,www.vanavarin.com,,Client Contacts
Boonthai,,Boonthai,,,,,02-917-4056,,,,,,,,,,,,,,,,,,,,,Tara Garden Apartment & Hotel,เจ้าหน้าที่ฝ่ายบัญชี,,www.taragardenthai.com,,Client Contacts
Chaivut,Ph.D.,Chaivut Saengaram Ph.D.,,chaivut.s@chuchawalroyalhaskoning.com,,,,02259-1186 ext 103,02-260-0230,,089171-7045,,,,,,,"8thFloor, Asoke Towers 219/25 Soi21 Sukhumvit Road",,Bangkok,,10110,Thailand,,,Senior Vice President,,Chuchawal Royal Haskoning,,,ww.chuchawalroyalhaskoning.com,,Client Contacts
Chaloemkwan,Wattanakrai,Chaloemkwan Wattanakrai,K.à¸‚à¸§à¸±à¸,mar-com@miraclegrandhotel.com,,,02-5755599 Ext.1125,,,,0852210875,,,,,,,,,,,,,,,Assistant Public Relations Manager,,Miracle Grand Convention Hotel,,,,,Client Contacts
Chalothorn,Intaratrakul,Chalothorn Intaratrakul,,chalothorn@charter.ac.th,,,02-7268283-4,,,,086-6206047,,,,,,,,,,,,,,,Business Development Executive,,Charter International School,,,www.charter.ac.th,,Client Contacts
Chanisara,Yongsawai,Chanisara Yongsawai,,chanisara_2309@yahoo.com,,,032-711046,,,,,,,,,,,222 à¸«à¸¡à¸¹à¹ˆ 2 à¸•.à¸ªà¸§à¸™à¸œà¸¶à¹‰à¸‡ à¸­.à¸ªà¸§à¸™à¸œà¸¶à¹‰à¸‡,,à¸£à¸²à¸Šà¸šà¸¸à¸£à¸µ,,70180,,,,Executive Assistant Manager,,Suan Peung Resort,,,www.suanpueng-resort.com,,Client Contacts
Chanyakarn,khumdee,Chanyakarn khumdee,,thinkanddo.coltd@gmail.com,,,,025701834-36,025701681,,,,,,,,,199 Soi Ladplakao 39 Jorakhaebua Ladprao,,bangkok,,10230,,,,Executive Director,,"Think and Do Co.,Ltd",,,,,Client Contacts
Chatchai,Phojjanaporn,Chatchai Phojjanaporn,,chatchai@cncresidence.com,,,,0-2662-2111,0-2662-2162,,081-325-9889,,,,,,,"28 Sukhumvit 33, Klongton Nua, Watana,",,Bangkok,10110,,Thailand,,,Assistant Manginf Director,,UMAC Property company Limited,,,www.cncresidence.com,,Client Contacts
Chatree,Rattanarangsri,Chatree Rattanarangsri,,chatree_r@grandfourwings.com,,,,02-3788000,02-3788081,,083-2578595,,,,,,,,,,,,,,,Director of Sales,,The Grand Fourwings Convention Hotel Bangkok,,,www.grandfourwings.com,,Client Contacts
Chawewan,Vaiyavut,Chawewan Vaiyavut,,Maketing@bangna.co.th,,,,02-746-8630,02-396-0122,,085-482-1214,,,,,,,,,,,,,,,,,Bangna1 Hospital,,,www.bangna.co.th,,Client Contacts
Chutimas,(โนริ),Chutimas Matsuda (โนริ),,maketing@bangna5.com,,,,02-138-1155-64,02-138-1166,,,,,,,,,,,,,,,,,,,Bangna5 Hospital,ผู้จัดการฝ่ายพัฒนาธุรกิจ,,,,Client Contacts
Chutisuda,Tanthasari,Chutisuda Tanthasari,à¸ˆà¸´à¹Šà¸š,macom@gardencliffpattaya.com,,,,,,,081-9588695,,,,,,,,,,,,,,,Marketing Communication,,GARDEN CLIFF RESORT & SPA PATTAYA,,,,,Client Contacts
Darunraht,Dykins,Darunraht Dykins,lan à¸«à¸¥à¸±à¹ˆà¸™,dos@whiteorchidhotelbkk.com,,,,02-226-0026,"02-221-8101, 02-225-6403",,081-987-7522,,,,,,,,,,,,,,,Director of Sales,,White orchid hotel,,,www.whiteorchidhotelbkk.com,,Client Contacts
Duangta,Sittivech,Duangta Sittivech,K.à¸­à¹‰à¸­à¸¢,prbkk@amtel.co.th,,,022540444 Ext. 1650,,,,,,,,,,,,,,,,,,,Public Relation Manager,,Ambassador Bangkok,,,www.amtel.co.th,,Client Contacts
Ekachart,Piriyanand,Ekachart Piriyanand,à¸•à¸£à¸µ,ecm@novotelbkk.com,,,02-209-8888,,,,081-303-4853,,,,,,,Siam Square Soi 6,,Bangkok,,10330,,,,E-commerce Manager,,Novotel Bangkok on Siam Square,,,"www,novotelbkk.com",,Client Contacts
Filipina,Suwansaenee,Public Relations Manager Filipina Suwansaenee,Nang,filipina@royalcliff.com,pr@seasandsunpty.com,,,+6638 435163,+6638 435171,,+6681 4461642,,,,,,,,,,,,,,,DOM,,Pattaya Sea Sand Sun Resort and Spa,Royal Cliff Hotel Group,,www.seasandsunpty.com,,Client Contacts
General,hamornbutr,General Manager hamornbutr,,ziniza_sales@hotmail.com,gm@ziniza.com,,02-5560241,,,,089-110-1444,,,,,,,"494 Rimklongprapa Phankwa Road, Bang Sue,",,Bangkok,,10800,Thailand,,,,,Ziniza Boutique Service Apartment,,,www.ziniza.com,,Client Contacts
Gig,,Gig,,,,,,,,,085-7000575,,,,,,,,,,,,,,,,,Bua Wattana Resort,คนดูแลรีสอร์ท ประสานงานทุกเรื่อง,,,,Client Contacts
Gwin,D.Phil.,"Gwin Pringpuangkeo, D.Phil.",,gwin.pchuchawalroyalhaskoning.com,,,,022591186 Ext 250,022600230,,0818239612,,,,,,,"8thFloor, Asoke Towers 219/25 Soi21 Sukhumvit Road",,bangkok,,10110,Thailand,,,Vice President Business Development & Finance,,Chuchawal Royal Haskoning,,,www.chuchawalroyalhaskoning,,Client Contacts
Heiner,Moessing,Heiner Moessing,,info@siamproperties.net,,,,038-415-490,038-414-693,,081-861-1907,,,,,,,"313/27 Moo 10, South Pattaya Road Near 3rd Road,",,Pattaya,,20150,,,,,,Siam Properties,,,www.siamproperties.net,,Client Contacts
Issarin,(ยุ้ย),Issarin Khattiya (ยุ้ย),à¸¢à¸¸à¹‰à¸¢,sales@citrus22bangkok.com,,,,02-2617711,02-2617971,,086-7885887,,,,,,,,,,,,,,,Sales Manager,,Cirtus22 Hotel Bangkok,,,www.citrus22bangkok.com,,Client Contacts
Janthima,Janpongsutorn(กวาง),Janthima Janpongsutorn(กวาง),,sales@navadaresidence.com,,,085-920-4611,088-869-9712,038-385-762,,,,,,,,,,,,,,,,,,,Navada Residence,Sale Manager,,www.navadaresidence.com,,Client Contacts
Janya,Wirotsirasak,Janya Wirotsirasak,,janya@baanpranond.com,,,,,,,081-2790856,,,,,,,,,,,,,,,Assistant Manager,,Baan Pra Nond,,,www.baanpranond.com,,Client Contacts
Jarin,Chavewan,Jarin Chavewan,,turtlerock3@hotmail.com,,,,02-9176960,,,"080-6136608, 087-7009237",,,,,,,,,,,,,,,General Manager,,Tara Garden & Lake Hotel,,,,,Client Contacts
Jirawat,,Jirawat,,jirawat_k@amariestates.co.th,,,,,,,,,,,,,,,,,,,,,,,,"P. Interior & Associates Co.,Ltd.",,,,,Client Contacts
K,Pope,K ' Pope,,Sahaphan.phu@tmbbank.com,,,,02-2992599,,,081-5876886,,,,,,,,,ธนาคารทหารไทย,สาขาสำนักงานใหญ่,,,,,,,TMB BANK,คุณโป๊ก,,,,Client Contacts
K.Am,,K.Am,,,,,,,,,089-550-7730,,,,,,,,,,,,,,,,,Bua Wattana Resort,ฝ่ายบัญชี,,,,Client Contacts
K.Anchalee,,K.Anchalee,,anchalee.fine@gmail.com,,,,,,,081-2786787,,,,,,,,,,,,,,,,,Mahanakorn University,,,,,Client Contacts
K.Maprang,,K.Maprang,,,,,,,,,089-0492649,,,,,,,,,,,,,,,Secertary of Mr.Trudy (Marketing Director),,Dusit Thani Bangkok,,,,,Client Contacts
K.Narisara,(à¸­à¸¸à¹‹à¸¢),K.Narisara (à¸­à¸¸à¹‹à¸¢),K.à¸­à¸¸à¹‹à¸¢,Sales@seasandsunpty.com,,,,038-238656-8 ext.810,038-235611,,"086-3409919, 084-5708866",,,,,,,,,,,,,,,Executive Secretary,,Sea Sand Sun Resort andSpa,,,www.seasandsunpty.com,,Client Contacts
K.Pop,,K.Pop,K.Pop,buawattana_resort@hotmail.com,,,,,,,080-6690044,,,,,,,,,,,,,,,Owner,,Bua Wattana Resort,,,http://www.buawattanaresort.com/,,Client Contacts
K.Tum,,K.Tum,,,,,,081-901-1062,,,081-408-4849,,,,,,,,,,,,,,,,,,คุณตั้มช่างถ่ายภาพที่เป็นญาติกับชัยสหพาณิชย์,,,,Client Contacts
K.พีท,,K.พีท,,,,,02-379-4422,,,,081-860-8860,,,,,,,,,,,,,,,,,Niche Cars,,,,,Client Contacts
K',Ae,K' Tim & K' Ae,,Swissvalleyhip@gmail.com,,,081-9956162,,,,085-3720019,,,,,,,,,,,,,,,,,Swiss Valley Hip Resort,Swiss Valley Hip Resort   7/7 Moo.7 Suenpung Suenpung Ratchaburi 70180,,,,Client Contacts
K',Ann,K' Ann,,,,,02-6172444,,,,086-977-0909,,,,,,,,,,,,,,,,,Phyathai 2 Hospital,Sales & Marketing,,,,Client Contacts
K',Jaa,K' Jaa,,,,,,,,,080-2338222,,,,,,,,,,,,,,,Website,,Bua Wattana Resort,คุณจ๋าดูแลและทำเว็บไซด์,,,,Client Contacts
K'Ling,,K'Ling,,"monkeylingy@hotmail.com, villamoreeda@gmail.com",,,,,,,081-8520394,,,,,,,,,,,,,,,Owner,,Villa Moreeda Resort,คุณมด โทรศัพท์ 081-8851505 คนดูแลรีสอร์ท,,,,Client Contacts
K'Mod,,K'Mod,,,,,,089-8952778,02-7291616,,081-8851505,,,,,,,ห้างหุ้นส่วนสามัญ วิลล่า โมรีดา,,ม.7 ต.สวผึ้ง อ.สวนผึ้ง,จ.ราชบุรี,11/7,70180,,,,,VIlla Moreeda Resort,คุณมดดูแลเรื่องรีสอร์ท คุณมดฝ่ายบัญชี Scenery Resort and Farm,,,,Client Contacts
Kanchana,Ruangsiriwichayakul,Kanchana Ruangsiriwichayakul,Jaeb,hm@silqbkk.com,,,,02-252-6800,02-252-6809,,,,,,,,,54 Sukhumvit Soi19 Wattana,,Bangkok,,10110,,,,hotel Manager,,Silq Bangkok Hotel,,,www.silqbkk.com,,Client Contacts
Kannika,Pholpasec,Kannika Pholpasec,à¹€à¸à¸­à¹Šà¸°,pkannika@noblehome.com,,,02-251-9955,,,,,,,,,,,,,,,,,,,Officer Marketing & PR Division,,Noble Developmeent,,,www.noblehome.com,,Client Contacts
Karapin,Mangklabruks,Karapin Mangklabruks,à¸«à¸™à¸¹,karapinm@scg.co.th,,,,02-586-2820,02-586-3299,,081-889-3732,,,,,,,"SCG Building Materials Co.,Ltd 1 Siam Cement Rd.,Bangsue,",,Bangkok,,10800,Thailand,,,Technologist,,SCG Building Materials,,,www.scg.co.th,,Client Contacts
Khunying,Sripen,Khunying Suchada Sripen,,,,,,02-9169088,02-9168878,,081-6428811,,,,,,,,,,,,,,,Vice Chairman Of Executive Committee,,Suan Luang Rama IX Foundation,,,,,Client Contacts
Korakoth,Kunalungkarn,Korakoth Kunalungkarn,Ped,korakoth@ia103.com,,,,6622600160-7,6622591191,,,,,,,,,"14th Fl.,Asoke Tower office Building, 219/44 Asoke Road(Sukhumvit 21 ) Kolngtoey Nua, Wattana,",,Bangkok,,10110,thailand,,,Executive Vice President,,ia103,,,www.ia103.com,,Client Contacts
Korarid,Sakweeradejkul,Korarid Sakweeradejkul,Pop,sales@silqbkk.com,,,02-252-6800,,,,089-777-7672,,,,,,,"54 Sukhumvit Soi 19 Wattana,",,Bangkok,,10110,Thailand,,,Sales Executive,,Silq Bangkok Hotel,,,www.silqbkk.com,,Client Contacts
Lasamon,Rugsavalee,Lasamon Rugsavalee,K.à¸­à¹‰à¸­à¸¡,marketingbkk1@springfieldresort.com,,,02-231-2244 Ext 101,,,,086-6277890,,,,,,,,,,,,,,,Marketing & PR Manager,,Springfield Group,,,www.springfieldresort.com,,Client Contacts
Lertchai,Satirasukskul,Lertchai Satirasukskul,,lertchai@lh.co.th,,,,02-343-8900,02-230-8129,,081-807-3314,,,,,,,,,,,,,,,,,Land & Houses,ผู้จัดการส่วน,,www.lh.co.th,,Client Contacts
Mod,,Mod,Mod,aree_won@phyathai.com,,,,,,,,,,,,,,,,,,,,,,accountant,,Phyathai 2 Hospital,,,,,Client Contacts
Morrakot,(Ploy),Morrakot Kuldilok (Ploy),,mploy@hotmail.com,,,,,,,086-329-5534,,,,,,,,,,,,,,,,,Bella Villa Pattaya,,,www.bellavillapattaya.com,,Client Contacts
Nantawan,Wongwan,Nantawan Wongwan,,nwongwan449@gmail.com,,,,023102114,023109109,,0899517336,,,,,,,"144 Ramkhamhaeng Rd., Huamark, Bangkapi",,Bangkok,,10240,Thailand,,,Project Development Manager,,"The Mall Group co.,Ltd",,,,,Client Contacts
Natee,Praisri,Natee Praisri,,natee.praisri@bmw-millenniumauto.com,,,02-935-2000 Ext.521,,,,081-874-9205,,,,,,,,,,,,,,,,,Millennium Auto,Senior Advertising officer,,,,Client Contacts
Nattapong,(Nat),Nattapong Kanungkid (Nat),,nattapong.k@the-ascott.com,,,02-257-2290,,,,086-778-6138,,,,,,,,,,,,,,,,,Citadines Apart Hotel,,,www.citadines.com,,Client Contacts
Navin,Kaewtipnate,Navin Kaewtipnate,,hm@citrus22bangkok.com,,,02-261-7711,,,,085-161-0867,,,,,,,,,,,,,,,Hotel Manager,,Citrus Sukhumvit 22,,,www.citrus22bangkok.com,,Client Contacts
Nisa,,Nisa,,,,,,,,,,,,,,,,à¸šà¸ˆà¸.à¸žà¸±à¸—à¸¢à¸²à¸‹à¸µà¹à¸‹à¸™à¸”à¹Œà¸‹à¸±à¸™ 78/4 à¸«à¸¡à¸¹à¹ˆ8 à¸•.à¸™à¸²à¸ˆà¸­à¸¡à¹€à¸—à¸µà¸¢à¸™ à¸­.à¸ªà¸±à¸•à¸«à¸µà¸š à¸ˆ.à¸Šà¸¥à¸šà¸¸à¸£à¸µ 20250,,,,,,,,Accountant,,Sea Sand Sun Resort and Spa,,,,,Client Contacts
Nitipat,Patchimnan,Nitipat Patchimnan,,nitipat.patchimnan@seasandsunpty.com,,,,038-435163,038-435171,,,,,,,,,à¸šà¸ˆà¸.à¸žà¸±à¸—à¸¢à¸²à¸‹à¸µà¹à¸‹à¸™à¸”à¹Œà¸‹à¸±à¸™ 78/4 à¸«à¸¡à¸¹à¹ˆ8 à¸•.à¸™à¸²à¸ˆà¸­à¸¡à¹€à¸—à¸µà¸¢à¸™ à¸­.à¸ªà¸±à¸•à¸«à¸µà¸š à¸ˆ.à¸Šà¸¥à¸šà¸¸à¸£à¸µ 20250,,,,,,,,Managing Director,,Sea Sand Sun Resort and Spa,,,,,Client Contacts
Non,Kanokvatanawan,Non Kanokvatanawan,,non@kvillagebangkok.com,,,02-6613558 Ext.210,,,,081-6397964,,,,,,,,,,,,,,,Marketing Consultant,,K Village,,,www.kvillagebangkok.com,,Client Contacts
Noon,,Noon,,thanyarat.cmc@gmail.com,,,,0-2848-0999 ext. 1220,0-2848-0808,,087-696-5151,,,,,,,,,,,,,,,Sales Executive,,"Civil Master Construction Co.,Ltd.",,,,,Client Contacts
Norachan,(à¸„à¸¸à¸“à¸™à¹‰à¸­à¸‡),Norachan Malakul (à¸„à¸¸à¸“à¸™à¹‰à¸­à¸‡),à¸™à¹‰à¸­à¸‡,norachan@phyathai.com,,,,,,,081-9008072,,,,,,,,,,,,,,,,,Phyathai hospital 2,à¸”à¸¹à¹à¸¥à¹€à¸£à¸·à¹ˆà¸­à¸‡ VR à¸Šà¸¸à¸”à¹à¸£à¸à¹à¸¥à¸° Ipad VR,,,,Client Contacts
Nutjira,Phungsalud,Nutjira Phungsalud,oil,nujira_p@worabura.com,,,03253-6999,02-953-5660,,,088-022-3620,21-205 Soi ngamwongwan 31,,Nonthaburi,,11000,Thailand,83/199 Soi Moo Baan Nonggare HuaHin,,Prachuap Khiri Khan,,77110,thailand,,,Sales Manager,,Wora Bura Huan Hin Resort & Spa,,,www.worabura.com,,Client Contacts
Nuttaya,(กุ้ง),Nuttaya Chuenjit (กุ้ง),,Ch_nuttaya99@hotmail.com,,,02-518-1818,,,,,,,,,,,,,,,,,,,,,Navamin 9 Hospital,ฝ่ายการตลาด,,,,Client Contacts
Oranee,Agkanidad,Oranee Agkanidad,,e-marketing@grandfourwings.com,,,,02-3788000,02-3788080,,081-4020505,,,,,,,,,,,,,,,Marketing Communication Manager,,The Grand Fourwings Hotel,,,www.grandfourwings.com,,Client Contacts
Patparan,(K.à¸­à¸±à¹‹à¸™),Patparan Charasirisombat (K.à¸­à¸±à¹‹à¸™),K.à¸­à¸±à¹‹à¸™,patparan@themiraclegroup.com,,,,025755599,025755555,,0818431972,,,,,,,,,,,,,,,Group Marketing Communication Director,,Miracle Group,,,www.themiraclegroup.com,,Client Contacts
Pattarapol,(K.Jim),Pattarapol Deepankaew (K.Jim),,dosm@miraclegrandhotel.com,,,,025755599,025755637,,0863668498,,,,,,,,,,,,,,,Director of Sales & Marketing,,Miracle Group,,,www.themiraclegroup.com,,Client Contacts
Pattaraporn,(K.Ken),Pattaraporn Lerdthanet (K.Ken),Ken,p.lerdthanet@gmail.com,,,085-1414888,,,,081-0006677,,,,,,,,,,,,,,,,,Scenery Resort and Farm,ฝ่ายดูแล Website ของ Scenery,,,,Client Contacts
Patwipanoot,(Fern),Patwipanoot Kunavanuvat (Fern),Fern,marcom.pattaya@hardrockhotels.net,,,,038-428-755-9,038-427212,,0876039744,,,,,,,,,,,,,,,Assistant Marketing Communication Manager,,Hard Rock Pattaya,,,www.hardrockhotels.net,,Client Contacts
Pensri,Jaruvatchara,Pensri Jaruvatchara,,pensri_chaophya@hotmail.com,,,,02-434-1111,02-434-6929,,086-757-6282,,,,,,,,,,,,,,,,,Chaophya Hospital,Administrative Secretary,,www.chaophya.com,,Client Contacts
Photchanee,,Photchanee,Jinny,photchanee@stamford.edu,,,,02-769-4000 Ext. 1160,02-769-4098,,082-444-9095,,,,,,,"Bangkok Campus 16 Motorway Rd. (Km 2 ) Prawet,",,Bangkok,,10250,Thailand,,,Satterly,,Stamford University,,,www.stamford.edu,,Client Contacts
Phuchissa,(ต่าง),Phuchissa Parnrod (ต่าง),,phuchissa@piyavej.net,,,,02-625-6642,02-625-6545,,086-308-1150,,,,,,,,,,,,,,,,,Piyavej Hospital,,,www.Piyavej.com,,Client Contacts
Pimpat,Yomnak,Pimpat Yomnak,Pim,pim@bkkprep.ac.th,,,,02-260-7890,02-6625444,,,,,,,,,,,,,,,,,Communications & Developmment Manager,,Bangkok Prep,Communications & Development Manager Bangkok Prep Int. School,,www.bkkprep.ac.th,,Client Contacts
Pisut,Subvijittra,Pisut Subvijittra,,thinkanddo.coltd@gmail.com,,,,025701834,025701681,,081333-2444,,,,,,,,,,,,,,,vice president,,"Think and Do Co.,Ltd",,,,,Client Contacts
Pom,,Pom,,webdeveloper@kasemkij.com,,,02-233-3433 ext 248,,,,,,,,,,,,,,,,,,,,,Kasemkij company hotel and service apartment brand,,,,,Client Contacts
Pramote,Hirunjaruwong,Pramote Hirunjaruwong,,Pramotetor@hotmail.com,,,,02-884-7060,,,081-833-1555,,,,,,,,,,,,,,,,,Chaophya Hospital,ผู้อำนวยการบริหาร,,www.chaophya.com,,Client Contacts
Pranee,Sansaneeyakiat,Pranee Sansaneeyakiat,,radixad@radixad.com,,,,(66)2256-7470-4,(66)2256-7474,,081-817-1222,,,,,,,"8th Flr.,GPF Tower A,93/1 Wireless Rd.,",,Bangkok,,10330,Thailand,,,,,"Radix Advertising Co.,Ltd",,,,,Client Contacts
Prang,Lekcholaryut,Prang Lekcholaryut,,Prang@ln.co.th,,,,02-343-8900,02-230-8129,,081-441-8318,,,,,,,,,,,,,,,,,Land & Houses,ผู้ช่วยผู้จัดการส่วน,,www.lh.co.th,,Client Contacts
Prapapan,Ritthirong,Prapapan Ritthirong,,prapapan@kasemkij.com,,,,02-233-3433,02-233-9560,,,,,,,,,"10th floor, Kasemkij Building, 120 Silom Road,",,Bangkok,,10500,Thailand,,,Marketing Consultant,,Kasemkij Company,,,www.kasemkij.com,,Client Contacts
Ratree,Wongjinda,Ratree Wongjinda,Ple,ratree_ple@yahoo.com,,,,02-641-4688 to 93 ext 111,02-641-4687,,089-122-7371,,,,,,,,,,,,,,,Marketing Officer,,Pinnacle Hotel Resorts & Spa,,,www.pinnaclehotels.com,,Client Contacts
Sasina,(Jaa),Sasina Sopeerak (Jaa),à¸„à¸¸à¸“à¸ˆà¹‰à¸²,jaa_s@harrowschool.ac.th,,,,02-5037222,02-5038286,,085-9111951,,,,,,,,,,,,,,,Marketing Manager,,Harrow Int. School,,,www.harrowschool.ac.th,,Client Contacts
Sasina,Sopeerak,Sasina Sopeerak,K.Jaa,jaa_s@harrowschool.ac.th,,,,02-503-7222 ext 1130,02-503-8286,,085-911-1951,,,,,,,,,,,,,,,Marketing Manager,,Harrow Internation School,,,www.harrowschool.ac.th,,Client Contacts
Sathit,Srangkiat,Sathit Srangkiat,,sathit@charnissara.co.th,,,,02-3082020 # 577,02-3082990,,084-0227969,,,,,,,,,,,,,,,IT Manager,,Charn Issara,,,,,Client Contacts
Sayam,Sangsaard,Sayam Sangsaard,,sayam@phyathai.com,,,,02-617-2444 ext 4543,02-619-8529,,081-900-8435,,,,,,,"943 Phaholyothin Rd., Samsennai Phyathai,",,Bangkok,,10400,Thailand,,,Senior Corporate Sale manager 1,,Phyathai 2 Hospital,,,www.phyathai.com,,Client Contacts
Setthapat,Kaewprasit,Setthapat Kaewprasit,à¹‚à¸•à¹‰à¸‡,setthapat@steconn.co.th,,,,+66(0)2610-4900,+66(0)2259-5527,,+66(0)81-910-1381,,,,,,,"2nd Fl.,Sino_Thai Tower, 32/59-60 Sukhumvit Rd",,bangkok,,10110,Thailand,,,Project Architect,,Sino-Thai engineering & Construction Public comapany Limited,,,www.stecon.co.th,,Client Contacts
Siriporn,Panyasan,Siriporn Panyasan,,lady.malila@gmail.com,,,,02-202-9999 Ext.2529,02-202-9999 Ext.2515,,089-420-0316,,,,,,,,,,,,,,,,,Praram9 Hospital,คุณตั๊ก แผนกสื่อสารการตลาด,,www.praram9.com,,Client Contacts
Songkran,,Songkran,,songkran@issara.co.th,,,,,,,085-155-8377,,,,,,,,,,,,,,,,,Charnissara,,,,,Client Contacts
Stephane,Bringer,Stephane Bringer,,stephan@woodland-resort.com,,,,038-421-707,038-425-663,,,,,,,,,,,,,,,,,,,Woodland Hotel & Resort,,,www.woodland-Resort.com,,Client Contacts
Sunee,Vaewmanee,Sunee Vaewmanee,,prm@pullmanpattayaaisawan.com,,,,038-411940-8,038-411949,,085-4848234,,,,,,,,,,,,,,,Public Relations Manager,,PULLMAN PATTAYA AISAWAN,,,,,Client Contacts
Supa-arpha,(Mandy),Supa-arpha Itthikaiwan (Mandy),Mandy,agpr@bandaragroup.com,,,,022368269 ext. 258,022368261,,0815541001,,,,,,,,,,,,,,,Assistant Group Public Relations Manager,,Bandara Group,PR Manager,,www.bandaragroup.com,,Client Contacts
Supapun,Thitavasanta(กวางตุ้ง),Supapun Thitavasanta(กวางตุ้ง),,Supapun.t@piyavej.net,,,02-625-6567,,,,081-827-7875,,,,,,,,,,,,,,,,,Piyavej Hospital,,,,,Client Contacts
Suphin,Mechuchep,Suphin Mechuchep,,suphin.mechuchep@ap.jill.com,,,"02-6246400, 02-6246530",,,,,,,,,,,,,,,,,,,Managing Director,,Jones Lang LaSalle,,,,,Client Contacts
Supornrat,Karnasuta,Mrs. Supornrat Karnasuta,,webcenter@phyathai.com,,,02 6172444 ext. 4565,,,,086 9770909,,,,,,,943 Phyathai Rd.,,Bangkok,,10400,Thailand,,,IT (Web) Manager,,Phyathai 2 Hospital,K" Ann  Sales & Marketing,,,,Client Contacts
Supranee,Taecharungroj,Supranee Taecharungroj,,supraneet@nist.ac.th,,,,02-6512065 ext.100,02-2516399,,081-5826555,,,,,,,,,,,,,,,Marketing and Development Director,,Niist International School,She interested in VR and will start discuss with the committees on Sept or Oct of 2012.,,www.nist.ac.th,,Client Contacts
Surasit,(K.à¹‚à¸ˆà¹‰),Surasit Salamteh (K.à¹‚à¸ˆà¹‰),K.à¹‚à¸ˆà¹‰,surasit.sl@dusit.com,,,02-2009000,,,,085-1117765,,,,,,,,,,,,,,,IT Manager,,Dusit Thani Bangkok,,,http://www.dusit.com/,,Client Contacts
Surasit,Chaisittipol,Surasit Chaisittipol,,,,,,02-9176960,,,"089-9882959, 089-4480890",,,,,,,,,,,,,,,Sales Manager,,Tara Garden & Lake Hotel,,,,,Client Contacts
Surat,Kaewdee,Surat Kaewdee,,surat_k@grandfourwings.com,,,,,02-3788080,,081-8899188,,,,,,,,,,,,,,,Resident Manager,,The Grand Fourwings Hotel,,,www.grandfourwings.com,,Client Contacts
Suwit,Srisuwannanukorn,Suwit Srisuwannanukorn,,suwit.s@fourwingsresidence.com,,,,,,,081-6578747,,,,,,,,,,,,,,,Sales and Marketing manager,,The Four Wings Residence,Private mail: suwit.bee@gmail.com,,www.fourwingsresidence.com,,Client Contacts
Tanyarat,Mahitthises,Tanyarat Mahitthises,K.à¸ªà¹‰à¸¡,tanyarat.m@compasshospitality.com,,,,02-1687667,02-1687669,,081-9223245,,,,,,,,,,,,,,,Online Marketing Executive,,Compass Hospitality,,,www.compasshospitality.com,,Client Contacts
Thanmika,Sri-eiam-ong,Thanmika Sri-eiam-ong,à¹à¸™à¸™,secretary@woodlandssuites.com,,,,038-421707,038-425663,,081-9048373,,,,,,,,,,,,,,,Executive Secretary,,WOODLANDS HOTEL & RESORT,คุณแนน,,,,Client Contacts
Thidakarn,Toyingpaiboon,Thidakarn Toyingpaiboon,,thidakarn@qctransexpress.com,,,,02-2604215-8,02-2586415,,081-8894891,,,,,,,,,,,,,,,Business Development Manager,,"Q.C. Trans Express Co., Ltd",,,www.qctransexpress.com,,Client Contacts
Tiwakorn,Tribholkul,Tiwakorn Tribholkul,,tee_liberate@hotmail.com,,,02-9018878,,,,086-3535055,,,,,,,,,,,,,,,,,PRINT ONE,,,,,Client Contacts
Udomsin,Charoenrat,Pu Udomsin Charoenrat,,pu_pyt@hotmail.com,udomsin@phyathai.com,,02-617-2444 ext 1791,,,,081-1900-8277,,,,,,,"943 Phaholyothin Rd., Samsennai Phyathai",,Bangkok,,10400,Thailand,,,Senior Marketing Communication,,Phyathai 2 Hospital,,,www.phyathai.com,,Client Contacts
undefined,undefined,undefined undefined undefined undefined undefined,à¸à¸§à¸²à¸‡,anatta@muthimaya.com,,,,02-2570455-7,02-2570459,,081-9160817,,,,,,,,,,,,,,,Web Designer,,Kirimaya & Tenface Hotel,,,www.muthimaya.com,,Client Contacts
Vathinee,Narongkiatikhun,Vathinee Narongkiatikhun,,Vathinee.nar@tmbbank.com,,,,02-299-1246,02-242-3047,,,,,,,,,,,,,,,,,,,TMB BANK,รองผู้อำนวยการ,,,,Client Contacts
Viroon,Jirapojaporn,Viroon Jirapojaporn,,viroon_j@grandfourwings.com,,,,02-3788000,02-3788080,,089-6772222,,,,,,,,,,,,,,,Financial Director,,The Grand Fourwings Convention Hotel,,,,,Client Contacts
Vitanart,Vathanakul,Vitanart Vathanakul,,Vitanart@royalcliff.com,,,,038-250-421,038-250511,,,,,,,,,,,,,,,,,Executive Director,,Royal Cliff Hotels Group,,,www.royalcliff.com,,Client Contacts
walaiporn,Moessing,walaiporn Moessing,Porn,info@siamproperties.net,,,,038-415-490,038-414-693,,081-821-7045,,,,,,,"313/27 Moo 10, South Pattaya Road Near 3rd Road,",,Pattaya,,20150,,,,Managing Director,,Siam Properties,,,www.siamproperties.net,,Client Contacts
Wanravee,(ตู่),Wanravee Sae-Eiah (ตู่),,Pr@thainakarin.co.th,,,,02-361-2727 Ext.3948,02-361-6280,,086-569-1246,,,,,,,,,,,,,,,,,Thainakarin Hospital,คุณตู่ หัวหน้าแผนกการตลาด,,www.thainakarin.co.th,,Client Contacts
Waritha,Puangbubpha,Waritha Puangbubpha,K.à¸™à¸¸à¸Š,marketingbkk@springfieldresort.com,,,,02-231-2244 ext 544,02-231-2249,,081-457-7380,,,,,,,,,,,,,,,Marketing Manager,,Springfield Group,,,www.springfieldresort.com,,Client Contacts
Wassana,Klinphayoum,Wassana Klinphayoum,,kvassana@hotmail.com,,,0-3432-2769-71 Ext.13,,,,08-1824-2458,,,,,,,"53/1 Moo4 Petkasem Highway, Tambol Tatalad,Amphur Sampran",,Nakornprathom,,73110,Thailand,,,,,The Rose Garden Country club,,,www.rosegardencountryclub.com,,Client Contacts
Watthano,Sutheerathammasit,Watthano Sutheerathammasit,,rsvn@grandwatergatehotel.com,,,,,,,084-7170777,,,,,,,,,,,,,,,General Manager,,Grand Watergate hotel,,,,,Client Contacts
Wayoon,Tangchaiyawong,Wayoon Tangchaiyawong,,wayoons@yahoo.com,,,02-5175251,,,,081-8498409,,,,,,,,,,,,,,,Managing Director à¸¥à¸¹à¸à¹€à¸ˆà¹‰à¸²à¸‚à¸­à¸‡,,Tara Garden & Lake Hotel,,,www.rh.co.th,,Client Contacts
Worarat,Rakkwaen,Worarat Rakkwaen,,worarat_r@worabura.com,,,,02-953-5660,02-953-5661,,088-022-3610,,,,,,,83/199 Soi Moo Baan Nonggare HuaHin,,Prachuap Khiri Khan,,77110,thailand,,,Sales Executive,,Wora Bura Hua Hin Resort & Spa,,,www.worabura.com,,Client Contacts
Worawat,Suchartwattana,Worawat Suchartwattana,,ssm-catering@hotelparkavenue.com,,,02-262-0000,,,,083-988-2427,,,,,,,,,,,,,,,Senior Catering Sales Manager,,Grand Mercure Hotel,,,www.hotelparkavenue.com;%20www.grandmercure.com/asia;%20www.accorhotels.com/asia,,Client Contacts
Yupaporn,Ractkudkok,Yupaporn Ractkudkok,Nuch-Noi,purchase@avion-village.com,,,,023273737,023273245,,0863267769,,,,,,,,,,,,,,,Purchasing Officer,,Avion Apart Hotel,,,,,Client Contacts
คุณจ๋า,,คุณจ๋า,,alisa@tiffany-show.co.th,,,,,,,081-874-2316,,,,,,,,,,,,,,,,,WOODLANDS HOTEL & RESORT,,,,,Client Contacts
คุณวิ,,คุณวิ,,webmaster@vichaivejomnoi.com,,,02-431-0070,,,,089-031-2761,,,,,,,,,,,,,,,,,บริษัท ศรีวิชัยเวชวิวัฒน์ จำกัด,,,,,Client Contacts
ดร.รัชฎา,ฟองธนกิจ,ดร.รัชฎา ฟองธนกิจ,,Rachada2000@gmail.com,,,,02-431-0070,02-431-0940,,081-611-8423,,,,,,,,,,,,,,,,,บริษัท ศรีวิชัยเวชวิวัฒน์ จำกัด (มหาชน),,,www.vichaivej.com,,Client Contacts
ดุสิต,ปัทมะ,ดุสิต ปัทมะ,,Sit_chocolateville@hotmail.com,,,081-921-2016,,,,089-888-9613,,,,,,,,,,,,,,,,,Chocolate Ville,Head Marketing,,www.facebook.com/chocolateville,,Client Contacts
นพดล,,นพดล,,info@thaithani.co.th,,,,038-170-712-3,038-170-714,,,,,,,,,,,,,,,,,,,Thai thani Pool Villa,,,www.thaithanipoolvilla.com,,Client Contacts
มนตรี,,มนตรี,,,,,,,,,081-445-4679,,,,,,,,,,,,,,,,,Tara Garden Apartment & Hotel,GM,,www.Taragardenthai.com,,Client Contacts
สาธิต,ชาญอิสระ,สาธิต ชาญอิสระ,,IT@ci.in.th,,,,,,,084-022-7969,,,,,,,,,,,,,,,,,ศรีพันวา ภูเก็ต,ฝ่าย IT,,,,Client Contacts
