Company Name,city,state,contact,contact_2,email_addr,phone_no,fax_no,addr_1,addr_2,zip,country,Comment1,Comment2
MENORAH WHOLESALE,SANTA MONICA,CA,,,,,,1451-A LINCOLN BLVD.,,90401,,,
DAVIS WHOLESALE (NORTH HOLLYWOOD),CHATSWORTH,CA,,,,,,20810 LASSEN STREET,,91311,USA,,
DAVIS WHOLESALE (NORTH HOLLYWOOD),VALENCIA,CA,,,,661-295-5788,661-295-5838,25064 ANZA DRIVE,,91355,,,
"ACCESS ELECTRIC SUPPLY, INC.",MORENO VALLEY,CA,KRIS KLINZING,,accesselectricsupplyinc@verizon.net,951-697-7800,951-697-7844,7139 OLD 215 FRONTAGE ROAD,,92553,,CC FOR FIRST ORDER,
ALL AROUND LIGHTING,IRVINE,CA,DAVID DELMONICO,DERIK DELMONICO,dave@allaroundlighting.com,949-458-5999,949-458-5770,P.O. BOX 53518,,92619,,,
ALL AROUND LIGHTING,IRVINE,CA,,,,,,"10005 MUIRLANDS SUITES E,F,I&J",,92618,,,
ALL STAR WHOLESALE ELECTRIC,HAWTHORNE,CA,DANNY,,danny@allstarwholesaleelectric.com,424-236-4492,424-236-4495,13810 S. PRAIRIE AVENUE,,90250,,,allstarwholesaleelectric.com
AMERICAN ACE SUPPLY (ORANGE),ORANGE,CA,ANDY MAN,RYAN NG,SALES@ACEORANGE.COM,(714) 282-9500,(714) 282-9501,1620 N. MAIN STREET,,92867,,,www.aceorange.com
BLC INTERNATIONAL,GARDEN GROVE,CA,TODD YOUNG (VP OF SALES),TOM CIURZAK (OWNER)- SAYURI OKAWA (A/P),mnawata@blc-america.com,(714) 889-4116,(714) 889-4120,11266 MONARCH STREET,,92841,,card holder Manabu Nawata,
BULBTRONICS,HOLLYWOOD,CA,,,,,,1054 N CAHUENGA BLVD.,,90038,,,www.bulbtronics.com
CALIFORNIA COMMERCIAL LIGHTING,ANAHEIM,CA,CHIRS SCHREIB (PURCH),TARRIE (AP),,714-777-5100,714-777-0219,1375 NORTH BRASHER STREET,,92807,,,
CANDELA CORPORATION,IRVINE,CA,,DAVID HASSEN A/P DHASSEN@CANDELACORP.COM,purchasing@candelacorp.com,(800) 922-9226,(800) 443-1460,14420 MYFORD ROAD,SUITE# 100,92606-1001,,cust wants invs mailed,www.candelacorp.com
CAPITAL WHOLESALE OF SO. BAY,LAWNDALE,CA,ARNOLD,,evelyn_capws@earthlink.net,310-793-4000,310-793-4040,15826 HAWTHORNE BLVD.,,90260,,,NO EMAIL
CASHWAY ELECTRIC SUPPLY,SAN DIEGO,CA,RON MARTIN (OWNER),SUSAN MARTIN A/P CASHWAYELEC@YAHOO.COM,cashwayelec@yahoo.com,619-275-4554 A/P,619-275-2834,3515 HANCOCK STREET,,92110,,cust wants invoices mailed,per michelle. 1/15/2010
CATALINA LAMP & SHADE,POMONA,CA,FRANK SARATE  / NORA,,martincatalina@msn.com,909.444.1331,909.444.1340,225 PACIFIC ST.,,91768,,COLLECTION-PAY MONTHLY,
CES (CALIFORNIA GROUP),BURBANK,CA,KEVIN DARCY (BRANCH MANAGER),,burbank0321@ces-us.net,(818) 563-9216,(818) 563-9862,800 NORTH VICTORY BLVD.,,91502,,,www.e-ces.net
CES (CALIFORNIA GROUP),CENTENNIAL,CO,TOM HUSEREAU (GROUP MANAGER),LINDSAY DROZD (AP) 303-302-0715,THUSEREAU@CES-US.NET,818-772-8980,818-772-8745,PO BOX 4238,,80112,,,www.e-ces.net
CES (CALIFORNIA GROUP),CHATSWORTH,CA,,,chatsworth0320@ces-us.net,(818) 772-8980,(818) 772-8998,9006 FULBRIGHT AVE.,,91311,,,www.e-ces.net
CES (CALIFORNIA GROUP),CHULA VISTA,CA,YOUSEF MESAD (BRANCH MANAGER),,Chulavista0394@ces-us.net,(619) 423-9004,(619) 423-9007,648 MARSAT CT,SUITE B,91911,,,www.e-ces.net
CES (CALIFORNIA GROUP),ESCONDIDO,CA,BRIAN ANDRINGA (BRANCH MANAGER),,Escondido0400@ces-us.net,(760) 738-9700,(760) 738-9701,395 PAUMA PLACE,,92029,,,www.e-ces.net
CES (CALIFORNIA GROUP),SAN DIEGO,CA,CHRIS ST PIERRE (BRANCH MANAGER),,Kearneymesa0393@ces-us.net,(858) 571-9801,(858) 571-9802,8224 RONSON ROAD,BUILDING 4 SUITE B,92111,,,www.e-ces.net
CES (CALIFORNIA GROUP),SIGNAL HILL,CA,,,longbeach0325@ces-us.net,(562) 424-3059,(562) 424-3205,2937-2945 CHERRY AVENUE,,90755,,,www.e-ces.net
CES (CALIFORNIA GROUP),POWAY,CA,JOE LUCERO (BRANCH MANAGER),,Poway0398@ces-us.net,(858) 391-0225,(858) 391-0229,13000 DANIELSON STREET,SUITE N & O,92064,,,www.e-ces.net
CES (CALIFORNIA GROUP),SANTEE,CA,BRIAN ANDRINGA (BRANCH MANAGER),,Santee0395@ces-us.net,(619) 258-9710,(619) 258-9711,10729 WHEATLANDS AVE.,SUITE A,92071,,,www.e-ces.net
COTNER WHOLESALE LIGHTING,WEST LOS ANGELES,CA,ALEX,IREN (AP),,310.473.0555,310.479.2837,2228 COTNER AVE.,,90064,,COTNERWHOLESALE@AOL.COM,www.cotnerlighting.com
COURTESY ELECTRIC WHOLESALE,ALHAMBRA,CA,Alley - 626-737-7777 - Owner,NADA PAMPALIAN LETICIA-A/P 626-737-7777,1626-282-4585@myfax.com,626-289-5177,626-282-4585,2220 WEST MAIN STREET,,91801,,ANNIEN@CEWUSA.COM- ANNIE,leticia@cewusa.com
COURTESY ELECTRIC WHOLESALE,PASADENA,CA,,,,,,926 EAST ORANGE GROVE,ATTN:  EDDIE ROJAS,91104,,ANNIEN@CEWUSA.COM- ANNIE,leticia@cewusa.com
CRESCENT ELECTRIC SUPPLY (VISTA),VISTA,CA,JEFF HOYT (BRANCH & DISTRICT MGR.),MIKE SMITH,vista@cesco.com,760.597.0707,760.597.1717,2580 PROGRESS STREET,,92081,,,www.cesco.com
CREST LIGHTING COMPANY,VAN NUYS,CA,JAKE,,wendyden@crestlightingco.com,818-779-0660,818-779-0949,16206 KITTRIDGE STREET,,91406,,,
DAMAR WORLDWIDE,PICO RIVERA,CA,Carol,,purchasedept@damarww.com,(800) 238-9080,562-801-2142,7029 PARAMOUNT BLVD.,,90660,,,www.damarww.com
DAVIS FLUORESCENT,LOS ANGELES,CA,OMAR,,davisfluorescent@sbcglobal.net,310-836-4860,310-836-0289,8530 VENICE BLVD,,90034,,,NO EMAIL
DAVIS WHOLESALE (NORTH HOLLYWOOD),NORTH HOLLYWOOD,CA,RIANI (AP) RIANIU@DAVISWHOLESALE.COM,,bobm@daviswholesale.com,818-392-2400,818-764-1531,11581 VANOWEN STREET,,91605-6225,,,
DISCOUNT LIGHTING (LAS VEGAS),SAN BERNADINO,CA,,,,,,970 REECE ST.,,92411,,dli.jenn@live.com,
E SAM JONES DISTRIBUTOR,CITY OF INDUSTRY,CA,SAL GUTIERREZ,JOE,sgutierrez@esamjones.com,(877) 748-5733,(714) 446-8736,2426 PECK ROAD,,90601,,FORMER NAILD MEMBER,www.esamjones.com
ELECTRIC SUPPLY CONNECTION,WEST LOS ANGELES,CA,Lino - ap,lino@electricsupplyconnection.com,kevin@electricsupplyconnection.com,310-442-2002,310-442-2007,12220 WEST PICO BLVD,,90064,,,
"ELECTRICAL SALES, INC",VISTA,CA,DANNY ALVARADO,ELIZABETH MONTIEL (AP),kevinm@electricalsalesinc.com,760-598-1510,760-598-4944,2300 LA MIRADA DRIVE,,92081-7862,,ADDRESS CHANGED 07.31.04 MLW,www.electricalsalesinc.com
ELECTRICAL SUPPLIES UNLIMITED,SAN DIEGO,CA,EDDIE,,,858-695-2850,858-695-2887,"7666 FORMULA PLACE, #C",,92121,,,
ENCORE LIGHTING,ONTARIO,CA,NICK MORICI,,nick@encoreltg.com,909-923-9311,909-923-4260,2125 SOUTH HELLMAN AVENUE,UNIT E,91761,,,
FSG LIGHTING / AMERICAN LIGHT,PLACENTIA,CA,,,,,,801 S RICHFIELD RD.,,92870,,dba: FSG Lighting        (FAX,CHANGE TO E-MAIL 11-02-10)
G & F LIGHTING SUPPLY,CANOGA PARK,CA,MARK RUBENSTEIN,,,818-710-6360,818-710-6355,7137 REMMET AVENUE,,91303,,,NO EMAIL
HANK'S ELECTRICAL SUPPLIES,COSTA MESA,CA,MICHELLE CHRISTENSEN,,,9496467777,9497220237,1718 PLACENTIA AVENUE,,92627,,,
HARBOR WHOLESALE,SANTA ANA,CA,BRUCE,VERONICA A/P,mike@hwes.com,714-434-2800,714-434-7770,3203 S HARBOR BLVD,,92704,,,www.hwes.com
IDEAL LIGHTING,DOWNEY,CA,LORENZO,,lorenzo@ideal-light.com,562-803-3144,562-401-4106,11912 WOODRUFF AVENUE,,90241,,do not accept orders from rich,newman as of 7/03/03
IDEAL LIGHTING,EL CAJON,CA,,,,,,1280 E. MAIN STREET,ATTN: JEFF,92021,,do not accept orders from rich,newman as of 7/03/03
INDEPENDENT ELECTRIC -IES- (SAN DIEGO),SAN DIEGO,CA,DAVE DISTEFANO (PURCHASING MANAGER),,dave.distefano@iesupply.com,858-565-8866,858-565-1616,5045 CONVOY STREET,,92111,,,www.iesupply.com
INDEPENDENT ELECTRIC -IES- (TEMECULA),TEMECULA,CA,MIKE RUIZ (SALES),,mike.ruiz@iesupply.com,(951) 296-6410,(951) 296-6411,41437 BUECKING STREET,,925905669,USA,,www.iesupply.com
"INLAND LIGHTING SUPPLIES, INC.",RIVERSIDE,CA,jackie,,karen@inlandlightingsupplies.com,951.784.3455,951.784.4548,3393 DURAHART ST.,,92507,,JACKIE@INLANDLIGHTINGSUPPLIES.,com
INTERSTATE ELECTRIC -IEC-,CITY OF COMMERCE,CA,DAVID BOYD,CHUCK COHEN,,(323) 803-2000,(323) 803-2019,2240 YATES AVE.,,90040,,,www.interstateelectric.com
J & A ELECTRICAL SUPPLIES,BLOOMINGTON,CA,GEORGE GOMEZ (SALES DIRECTOR),ALICE GOMEZ (AP),,(909) 874-1131,(909) 874-2711,10620 CEDAR AVE.,,92316,,,
LIGHT BULBS ETC. (MONTCLAIR),MONTCLAIR,CA,DAVID SAREMBOCK,,raelwolder@hotmail.com,909/482-4414,909/482/4417,8760 CENTRAL AVE.,,91763,,,
LIGHT BULBS ETC. (ORANGE),ORANGE,CA,COLIN,CAROL KAWASHIMA,,714-532-1410,714-532-6254,658 NORTH TUSTIN,,92867,,,
LIGHT BULBS UNLIMITED (SAN DIEGO),SAN DIEGO,CA,JOE BELL,,16192954922@myfax.com,619-296-2454,619-295-4922,1017 MORENA BLVD,,92110,,,NO EMAIL
"LIGHTING SUPPLY, INC.",IRVINE,CA,JOSEPH TRRAILKILL (PRESIDENT),CAMERON HUNNEL (OPERATIONS MANAGER),cameronh@lsica.com,(949) 589-3020,(949) 858-3522,5 HOLLAND,SUITE # 219,92618,,formerly Rebel Lighting,www.lsica.com
MENORAH WHOLESALE,INGLEWOOD,CA,SAL KOHAN (OWNER),,sal@menorahwholesale.com,310-677-8888,310-677-7274,240 WEST FLORENCE AVENUE,,90301,,,
MIDWEST WHOLESALE LIGHTING,LOS ANGELES,CA,GLEN STANIEC,ED USELDINGER    SEN (AP),purchasingdept@midwestlighting.com,323-469-1641,323-463-3441,PO BOX 27339,,90027-4913,,,www.midwestlighting.com
MIDWEST WHOLESALE LIGHTING,LOS ANGELES,CA,ED USELDINGER,,,323-469-1641,323-463-3441,5250 HOLLYWOOD BLVD.,,90027,,,www.midwestlighting.com
MONAS ELECTRIC & LIGHTING,SOUTH EL MONTE,CA,SAM LIM,LANCE-lance@lbclighting.com,,(626) 279-2658,(626) 279-2847,1762 TYLER AVENUE,,91733,,dba Light Bulb City,
MONTROY SUPPLY,LONG BEACH,CA,MIKE LAACK,ROSALYNN ASUEGA (AP),,707-745-5748,707-745-5749,CORPORATE OFFICES,PO BOX 93000,90809-3000,,,www.montroy.com
MONTROY SUPPLY,SIGNAL HILL,CA,,,,(800) MONTROY,(562) 997-2921,2674 RAYMOND AVE.,,90755,,,www.montroy.com
MONTROY SUPPLY,MONTEBELLO,CA,ELIAS FERNANDEZ,,,(800) 733-1005,(323) 888-2312,1601 SOUTH MAPLE AVENUE,,90640,USA,,www.montroy.com
MONTROY SUPPLY,SAN DIEGO,CA,,,,(800) 733-1006,(858) 277-3405,4857 MERCURY STREET,,92111,USA,,www.montroy.com
MONTROY SUPPLY,SANTA ANA,CA,,,,(888) 733-6001,(714) 429-0648,1307 E. WARNER AVENUE,,92705,,,www.montroy.com
N. GLANTZ & SON,BREA,CA,PATTY ZAGATA (BRANCH MANAGER),,screpeault@nglantz.com,(714) 996-9401,(714) 854-0191,350 RANGER AVE,SUITE B,92821,,,www.nglantz.com
N. GLANTZ & SON,NATIONAL CITY,CA,ED BRENT (BRANCH MANAGER),,sandiego@nglantz.com,(619) 336-1121,(619) 336-1122,2530 SOUTHPORT WAY,UNIT C,91950,,,www.nglantz.com
NANOCUSTOMS,NEWBURRY PARK,CA,CHRIS JUNG,info@nanotuners.com,chris@nanocustoms.com,805-262-6027,805-262-6029,"3525 OLD CONEJO ROAD, SUITE 107",,91320,,CUSTOMER MUST BE CHARED CC 1ST,
NANOCUSTOMS,HAWTHORNE,CA,,,,,,12705 S. VAN NESS AVE,,90250,,CUSTOMER MUST BE CHARED CC 1ST,
NATION WIDE LIGHTING & ELECTRICAL SUPPLY,DOWNEY,CA,,,,,,12310 WOODRUFF AVE.,,90241,,laurasosnow@hotmail.com,www.mynles.com
NATION WIDE LIGHTING & ELECTRICAL SUPPLY,PASADENA,CA,LAURA (WILL CALL ORDERS): 562-803-3440,CHRISTINE A/P  562-803-3440 ph,karen.gomez78@yahoo.com,626-396-6900,626-396-7027,1360 EAST WALNUT STREET,,91106,,laurasosnow@hotmail.com,www.mynles.com
"NATIONAL LIGHTING SUPPLY, LLC",SAN DIEGO,CA,DAVID WILLIAMS (OWNER/PURCHASING),JUDY WILLIAMS (OWNER/AP),nationallightingsupply@gmail.com,(858) 277-5267,(858) 272-5268,8380 VICKERS ST; UNIT #H,,92111,,,
ONE SOURCE DISTRIBUTORS,SAN DIEGO,CA,,,,,,9235 BROWN DEER ROAD,,92121,,CORP HQ,www.1sourcedist.com
ONE SOURCE DISTRIBUTORS,BUENA PARK,CA,,,,,,6530 ALTURA BLVD.,,90620,,CORP HQ,www.1sourcedist.com
ONE SOURCE DISTRIBUTORS,ORANGE,CA,,,,,,1619 N. BRIAN STREET,,92867,,CORP HQ,www.1sourcedist.com
ONE SOURCE DISTRIBUTORS,OCEANSIDE,CA,DAN RUTTER (DIR. OF PURCHASING),MARIA (DOROTHY NUTTER),drutter@1sourcedist.com,(760) 966-4500,(760) 966-4599,3951 OCEANIC DRIVE,,92056,,CORP HQ,www.1sourcedist.com
ONE SOURCE DISTRIBUTORS,DOWNEY,CA,,,,(562) 803-1883,(562) 803-5590,11899 SOUTH WOODRUFF AVENUE,,90241,,CORP HQ,www.1sourcedist.com
ONE SOURCE DISTRIBUTORS,EL CENTRO,CA,,,,(760) 352-1015,(760) 353-9236,950 SOUTH HOPE STREET,,92243,,CORP HQ,www.1sourcedist.com
ONE SOURCE DISTRIBUTORS,FULLERTON,CA,,,,,,619 SOUTH RAYMOND AVENUE,,92831,,CORP HQ,www.1sourcedist.com
ONE SOURCE DISTRIBUTORS,NATIONAL CITY,CA,JOHN MAXON,,,619-336-0888,619-336-0897,326 WEST 30TH STREET,,91950,,CORP HQ,www.1sourcedist.com
ONE SOURCE DISTRIBUTORS,SAN DIEGO,CA,,,,,,9275 CARROL PARK DRIVE,,92121,,CORP HQ,www.1sourcedist.com
"PARKER LIGHTING, INC.",INGLEWOOD,CA,LOUIS HIRSCH (MANAGER),RAUL,13106743072@myfax.com,310-674-8193,310-674-3072,207 WEST BEACH AVENUE,,90302,,cust wants invs emailed to him,
SPECIALTY ELECTRIC SUPPLY COMPANY,POWAY,CA,ANDY BURBAKER,CHRIS (AP),chris@sescosd.com,858.391.1900,858.391.1908,"12255 KIRKHAM RD, SUITE 200",,92064,,,
SPOT LIGHTING,LONG BEACH,CA,,,,562-591-1721,562-432-8056,1200 OREGON AVENUE,,90813,,ED@SPOT-LIGHTING.COM,
SPOT LIGHTING,LONG BEACH,CA,JEFF,ED SPOTSKEY A/P,ed@spot-lighting.com,562-437-1300,562-432-8056,P.O. BOX 20860,,90801,,ED@SPOT-LIGHTING.COM,
"THE EXIT LIGHT CO., INC.",VISTA,CA,PAUL CARRICO,MIKE WEBSTER,mwebster@lfi-inc.com,(760) 598-3948,(760) 598-3941,1497 POINSETTIA AVE.,SUITE 155,92081,,www.exitlightco.com,www.lightfixtureindustries.com
THE LIGHTING COMPANY,ONTARIO,CA,JOHN SPERBER (BRANCH MANAGER),,john@lightingcompany.net,(909) 781-2900,(909) 781-2910,4189 SANTA ANA STREET,SUITE F,91761,,,www.lightingcompany.net
THE LIGHTING COMPANY,IRVINE,CA,"STEVE ESPINOSO, CPA (PRESIDENT)",SAHAR REZAPOUR (AP),espo@lightingcompany.net,949-296-0764,714.436.5035,1621 BROWNING,,92606,,,www.lightingcompany.net
THE LIGHTING COMPANY,SANTA ANA,CA,,,,,,146 GARRY AVENUE,,92707,USA,,www.lightingcompany.net
TRIM WHOLESALE LIGHTING,COSTA MESA,CA,TODD STEEN (MANAGER),STACY MIGLIOZZI AP (STACY@TRIMLIGHTING.,doug@trimlighting.com,949.642.9049,949.642.9051,"629 TERMINAL WAY, SUITE #18",,92627,,,
UNILIGHT WHOLESALE ELECTRIC,SANTA MONICA,CA,FRANK LALEZARIAN,,13102647172@myfax.com,310.264.7171,310.264.7172,1824 LINCOLN BLVD.,,90404,,,www.unilight.com
WALTERS WHOLESALE (VISTA),SIGNAL HILL,CA,JOHN JORDAN (BRANCH MANAGER),JEFF SIMMS,matt.gravette@walterswholesale.com,562-988-3100,760-727-6903,2825 TEMPLE AVENUE,,90755,,,www.walterswholesale.com
WALTERS WHOLESALE (VISTA),VISTA,CA,,,,760-727-0400,760-727-6903,2450 LA MIRADA DRIVE,,92081,,,www.walterswholesale.com
WEST LA WHOLESALE (STEVEN STEIN ENT. ),LOS ANGELES,CA,STEVEN STEIN (OWNER),PEPE BAUTISTA (GENERAL MANAGER),myro@wlaelectrical.com,310-996-3100,310-996-3106,11646 WEST PICO BLVD.,,90064,,,www.lightsonrus.com
WEST-LITE SUPPLY,CERRITOS,CA,GARRY J. HAVERLAND (PRESIDENT),SMILEY GOMEZ (PUR MGR.) CARMITA (AP),doug.roh@west-lite.com,800-660-6678,562-802-0154,12951 166TH STREET,,90703-2104,,,www.west-lite.com
WESTWOOD WHOLESALE ELECTRIC CO,WEST LOS ANGELES,CA,EDGAN FUENTES,DANIEL RAFALIAN,gmmxp@aol.com,310-820-2611,310-820-5840,11900 SANTA MONICA BLVD,,90025,,,
WIEDENBACH-BROWN (HAWTHORNE),YORBA LINDA,CA,,,,714-692-2200,714-692-2550,3760 PROSPECT AVENUE,,92886,,TINA_PAGLIUCA@WBLIGHT.COM,www.wblight.com
***INACTV***A1 LIGHTING,GRANADA HILLS,CA,LISA M. DAHON,,a1lighting@aol.com,818-366-2557,818-336-2704,11847 GOTHIC AVE,,91344,,,
***INACTV***AAA ELECTRICAL SUPPLY,LOS ANGELES,CA,,,,,,122 S. MISSION ROAD,,90033,,,
***INACTV***AAA ELECTRICAL SUPPLY,MONTEBELLO,CA,ANTHONY TORRES,,13237215437@myfax.com,323-721-2700,323-721-5437,1014 S. MONTEBELLO BLVD,,90640,,,
***INACTV***ADVANTGE MOTOR PERFORMANCE,HAWTHORNE,CA,FREDDIE TERCERO,,,310-973-8350,310-973-8517,3121 WEST 139TH STREET,UNIT #B,90250,,,
***INACTV***ALARMS DEPOT INC,LOS ANGELES,CA,,,,213-746-2126,213-746-4806,"1901 S. ALAMEDA ST., SUITE 117",,90058,,,www.alarmsdepot.com
***INACTV***ALLIANCE ELECTRIC SUPPLY,LOS ANGELES,CA,JOE LOPEZ,,13235830100@myfax.com,323-584-0200,323-583-0100,2230 E. WASHINGTON BLVD.,,90021,,,
***INACTV***ALPHA & OMEGA MARKETING SVC.,YORBA LINDA,CA,TERRY WOZNICKI,,,714-779-9072,,4050 HICKORY TREE LANE,,92686,,TERMS: COD,
***INACTV***AMERICAN LIGHTING PRODUCTS,NORTHRIDGE,CA,STU GOODMAN,,stu@americanlightingproducts.com,818-363-2659,818-368-1836,18781 BRAEMORE RD.,,91326,,,
***INACTV***AMERICAN LIGHTING SUPPLY,SAN DIEGO,CA,NEIL & TRACY,,americanlighting@yahoo.com,858-549-2324,858-549-8969,6861-C NANCY RIDGE DR.,,92121-3214,,,www.amercianlightingsupply.com
***INACTV***AMPSS,HAWTHORNE,CA,MARK,J & T A/P,13109738517@myfax.com,310-973-8350,310-973-8517,"3121 W. 139TH STREET, UNIT B",,90250,,,
***INACTV***ANTHONY WHOLESALE ELECTRIC,SANTA ANA,CA,MARK WATCH,,gus@anthonywholesale.com,714-258-2003,714-258-0609,1934 EAST EDINGER AVE,,92705,,,
"***INACTV***AQUAFAUNA BIO-MARINE, INC.",HAWTHORNE,CA,BUD INSALATA,,www.aquafauna.com,310.973.5275,310.676.9387,P.O. BOX 5,,90251,,TERMS: PREPAID CREDIT CARD,
***INACTV***ARCHITECTURAL DESIGN & SIGNS,CORONA,CA,SEAN SOLOMAN,YOCKZA OLEA,,(951) 278-0680,(951) 278-0681,2950 PALISADES DR.,,92880,,,www.ad-s.com
***INACTV***ARTE LIGHTING,SANTA ANA,CA,FRANCISCO BRISANO,,ARTELIGHTING@SBCGLOBAL.NET,(714)564-0160,(714)564-0166,1246 S. LYON ST.,,92705,,,
***INACTV***BECK ELECTRIC,WILMINGTON,CA,STEVE,,,510.215.9499,510.215.7889,1651 EAST MAURETANIA STREET,,90744,,,www.beckelectric.com
***INACTV***CA ELEC. SUPPLY (EL CAJON),EL CAJON,CA,CHRIS WILKEY,,16195795208@myfax.com,619-579-0711,619-579-5208,1080 N. JOHNSON AVE.,,92020,,,
***INACTV***CALIFORNIA ELECTRIC SUPPLY,ANAHEIM,CA,PHIL BRADLEY,,17149565157@myfax.com,714-956-5156,714-956-5157,1320 S. ALLEC STREET,,92805,,,
***INACTV***CANOGA ELECTRICAL SUPPLY,CANOGA PARK,CA,MORRIS KHAKSHOY,,,818-710-8242,818-346-6032,21410 SHERMAN WAY,,91303,,,
***INACTV***CED (BARSTOW),BARSTOW,CA,GRANT CLARK,,17602566656@myfax.com,760.256.2216,760.256.6656,2346 W. MAIN ST.,,92311,,,
***INACTV***CED (CALIMESA),CALIMESA,CA,KIRK EVANS,,19097955095@myfax.com,909.795.5060,909.795.5095,"1091 7TH ST., SUITE C",,92320,,,
***INACTV***CED (CANOGA PARK),CANOGA PARK,CA,KEVIN MURPHY,,18187090748@myfax.com,818.341.1751,818.709.0748,9026 OWENSMOUTH AVE,,91304,,,
***INACTV***CED (CARLSBAD),CARLSBAD,CA,JIM DIBBLE,,17609311402@myfax.com,760.438.9691,760.931.1402,6106-A AVENIDA ENCINAS,,92011,,,
***INACTV***CED (CORONA),CORONA,CA,JOE ONEILL,,19517342271@myfax.com,951.734.5360,951.734.2271,122 E. HARRISON ST.,,92879,,,
***INACTV***CED (COSTA MESA),COSTA MESA,CA,ROB ADAMS,,17145460610@myfax.com,714.557.6801,714.546.0610,241 E. STEVENS ST.,,92707,,,
***INACTV***CED (EL CENTRO),EL CENTRO,CA,CASH SANCHEZ,,17603539187@myfax.com,760.353.2340,760.353.9187,323 E. ROSS AVE.,,92243,,,
***INACTV***CED (ESCONDIDO),ESCONDIDO,CA,ED MACFARLANE,,17607400624@myfax.com,760.747.2900,760.740.0624,2160 MEYERS AVE,,92029,,,
***INACTV***CED (INDUSTRY),INDUSTRY,CA,COREY HARRIS,,16263698521@myfax.com,626.369.5422,626.369.8521,15336 PROCTOR AVE,,91745,,,
***INACTV***CED (LANCASTER),LANCASTER,CA,RICK SAWYER,STACY A/P,gman@cedlanca.com,661.948.7508,661.948.7938,42053 6TH STREET WEST,,93534,,,
***INACTV***CED (MURRIETA),MURRIETA,CA,DARRYL,,,951-698-1864,,41601-B CHERRY STREET,,92562,,,
***INACTV***CED (PALM SPRINGS),CATHEDRAL CITY,CA,HOWARD HAM,,17603285391@myfax.com,760.328.1131,760.328.5391,36-605 SUNAIR PLAZA,,92234,,,
***INACTV***CED (PASADENA),PASADENA,CA,JONATHAN OAKLEY,,16264498542@myfax.com,626.793.1158,626.449.8542,2031 E. FOOTHILL BLVD,,91107,,,
***INACTV***CED (RAMONA),RAMONA,CA,ROB WHIPPLE,,17607885716@myfax.com,760.788.6112,760.788.5716,432 MAPLE STREET #16,,92065,,,
***INACTV***CED (RIVERSIDE),RIVERSIDE,CA,KEN LAWSON,,19097879883@myfax.com,951-683-6625,951-787-9883,2970 DURAHART STREET,,92507,,,
***INACTV***CED (SAN BERNARDINO),SAN BERNARDINO,CA,ANDY IPSON,,19098891077@myfax.com,909.889.1071,909.889.1077,580 E. MILL ST,,92408,,,
***INACTV***CED (SAN CLEMENTE),SAN CLEMENTE,CA,ERIK KLIPFEL,,19494927281@myfax.com,949.492.5161,949.492.7281,446 CALLE DE LOS MOLINOS,,92672,,,
***INACTV***CED (SAN JACINTO),SAN JACINTO,CA,BRUCE ATHERTON,,19516547130@myfax.com,951.654.8100,951.654.7130,1696 JUANITA ST,,92583,,,
***INACTV***CED (SANTEE),SANTEE,CA,STEVE FISHBACK,,16195624923@myfax.com,619.562.3004,619.562.4923,"8406 MAGNOLIA AVE., N., SUITE H",,92071,,,
***INACTV***CED (VENTURA),VENTURA,CA,FRANK ZYCH,,18056540569@myfax.com,805-642-0361,805-654-0569,1807 PELMA DRIVE,,93003,,,
***INACTV***CED (VICTORVILLE),VICTORVILLE,CA,A. SINGLEDECKER,,17602417447@myfax.com,760.241.7443,760.241.7447,12137 INDUSTRIAL BLVD,,92392,,,
***INACTV***CNC ELECTRIC SUPPLY,GARDEN GROVE,CA,ALBERT CHUNG (OWNER),,17148954625@myfax.com,714.894.8875,714.895.4625,7690 LAMPSON AVE.,,92841,,,www.cnces.net
***INACTV***CNC ELECTRIC SUPPLY,SOUTH EL MONTE,CA,,,,(626) 401-3639,(626) 401-3576,9300 WHITMORE ST,,91731,,,www.cnces.net
***INACTV***COAST LIGHTING,HUNTINGTON BEACH,CA,,,,714.799.1332,714.799.1322,"15561 PRODUCER LANE, SUITE H",,92649,,TERMS: C.O.D.,
***INACTV***CRESCENT ELECTRIC SUPPLY,SAN MARCOS,CA,LINDA HORNBECK,,sanmarcos@cesco.com,760.471.9123,760.471.0909,187 SANTAR PLACE,,92069-6451,,,www.cesco.com
***INACTV***CRESCENT ELECTRIC SUPPLY,MORENO VALLEY,CA,CHUCK FISHER,,mfisher@cesco.com,951.656.2244,951.656.3264,14351 VETERANS WAY,,92553,,,www.cesco.com
***INACTV***CRESCENT ELECTRIC SUPPLY,MURRIETA,CA,,,,,,CRESCENT ELECTRIC SUPPLY CO.,ATTN: JAMES WIGGINS,92563,,,www.cesco.com
***INACTV***CROWN LIGHTING,NORWALK,CA,,,1562.802.5211@myfax.com,562.802.5250,562.802.5211,14530 CARMENITA ROAD,,90650,,,
***INACTV***DC WAREHOUSING,HOMELAND,CA,DEAN CAMMANS,,happyfolks2@verizon.net,801-230-7737,,30962 SILVER PALM DR.,,92548,,,
***INACTV***DENAULT COMMERCIAL SUPPLY,RANCHO SANTA MARGARITA,CA,TON DENAULT,SEAN SNYDER,,949.888.5400,949.888.5436,23281 ANTONIO PARKWAY,,92688,,,
***INACTV***DEVORE/GUARANTEED WHOLESALE,LOS ANGELES,CA,SANDY OR IVIS,,13232346199@myfax.com,323-232-2131,323-234-6199,6231 MANHATTAN PLACE,,90047,,,lowered limit per Jeff 5/14/03
ECHO ELECTRIC SUPPLY (NSD),CITY OF COMMERCE,CA,DAVID BOYD,CHUCK COHEN,,323-803-2000,323-803-2019,2240 YATES AVE.,,90040,,,www.echogroupinc.com
***INACTV***ELSINORE ELECTRICAL SUPPLY,LAKE ELSINORE,CA,BILL HAND (MANAGER),DENISE GRASSO,,909-674-6661,909-674-0964,32391 RIVERSIDE DRIVE SUITE 17,,92530,,,
***INACTV***EMPIRE ELECTRICAL SUPPLY,SAN DIEGO,CA,ERIK BAYUS (OWNER),JIM DELANEY,18586897386@myfax.com,858-689-7300,858-689-7386,8825 REHCO RD.,SUITE D,92121,,,www.empireelectricalsupply.com
***INACTV***ENERGY SAVING SYSTEMS (CA),LONG BEACH,CA,,,,,,651-102 HOLLBROOK COURT,,90803,,,
***INACTV***ENERGY SAVING SYSTEMS (CA),LONG BEACH,CA,KATHY OR RICHARD,,,562.597.8410,562.597.8560,5001 EAST ATHERTON STREET #401,,90815,,,
***INACTV***ENERGY SAVING SYSTEMS (CA),LONG BEACH,CA,RICHARD OR KATHY,,,562-597-8410,562-597-8560,P.O. BOX 20349,,90801-3349,,,
***INACTV***ESD ELECTRIC SUPPLY (REXEL),COSTA MESA,CA,DAVE B,,,714.540.9101,714.434.9509,325 CLINTON AVE,,92626,,,
***INACTV***ESSCO WHOLESALE ELECTRIC,BUENA PARK,CA,,,,562-529-3799,,5651 DOLLY AVENUE,,90621-1873,,,www.esscous.com
***INACTV***ESSCO WHOLESALE ELECTRIC,GRAND TERRACE,CA,MATT WILLHIDE,,MATTWILLHIDE@ESSCOUS.COM,(909) 783-1000,(909) 783-6855,22075 COMMERCE WAY,,92313,,,www.esscous.com
***INACTV***ESSCO WHOLESALE ELECTRIC,SAN DIEGO,CA,MIKE JILLARD,,MJILLARD@ESSCOUS.COM,(858) 292-6780,(858) 292-6785,7832 OSTROW STREET,,92111,,,www.esscous.com
***INACTV***FIRE L.T.D.,LOS ANGELES,CA,JACK L.,,mike@fireltd.com,323.782.9110,323.655.6735,639 N. FAIRFAX AVE.,,90036,,,
***INACTV***FOX WHOLESALE ELECTRIC,LOS ANGELES,CA,,,,323/665-8000,323/665-8290,5074 SANTA MONICA BLVD.,,90029,,,
***INACTV***FTS LIGHTING SERVICES,ORANGE,CA,,,breanna@ftslighting.com,(714) 289-1957,(714) 289-0672,1407 N. BATAVIA STREET,SUITE 118,92867,,TERMS: PRE PAID CREDIT CARD,
***INACTV***G.R. LIGHTING SUPPLIES,LAKE ELSINORE,CA,,,,213-291-1079,213-291-7408,"31735 RIVERSIDE DR., SUITE C156",,92530,,,
***INACTV***G.R. LIGHTING SUPPLIES,WESTMINISTER,CA,GIL REYES,,electricbidman@yahoo.com,213.435.0433,213.291.7408,7120 HAZARD AVE UNIT C,,92683,,,
GEXPRO (NSD),ANAHEIM,CA,,,,714-712-8500,,2099 SOUTH STATE COLLEGE BLVD.,,92806,,,
***INACTV***GLENDALE WHOLESALE ELEC.,GLENDALE,CA,VICTOR (PURCHASING),,gwesvictor@sbcglobal.net,(818) 244-2170,(818) 244-2180,5130 SAN FERNANDO RD.,,91204,,,
***INACTV***GREEN THUMB LTG. & SUPPLY,TORRANCE,CA,TONYCORDEIRO,,sales@calgreenthumb.com,310-326-1813,310-326-1813,"1647 WEST SEPULVEDA BLVD., #5",,90501,,TERMS: COD,
***INACTV***HAVCO,CERRITOS,CA,FRANK SCHULTZ,TINA MEGESI,,513-563-2223,513-563-2950,12951 166TH ST.,,90703,,,
***INACTV***HOLLYWOOD FWY WHOLESALE,LOS ANGELES,CA,,,,323-871-1818,323-871-1817,5434 SANTA MONICA BLVD.,,90029,,,
***INACTV***IES (SANTA ANA),SANTA ANA,CA,,,,,,3100 WEST HARVARD STREET # 7,,92704,,,
***INACTV***IES (SANTA ANA),SANTA ANA,CA,,,lightsup@aol.com,714-557-1955,714-557-9781,P.O. BOX 25743,,92799-5743,,,
***INACTV***IND. GUARANTEED PRODUCTS,IRVINE,CA,MARY LOU PICERNO,,,800.690.6868,949.851.3888,16600 ASTON ST.,,92606,,,
***INACTV***INDEPENDENT ELECTRIC -IES-,CARSON,CA,"ARLO HAGEN, JR. (AJ)",,ajhagen@iesupply.com,310-532-6252,310-366-5993,329 WEST TORRANCE BLVD.,,90745-1190,,,www.iesupply.com
***INACTV***J & S LIGHTING,NO. HOLLYWOOD,CA,JACOB LEVY,,,818/764-4667,818/764-4664,"12029 VOSE ST., #17 & 18",,91605,,,
***INACTV***JEFFERSON LIGHTING,LA MESA,CA,SYLVIA,,16196978403@myfax.com,800.367.4592,619.697.8403,7735 UNIVERSITY AVE,,91941,,TERMS PRE PAID CREDIT CARD,
"***INACTV***JNT LIGHTING, INC.",SANTA ANA,CA,CHUCK FRENCH,,,714.754.7668,714.754.7669,128 EAST DYER ROAD,SUITE #C,92707,,,
***INACTV***JOE'S ELECTRIC WHOLESALE,LOS ANGELES,CA,JOE LOPEZ,,,213.745.6469,213.745.6097,1537 EAST WASHINGTON BLVD.,,90021,,,
"***INACTV***KEY LIGHTING SUPPLY, INC.",BELLFLOWER,CA,MARK TAYLOR,,,562-804-6400,562-866-6641,9125 ROSE ST.,,90706-6419,,,
***INACTV***KM LIGHTING,LOS ANGELES,CA,KAMRAN MACCABI,DANIEL MACCABI,13105591682@myfax.com,310-559-9961,310-559-1682,2815 SOUTH LA CIENEGA AVE.,,90034,,,
***INACTV***LBU (ENCINITAS),ENCINITAS,CA,KENT VINSON,,,760.632.5483,760.632.1957,245 N. EL CAMINO REAL,,92024,,,www.lightbulbsunlimited.com
***INACTV***LIGHT BULB WAREHOUSE,SAN DIEGO,CA,BARRY COHEN,,,619-275-7851,619-275-7848,1655 MORENA BLVD,,92110,,,
***INACTV***LIGHT BULBS ETC.(COSTA MESA),COSTA MESA,CA,,,,949/646-5227,949/646-5235,1920 NEWPORT BLVD,,92627,,,
"***INACTV***LIGHTING SPECIALIST, INC.",GLENDALE,CA,HASSAN,,,818-240-3913,818-240-3490,763 SALEM STREET,,91203,,,
"***INACTV***LIGHTING SUPPLIES, INC.",GLENDALE,CA,BRIAN BRZYCKI,,,818-244-4424,818-244-3253,1441-4 GARDENA AVENUE,,91204,,,NO EMAIL
***INACTV***LONG LIFE LIGHTING CO.,POWAY,CA,JAMES IRGENS,,,858-486-5648,858-486-5647,13910 TEMPLE STREET,,92064,,SISTER CO. WESTERN PACIFIC LTG,
"***INACTV***MAJESTIC LIGHTING, INC.",GARDENA,CA,DANYEL VERDI,,13108081009@myfax.com,(310) 808-1008,(310) 808-1009,1923 WEST ARTESIA BLVD.,,90247,,,www.majesticlightinginc.com
***INACTV***METROPOLITAN ELECTRICAL DIST,INDUSTRY,CA,JOE FLANNERY,,acalzada@metro-al.com,213.553.8888,213.553.8887,807 MATTEO STREET,,90021,,,
***INACTV***MID VALLEY LIGHTING CORP,VAN NUYS,CA,KEITH BECKER,NIMFA- A/P,18187866763@myfax.com,818-786-5787,818-786-6763,5961 SEPULVEDA BLVD,,91411,,,
***INACTV***MO WHOLESALE ELEC. SUPPLY,UPLAND,CA,OLIVER JOSEPH RIAHI,,,909.949.1200,909.931.4778,1531 W. 13TH STREET UNIT M,,91786,,,
"***INACTV***MY ELECTRICAL SUPPLY, INC.",WHITTIER,CA,ROBERT BLACK,,,562.698.5001,562.698.5005,12141 RIVERA RD.,,90606,,,
***INACTV***NATIONWIDE LTG. & ELEC.,DOWNEY,CA,TONY TABAN,CHRISTINE,15628033446@myfax.com,562.803.3440,562.803.3446,12310 WOODRUFF AVE.,,90241,,,www.mynles.com
***INACTV***PACIFIC LIGHTING DIST.,LAKE FOREST,CA,JIM ROGERS,,,949.716.6089,949.716.6079,"20331 LAKE FOREST DR., #C1",,92630,,,pacificlightingservices.com
***INACTV***PHYL-MAR ELEC. SUPPLY CO.,CANYON COUNTRY,CA,,,18052517324@myfax.com,805-251-6600,805-251-7324,20665 W. SANTA CLARA STREET,,91351,,,
"***INACTV***PLATINUM LIGHTING, LLC",MANHATTAN BEACH,CA,LARRY WALLEY (OWNER),JUDY WALLEY (AP),LJWALLEY@PACBELL.NET,(310) 782-2323,(310) 782-2444,1601 N. SEPULVEDA BLVD.,SUITE # 138,90266,,TERMS: PREPAID CREDIT CARD,
"***INACTV***PLATINUM LIGHTING, LLC",TORRANCE,CA,LARRY WALLEY (OWNER),JUDY WALLEY (AP),LJWALLEY@PACBELL.NET,(310) 782-2323,(310) 782-2444,2909 OREGON COURT,UNIT C4,90503,,TERMS: PREPAID CREDIT CARD,
***INACTV***PLAZA WHOLESALE ELECTRIC,LOS ANGELES,CA,LIZA,,13239382989@myfax.com,323-938-1800,323-938-2989,5879 W. PICO BLVD.,,90019,,,
***INACTV***POMONA WHOLESALE ELECTRIC,POMONA,CA,,,,909/591-8100,909/627-9433,2120 S. RESERVOIR,,91766,,,
"***INACTV***POWER DISTRIBUTORS, INC.",CITY OF INDUSTRY,CA,"BARRY LEFAVE, CLMC",JOHN LEFAVE,barry@pwrdist.com,626-855-2580,626-855-2589,15245 EAST PROCTOR AVENUE,,91745,,,www.pwrdist.com
***INACTV***PREMIUM LIGHTING INTEGRATION,CANOGA PARK,CA,STEPHEN SINGER,MAUREEN SINGER,,(818)992-0422,,22149 BURTON STREET,,91304,,TERMS CREDIT CARD,
***INACTV***PS LIGHTING PARK SPECIALTIES,FONTANA,CA,WALLY,,,909.823.5800,909.823.1602,16610 VALLEY BLVD.,,92335,,,www.pslighting.com
***INACTV***QUALITY LIGHT AND ELECTRICAL,FONTANA,CA,DENISE,,19093568969@myfax.com,909-356-0997,909-356-8969,14033 ROSE AVENUE,,92355,,,
***INACTV***RAD ELECTRIC,NATIONAL CITY,CA,,,,619-474-4449,619-474-7933,1904 MCKINLEY AVENUE,,91950,,,
***INACTV***RAYVERN LIGHTING SUPPLY CO.,PARAMOUNT,CA,FRANK PULIAFICO JR. (PRESIDENT),JUSTINE PULIAFICO (VICE PRESIDENT),SALES@RAYVERN.COM,(562) 634-7020,(562) 634-7697,7901 SOMERSET BLVD.,SUITE C,90723-4322,,,www.rayvern.com
***INACTV***READY WHOLESALE ELECTRIC,RESEDA,CA,MIKE NOUROZLO,HAMID BANAFSHEHA,,818-881-1800,818-881-2827,18315 SHERMAN WAY,,91335,,,
***INACTV***REXEL (CALCON),PALM DESERT,CA,,,19516828305@myfax.com,760.772.6097,760-772-2597,39-625 ENTREPRENEUR LANE,,92211-0402,,,
***INACTV***REXEL (COSTA MESA),COSTA MESA,CA,GY,,17144349509@myfax.com,,714.434.9509,325 CLINTON,,92626,,,
***INACTV***REXEL (EL CAJON),EL CAJON,CA,,,,619.442.9255,619.442.3845,1333 N. MAGNOLIA AVE.,,92020,,,
***INACTV***REXEL (IRVINE),IRVINE,CA,TOM TOPPING,,,949-855-4242,949-855-3318,2 MORGAN STREET,,92618,,,
***INACTV***REXEL (LA MIRADA),LA MIRADA,CA,Daniel Hernandez,,swood@rexelusa.com,714.562.6650,714.562.6699,14535 INDUSTRY CIRCLE,,90638,,,
"***INACTV***REXEL (SAN DIEGO, CA)",SAN DIEGO,CA,,,psherman@rexelusa.com,858/636-4400,858-576-7318,7380 CONVOY CT.,,92111,,,
***INACTV***RHINO ELECTRIC SUPPLY,HUNTINGTON BEACH,CA,MIKE,,17143796658@myfax.com,714-379-6653,714-379-6658,"5482 COMMERCIAL SUPPLY, INC.",,92649,,TERMS: COD,
***INACTV***RICK'S ELECTRIC INC.,SAN DIEGO,CA,JONATHAN SWANSON,,,6192716990,6192716995,7560 TRADE STREET,,92121,,,
***INACTV***RNC CAPITAL MANAGEMENT,LOS ANGELES,CA,NEAL S. SALISIAN,,,310-477-6543,310-479-6406,11601 WILSHIRE BLVD.,PENTHOUSE FLOOR,90025,,,
***INACTV***ROYAL WHOLESALE (CHATSWORTH),CHASTSWORTH,CA,DAN MAPLES,,lpalomares@royalchatsworth.com,818-988-3365,818-988-2573,9700 TOPANGA CANYON BLVD,,91311,USA,,
***INACTV***ROYAL WHOLESALE (SANTA ANA),SANTA ANA,CA,DON CODY,,jdopson@royalsantaana.com,714-835-6211,714-972-2366,1500 S. RITCHEY STREET,,92705,,,
***INACTV***ROYAL WHOLESALE (VALENCIA),VALENCIA,CA,DAN MAPLES,,oaguilar@royalvalencia.com,661-257-0903,661-257-7768,27520 AVENUE HOPKINS,UNIT #A,91355,,,
***INACTV***SAN DIEGO LAMPS & ETC.,SAN DIEGO,CA,,,,619/297-8461,619/297-8461,P.O. BOX 83357,,92138-3357,,,
***INACTV***SAN DIEGO LIGHT BULB,SAN DIEGO,CA,,,,,,1655 -A MORENA BLVD,,92110,,,
***INACTV***SAN DIEGO LIGHT BULB,SAN DIEGO,CA,BRIAN WELLS,,,619-276-1500,619-276-7125,PO BOX 711720,,92171-1720,,,
"***INACTV***SAVEMORE WHOLESALE ELEC,INC.",HAWTHORNE,CA,,,,,,12705 S. VAN NESS AVE,,90250,,,www.savewholesale.com
"***INACTV***SAVEMORE WHOLESALE ELEC,INC.",LOS ANGELES,CA,ANDY CONSTREAS,,,323.256.9995,323.256.9922,"3421 SAN FERNANDO RD., SUITE A",,90065,,,www.savewholesale.com
***INACTV***SECOND SUN LIGHTING,CULVER CITY,CA,LAWRENCE ELKIND,,,310-559-4058,310-559-1206,3947 LANDMARK STREET,,90232,,,
***INACTV***SHAI LIGHTING,CANOGA PARK,CA,SHAI COHEN,,,818/713-1111,818/713-1121,"7508 DEERING AVE., UNIT #A",,91304,,,
***INACTV***SILVER BULLET LIGHTING,EL SEGUNDO,CA,CHARLES SHABY,,,310-322-3884,310-335-0101,234 EUCALYPTUS DRIVE,,90245,,,
***INACTV***SOUTHERN CALIFORNIA ELECTRIC,LOS ANGELES,CA,BEN REFALIAN,,13239390330@myfax.com,323-939-9900,323-939-0330,5512-18 W PICO BOULEVARD,,90019,,,
***INACTV***SOUTHWEST ELECTRICAL SUPPLY,GLENDALE,CA,ARGAT,,,818-507-0423,818-246-9358,6330 SAN FERNANDO ROAD,,91201,,,
***INACTV***STAR LIGHT CONSULTING &SALES,TARZANA,CA,RICHARD LEVINSON,,starlightconsulting@att.net,818-342-6464,818-342-3070,4519 AZALIA DRIVE,,91356,,,
***INACTV***STAR LIGHTING,GLENDALE,CA,,,,818/244-1467,818/244-1905,715 S. BRAND BLVD.,,91204,,,
***INACTV***SUNNYMEAD ELECTRICAL SUPPLY,MORENO VALLEY,CA,ROUL DELGADO (OWNER),BRENT SHARICK,19092437483@myfax.com,(909) 924-3744,(909) 243-7483,24340 SUNNYMEAD BLVD.,,92553,,,
***INACTV***SUNSTAR BLDG SERVICES,LAGUNA HILLS,CA,GLENN,,,800-634-0375,949-707-5497,23192 ALCALDE,SUITE J,92653,,,
***INACTV***TC ELECTRIC & MKT EQUIPMENT,EL MONTE,CA,THINH VAN CHE (OWNER),,tcelectric@ymail.com,(626) 255-7977,,12224 GARVEY AVE.,,91732,,,no website
***INACTV***THE BRYAN CO'S,IRVINE,CA,BILL BRYAN,,,7148571254,,112 ORCHARD,,92720,,TERMS: COD,
***INACTV***THE NEWMAN CORPORATION,LOS ANGELES,CA,IVAN NEWMAN,,,NOT ON FILE,,3232 SELBY AVENUE,,90034,,TERMS: COD,
***INACTV***THE POWER AND LIGHT CO.,RANCHO MIRAGE,CA,JOHN CUMMINGS,,,760-770-3196,760-770-3196,71-087 FAIRWAY DRIVE,,92270,,TERMS: COD,
***INACTV***TOP VALUE WHOLESALE ELEC.,SAN GABRIEL,CA,,,,626-291-5075,626-291-5586,424 S SAN GABRIEL BLVD,,91776,,,
***INACTV***UNITED ELECTRIC,CITY OF INDUSTRY,CA,,,,,,1364 MARION COURT,,91745,,,
***INACTV***UNITED ELECTRIC,CHINO,CA,BILL ALLEY,,,909.393.4700,909.393.4701,15497 DUPOINT AVE,,91710,,,
***INACTV***VALLEY INDUSTRIAL ELECTRIC,CANOGA PARK,CA,DENNIS STEVENS,,,818-348-3430,818-348-0135,7707 DEERING AVENUE,,91304,,,
***INACTV***WALTERS WHOLESALE(ALHAMBRA),LOS ANGELES,CA,,,,,,5151 STATE UNIVERSITY DRIVE,RECEIVING DEPT.,90032-8521,USA,BRANCH CLOSED,www.walterswholesale.com
***INACTV***WALTERS WHOLESALE(ALHAMBRA),ALHAMBRA,CA,HAROLD WELLS,,,626.289.6142,626.289.4670,1509 WEST VALLEY BLVD.,,91803,,BRANCH CLOSED,www.walterswholesale.com
***INACTV***WALTERS WHOLESALE(LA PALMA),LA PALMA,CA,,,,562-949-0215,562-949-4396,5600 FRESCA DRIVE,,90623,,BRANCH CLOSED,www.walterswholesale.com
***INACTV***WESCO (COMPTON),COMPTON,CA,,,,310/763-0007,310/763-5820,801 WEST WALNUT ST.,,90220,,,
***INACTV***WESCO (COMPTON),HAWTHORNE,CA,,,,,,12705 S. VAN NESS AVENUE,,90250,,,
***INACTV***WESCO (PALM SPRINGS),PALM SPRINGS,CA,KIRK,,,760.322.3001,760.322.9078,77588 EL DUNA COURT,SUITE A,92262,,,
***INACTV***WESCO (SANTA CLARA),SAN BERNARDINO,CA,JACK KLEPPE,,,,909.381.5043,720 COLLEGE DRIVE,,92410,,,
***INACTV***WESTERN ILLUMINATED PLASTICS,WESTMINSTER,CA,CHARLIE CROMDVOETS,,sandra@westernplastics.com,714-895-3067,714-892-1831,14451 EDWARDS STREET,,92683,,,
***INACTV***ZION ELECTRIC SUPPLY,NORTH HOLLYWOOD,CA,ANIBAL BARRIOS,,,818-985-8300,818-985-5369,10921 BURBANK BLVD.,,91601,,TERMS: PPC,
***INACTV**CA ELEC. SUPPLY (CHULA VISTA),CHULA VISTA,CA,BILL FISHBACK,,16194275416@myfax.com,619-427-2370,619-427-5416,1011 BAY BLVD.,,91911,,,
*COLL - COAST TO COAST METAL FINISHING,ALHAMBRA,CA,Gil Bernal,,16262824032@myfax.com,626.282.2122,626.282.4032,401 SOUTH RAYMOND AVE,,91803,,Into collection - 3/18/2009,
AC WHOLESALE ELECTRIC CO.,CULVER CITY,CA,STEVE SHAMORHANDI,,sales@acwelectric.com,310.390.7777,310.390.7447,11911 WASHINGTON BLVD.,,90066,,,
ALL-PHASE ELECTRIC (BURBANK),BURBANK,CA,ED CARNEY    BOB EMERSON,AP CUSTOMERSERVICE@ALL-PHASEBURBANK.COM,bgravel@all-phaseburbank.com,818-843-4111,818-843-3448,2101 EMPIRE AVENUE,,91504,,wwww.all-phase.com,
"ALLSALE ELECTRIC, INC.",CANOGA PARK,CA,LORRAINE CISNEROS,,,818.715.0181,818.593.5362,7950 DEERING AVE.,,91304,,,
"AMERICAN ELECTRIC SUPPLY, INC. (CA)",CORONA,CA,LINDA A/P,,fmartinez@amelect.com,951-734-7910,951-737-9906,1872 WEST POMONA ROAD,,92880-1778,,NEED APPROVAL B4 YOU CHARGE CC,www.amelect.com
"ATR LIGHTING ENTERPRISES, INC.",FOUNTAIN VALLEY,CA,MITCH HAMMOND (BRANCH MANAGER),,,(800) 624-4568,(800) 747-0999,17308 MT WAYNE CIRCLE,,92708,,,www.atrlighting.com
CALIFORNIA ELECTRIC SUPPLY (LONG BEACH),SIGNAL HILL,CA,JOHN DARMANIAN,SAM -AP,SAM@CESLB.COM,562-426-3311,562-427-9678,2400 NORTH PALM DRIVE,,90755,,,
CALIFORNIA ELECTRIC SUPPLY (SAN DIEGO),SAN DIEGO,CA,STEVE MONIS,,16195716257@myfax.com,619-268-1020,619-571-6257,5457 RUFFIN RD.,,92123,,# IS DISCONNECTED,
CALIFORNIA ELECTRIC SUPPLY (LONG BEACH),HAWTHORNE,CA,,,,,,WILL CALL,12705 S. VAN NESS AVENUE,90250,,,
CAPISTRANO LIGHTING,SAN CLEMENTE,CA,MR. CHRISTIANSEN,,ltgbycapo@aol.com,949-498-6709,949-498-2757,58 FINCA,,92672,,,
CAPITAL WHOLESALE LIGHTING,CULVER CITY,CA,LOUIS ROMERO,BOB SINAI,d_nycman@yahoo.com,323-937-4444,323-937-7929,5812 WEST WASHINGTON BLVD.,,90232,,DO NOT RELEASE ANY ORDERS!!,
CED (LAGUNA NIGUEL),LAGUNA NIGUEL,CA,DAN MORTIMER (SALES REP),KURT JOHNSON,19495823470@myfax.com,949.582.9500,949.582.3470,27931 CABOT RD,,92677,,,www.cedlaguna.com
CED (ONTARIO),SAN BERNARDINO,CA,,,,,,580 EAST MILL STREET,,92408,,,
CED (ONTARIO),ONTARIO,CA,LORI LOMBARDO,,bmullen@cedont.com,909.983.2654,909.983.2582,1241 W. BROOKS ST.,,91762,,,
CED (ORANGE),ORANGE,CA,MIKE,,17146330584@myfax.com,714-633-3801,714-633-0584,560-B MAIN STREET,,92868,,,
CED (PALM DESERT),PALM DESERT,CA,ROGER SMTIH,,dena@cedpalmdesert.com,760.568.6869,760.568.3199,"74-856 JONI DR., UNIT C",,92260,,,
CED (ONTARIO),PASADENA,CA,,,,626-793-1158,626-449-8542,2180-B EAST WALNUT STREET,,91107,,,
CED (TEMECULA),TEMECULA,CA,RUSS JOHNSON (BRANCH MANAGER),RICK FIDERO,19512969563@myfax.com,951.296.9555,951.296.9563,"41979 RIO NEDO., SUITE C",,92590,,,
CED NORTH HOLLYWOOD,NORTH HOLLYWOOD,CA,CINDY GOTTLIEB,KELLI ROBERTS,kelli@cedsld.com,800-548-7533,818.980.7215,6930 TUJUNGA AVE.,,91605,,DBA: SPECIALTY LIGHTING,www.specialtylight.net
CERTIFIED WHSLE ELECTRIC,GLENDALE,CA,MIKE MANSFIELD,ALLEN SMITH,13232452515@myfax.com,323-245-7783,323-245-2515,3653 SAN FERNANDO ROAD,,91204,,ELISA@CERTIFIEDWHOLESALEELECT,RIC.COM
CITY WHOLESALE ELECTRIC CO.,PASADENA,CA,MARK S. BRENNAN,,markics@earthlink.net,626-795-9171,626-795-5527,2573 E. FOOTHILL BLVD.,,91107,,,
COMMERCIAL LIGHTING INDUSTRIES,INDIO,CA,MARSHALL MALLORY,RACHEL HILL AP,purchasing@commercial-lighting.net,(800) 755-0155,760.262.3940,81161 INDIO BLVD,,92201,USA,10/23 EMAIL TOO LONG,
"CRENSHAW WHOLESALE ELECTRIC SUPPLY, INC.",GARDENA,CA,JAY (SHAHRIAR) JAHANFARD,CRENSHAWWHOLESALE@YAHOO.COM,crenshaw2626@yahoo.com,310-676-5555,310-464-8958,13441 SOUTH WESTERN AVE.,,90249,,,no website
CS ILLUMINATION,VISTA,CA,SCOTT KING,CAROL BROWN      MIKE FOREST-A/P,1760 477-1245@myfax.com,(760) 477-1244,(760) 477-1245,2865 SCOTTS,SUITE 101,92081,,,
"DDC ELECTRIC SUPPLY, INC.",SOUTH EL MONTE,CA,DAVID CHEE (OWNER),VICTOR CHEE (AP),,(626) 579-5000,(626) 589-4000,2328 N. ROSEMEAD BLVD.,,91733,,,
DESERT ELECTRIC SUPPLY,PALM DESERT,CA,PAMELA FOLTZ,TERRY PISTOLE,poconfirmation@desertelectric.com,760-568-5991,760-568-6876,P.O. BOX 13190,,92255-3190,USA,,www.desertelectric.com
DESERT ELECTRIC SUPPLY,PALM DESERT,CA,,,,760-568-5991,760-568-6876,74-875 VELIE WAY,,92260,,,www.desertelectric.com
DESERT ELECTRIC SUPPLY,PALM SPRINGS,CA,,,,,,4605 E. SUNNY DUNES ROAD,,92264,,,www.desertelectric.com
"DISCOUNT LIGHT DEPOT, INC.",LAGUNA HILLS,CA,KATHIE,SCOTT,19498296947@myfax.com,(949) 770-9677,(949) 829-6947,"23011 MOULTON PKWY., SUITE G 10",,92653,,,www.discountlightdepot.com
DISCOUNT LIGHTING CO (VAN NUYS),CHATSWORTH,CA,JAMES BIRKHEAD,KATHY RAMOS,discountlighting@bizla.rr.com,818.775.9785,818.775.9786,9555 OWENSMOUTN AVE #14,,91311,,,
FLEET SYSTEMS,SAN DIEGO,CA,DARRYL COTTON (OWNER),CINDY JACKSON,kimberlee@fleetsystems.net,619-266-2362,619-723-9319,6176 FEDERAL BLVD,,92114,,PARENT CO: DALBERCIA INC.,www.fleetsystems.net
FOURSTAR LIGHTING,CHATSWORTH,CA,MIKE GOLDSTEIN,,fourstarlighting@sbcglobal.net,818.772.5682,818.772.5683,"9810 OWENSMOUTH AVE., #7",,91311,,,
GEXPRO (NSD),DOWNEY,CA,,,,,,7475 FLORES AVENUE,ATTN: WAREHOUSE @ 562-940-4000,90242,,,
GEXPRO (NSD),PALM DESERT,CA,KEITH,,,760-280-0519,,"78025 WILDCAT DRIVE, SUITE C",,92211,,,
"GLOBAL INDUSTRIAL SUPPLY,INC.",LOS ANGLES,CA,CHRIS WALKER,BEN WALKER A/P     ext 250,,800-301-2268,626-389-8663,3247 N. SAN FERNANDO ROAD,,90065,USA,12/23 UP DATE ACCOUNT INFO,WWW.WEAREGIS.COM
"GRAYBAR ELECTRIC CO,INC. C/O PROTIVITI",ANAHEIM,CA,,,,,,1640 SOUTH SINCLAIR STREET,,92806,,SEE TERI FOR INVOICES QUESTION,www.graybar.com (mail inv only
"GRAYBAR ELECTRIC CO,INC. C/O PROTIVITI",CITY OF INDUSTRY,CA,,,,,,383 SOUTH CHERYL LANE,,91789,,SEE TERI FOR INVOICES QUESTION,www.graybar.com (mail inv only
"GRAYBAR ELECTRIC CO,INC. C/O PROTIVITI",LOS ANGELES,CA,,,,,,1460 EAST 4TH STREET,,90033,U.S.A.,SEE TERI FOR INVOICES QUESTION,www.graybar.com (mail inv only
"GRAYBAR ELECTRIC CO,INC. C/O PROTIVITI",SAN BERNARDINO,CA,,,,,,"655 SOUTH ""H"" STREET",,92410,,SEE TERI FOR INVOICES QUESTION,www.graybar.com (mail inv only
"GRAYBAR ELECTRIC CO,INC. C/O PROTIVITI",SAN DIEGO,CA,,,,858-578-8606,858-271-7022,8606 MIRALANI DR.,,92126,,SEE TERI FOR INVOICES QUESTION,www.graybar.com (mail inv only
"GRAYBAR ELECTRIC CO,INC. C/O PROTIVITI",SAN DIEGO,CA,,,,,,NAS NORTH ISLAND BLDG. #825 BAY #6,,92135,,SEE TERI FOR INVOICES QUESTION,www.graybar.com (mail inv only
"GRAYBAR ELECTRIC CO,INC. C/O PROTIVITI",SAN DIEGO,CA,,,,,,"32ND ST NAVAL STATION, BLDG 3229",,92136,,SEE TERI FOR INVOICES QUESTION,www.graybar.com (mail inv only
"GRAYBAR ELECTRIC CO,INC. C/O PROTIVITI",VAN NUYS,CA,,,,818-779-4820,818-782-4014,16301 RAYMER ST,,91406,,SEE TERI FOR INVOICES QUESTION,www.graybar.com (mail inv only
"GRAYBAR ELECTRIC CO,INC. C/O PROTIVITI",WALNUT,CA,,,,,,383 SOUTH CHERYL LANE,,91789,,SEE TERI FOR INVOICES QUESTION,www.graybar.com (mail inv only
"GRAYBAR ELECTRIC CO,INC. C/O PROTIVITI",HAWTHORNE,CA,,,,,,12705 S. VAN NESS AVENUE,,90250,,SEE TERI FOR INVOICES QUESTION,www.graybar.com (mail inv only
IMPERIAL LIGHTING WHOLESALE,LOS ANGELES,CA,SEAN,,,,,1042 SOUTH GRAND AVE,,90054,,,
IMPERIAL LIGHTING WHOLESALE,CULVER CITY,CA,HECTOR RODRIGUEZ,DANIEL RAFALIAN,,310-836-1774,310-836-1797,5965 WEST WASHINGTON BLVD.,,90232,,,
INDEPENDENT ELECTRIC -IES- (SIGNAL HILL),HAWTHORNE,CA,,,,,,WILL CALL,12705 S. VAN NESS AVE,90755,,,www.iesupply.com
INDEPENDENT ELECTRIC -IES- (BREA),BREA,CA,JOHN PETERS,,johnp@iesupply.com,714-680-2600,714-680-4600,285 GEMINI AVE,,92821,,,www.iesupply.com
INDEPENDENT ELECTRIC -IES- (N.HOLLYWOOD),NORTH HOLLYWOOD,CA,MARCUS BANNERMAN,,alfredo.estrada@iesupply.com,818-759-1080,818-759-1076,12222 SHERMAN WAY,,91605,,,www.iesupply.com
INDEPENDENT ELECTRIC -IES- (RIVERSIDE),RIVERSIDE,CA,LORE GAMEZ,,lore.gamez@iesupply.com,(951) 735-9600,,4107 INDUS WAY,,92503-4848,,,www.iesupply.com
INDEPENDENT ELECTRIC -IES- (SIGNAL HILL),SIGNAL HILL,CA,JOHN PETERS,,john.peters@iesupply.com,(562) 595-8321,(562) 595-4623,2501 ORANGE AVE.,,90755,,,www.iesupply.com
INDEPENDENT ELECTRIC -IES- (WESTMINSTER),WEST MINSTER,CA,MIKE MCCOY,DAVID EVANS,mikemc@iesupply.com,(714) 373-3950,(714) 373-3955,15192 GOLDENWEST CIRCLE,,92683,,dba: LGE Electical Sales,www.iesupply.com
INGLEWOOD WHOLESALE ELEC.,INGLEWOOD,CA,BILL AQUINO,,,310-673-4400,310-677-8874,923 SOUTH PRAIRIE AVENUE,,90301,,,
INTERLINE BRANDS,SAN BERNARDINO,CA,,,,(858) 292-2595,(856) 505-1962,1110 E. MILL STREET,,92408,,,www.interlinebrands.com
KEARNY ELECTRIC SUPPLY,SAN DIEGO,CA,DAVE FOSS,,danielholoand@kearnyelectric.com,858.277.4223,858.277.4299,7980 RONSON RD,,92111,,10/23 UP DATE ACCOUNT,
KNS ELECTRIC SUPPLY,LOS ANGELES,CA,ENG HO LEE-KRISS KANG,CINDY AP,knselectric@sbcglobal.net,213.748.7979,213.748.6458,1385 W. WASHINGTON BLVD.,,90007,,MAILED OUT INVOICES,
LIGHT BULBS & MORE,LOS ANGELES,CA,SAM ADIBI,,lightbulbs4u@gmail.com,(310) 826-0603,(310) 826-0750,12234 SANTA MONICA BLVD.,,90025,,,
LIGHT SOURCE,THOUSAND PALMS,CA,SHERI PREISS,,randy@light-source.com,760-343-4700,760-343-4720,30690 HILL STREET,,92276,,,www.light-source.com
LIGHTWORKS,ANAHEIM,CA,MARY,,,714-630-4480,714-630-4488,3911 EAST LA PALMA AVE,SUITE #G,92807,,,
MAIN ELECTRIC SUPPLY CO.,IRVINE,CA,MANNY GARIBAY (BRANCH MANAGER),KEN MALOUF (PURCHASING MANAGER),,(949) 833-3052,(949) 833-6928,16781 NOYES AVE.,,92606,,CORP. HQ,www.mainelectricsupply.com
MAIN ELECTRIC SUPPLY CO.,RANCHO CUCAMONGA,CA,MAURICE OROZCO (BRANCH MANAGER),,bpoker@mainelectricsupply.com,(909) 581-7000,(909) 581-7050,9409 CHARLES SMITH AVE,,91730,,CORP. HQ,www.mainelectricsupply.com
MAIN ELECTRIC SUPPLY CO.,SAN DIEGO,CA,JOHN BERUMEN (BRANCH MANAGER),DARRYL DALRYMPLE (BRANCH SALES MANAGER),ddalrymple@mainelectricsupply.com,(858) 737-7000,(858) 737-7050,9540 CHESAPEAKE DRIVE,,92123,,CORP. HQ,www.mainelectricsupply.com
MAIN ELECTRIC SUPPLY CO.,CHATSWORTH,CA,BRIAN RIVAS (BRANCH MANAGER),,brivas@mainelectricsupply.com,(818) 534-2900,(818) 534-2950,20931 NORDHOFF STREET,,91311,,CORP. HQ,www.mainelectricsupply.com
MAIN ELECTRIC SUPPLY CO.,LOS ANGELES,CA,SCOTT GERMANN (PRESIDENT & CEO),"KENNETH MCCORD, CPA (CFO)",kmalouf@mainelectricsupply.com,(323) 753-5131,(323) 753-7750,6700 SOUTH MAIN STREET,,90003,,CORP. HQ,www.mainelectricsupply.com
MONTEREY LIGHTING,BUENA PARK,CA,RICHARD NEWMAN,,,714.562.9350,714.562.9360,6970 ARAGON CIRCLE #1,,90620,,changed per jk 01/20/04,
PACIFIC COAST LIGHTING,REDLANDS,CA,,,,,,9425 CALIFORNIA STREET,,92374,,,
PRO PARTS HVAC & INDUSTRIAL SUPPLY,EL CENTRO,CA,CARLO PLASCENCIA,,protaxss@prodigy.net.mx,760-425-8690,,1400 N. IMPERIAL AVENUE,SUITE 96,92243,,,
"QUALY ELECTRIC SUPPLY, INC.",EL MONTE,CA,C.K. TANG,,,626-575-9318,626-575-9322,10160 VALLEY BLVD,,91731,,,
"RESCO ELECTRIC, INC.",LOS ANGELES,CA,KEVIN YANG,,1323.735.7279@myfax.com,323.735.5958,323.735.7279,"2431 W. WASHINGTON BLVD., #B",,90018,,,www.resco.ws
REXEL (ADDISON),IRVINE,CA,,,,,,2 MORGAN STREET,,92618,,,
REXEL (ADDISON),EL CENTRO,CA,P SHERMAN,,,760-352-4941,,150 EAST ROSS STREET,,92243,,,
REXEL (RANCHO CUCAMONGA),RANCHO CUCAMONGA,CA,DARRYL,,,909-945-5313,,10256 6TH STREET,,91730,,,
REXEL (VICTORVILLE),VICTORVILLE,CA,,,,,,15372 BONANZA RD.,,92392,,,
ROYAL WHOLESALE (CARSON),CARSON,CA,BRAD JENNINGS,,rvalencia@royalcarson.com,310-637-6377,310-632-4581,2801 EAST 208TH STREET,,90810,,,
ROYAL WHOLESALE (RANCHO CUCAMONGA),RANCHO CUCAMONGA,CA,DAVID LAVINE,,cfoutz@royalcucamonga.com,909-944-6899,909-944-0727,10096 6TH STREET,UNIT B,91730,,,
ROYAL WHOLESALE (RIVERSIDE),RIVERSIDE,CA,TOM THUERBACH,,eckarda@royalriv.com,909-683-6625,909-787-9883,3200 RUSSELL STREET,,92501,,,
ROYAL WHOLESALE (RIVERSIDE),VAN NUYS,CA,,,,818-988-3365,818-988-2573,16238 RAYMER STREET,,91406,,,
ROYAL WHOLESALE (VERNON),VERNON,CA,RANDY EDDY,,13235851146@myfax.com,323-587-4201,323-585-1146,4309 DISTRICT BLVD.,,90058,,,
ROYAL WHOLESALE (VERNON),HAWTHORNE,CA,,,,,,12705 SOUTH VAN NESS AVENUE,,90250,,,
ROYAL WHOLESALE (RANCHO CUCAMONGA),HAWTHORNE,CA,,,,,,WILL CALL,12705 S. VAN NESS AVE,90250,,,
"RTM LIGHTING & ELECTRONICS, INC.",VISTA,CA,RON MORESE (OWNER),,ron@rtmlighting.com,760-630-3426,760-630-6659,1236 KEYSTONE WAY,,92081,,,www.rtmlighting.com
SANTA MONICA WHOLESALE,SANTA MONICA,CA,MAZIAR RASHIDI,KEVIN RASHIDI,cbsmw2008@yahoo.com,310.829.3888,310.829.3887,1631 COLORADO AVE.,,90404,,,www.santamonicalighting.com
SANTA MONICA WHOLESALE,,,,,,,,will call,,,,,www.santamonicalighting.com
SPECIALTY ELECTRIC / CED (SANTA ANA),SANTA ANA,CA,STEVE MONIS,LAURA (AP)  LCORDOBA@CEDCERRITOS.COM,todd@cedcerritos.com,(562) 926-7202,(562) 926-4113,241 E. STEVENS AVE.,,92707,,dba: SPECIALTY ELECTRIC,FORMERLY CED CERRITOS
SPECIALTY LAMPS,CARSON,CA,,,,1-800-354-2852,,"24418 S. MAIN STREET, SUITE 405",,90745,USA,www.specialty-lamp.com,www.ebulb.net
TERMINAL HARDWARE CO INC,LOS ANGELES,CA,JIM,SANDRA AGUIRRE (AP),braulio@terminalhardware.com,213-624-4078,213-624-8667,824 EAST 8TH STREET,,90021-1039,,,
TRI-SUPPLY INC,EL CAJON,CA,JEFF BLAEMER,LINDA (AP),trisupply@sbcglobal.net,619.442.9621,619.442.8493,1280 EAST MAIN STREET,,92021,,,
"TW HVAC SUPPLY, INC.",ROSEMEAD,CA,JAVIER MESA,,twsupply@earthlink.net,626.288.9983,626.288.7856,3318 SAN GABRIEL BLVD.,,91770,,,twsupply@earthlink.net
WALTERS WHOLESALE (ANAHEIM),ANAHEIM,CA,,,,,,1050 N. KRAEMER PLACE,,92806,,,www.walterswholesale.com
WALTERS WHOLESALE (ANAHEIM),SIGNAL HILL,CA,SKIP SETZFANT,JIM RESKEY,liz.lara@walterswholesale.com,714-630-7321,714-630-3284,2825 TEMPLE AVENUE,,90755,,,www.walterswholesale.com
WALTERS WHOLESALE (COMPTON),SIGNAL HILL,CA,GENE GRABAST,,,(310) 638-0484,(310) 638-5240,2825 TEMPLE AVENUE,,90755,,,www.walterswholesale.com
WALTERS WHOLESALE (FULLERTON),SIGNAL HILL,CA,DAVE FROMMELT,,,714.992.5330,714-992-2891,2825 TEMPLE AVENUE,,90755,,,www.walterswholesale.com
WALTERS WHOLESALE (SAN DIMAS),SIGNAL HILL,CA,TOM ENOCHS,,,909.450.0840,909.450.0845,2825 TEMPLE AVENUE,,90755,,,www.walterswholesale.com
WALTERS WHOLESALE (CDC-BREA),BREA,CA,,,,,,200 N. BERRY STREET,CENTRAL DISTRIBUTION CENTER,92821,,CENTRAL DISTRIBUTION CENTER,www.walterswholesale.com
WALTERS WHOLESALE (CDC-BREA),SIGNAL HILL,CA,WILFREDO MULLINGS,,bruce.flint@walterswholesale.com,714.784.1900,310-325-0989,2825 TEMPLE AVENUE,,90755,,CENTRAL DISTRIBUTION CENTER,www.walterswholesale.com
WALTERS WHOLESALE (CERRITOS),CERRITOS,CA,,,,,,17120 EDWARDS ROAD,,90701,,,www.walterswholesale.com
WALTERS WHOLESALE (CERRITOS),SIGNAL HILL,CA,GAREN JAHN,RONALD EASTMAN,,562-404-7710,562-926-0104,2825 TEMPLE AVENUE,,90755,,,www.walterswholesale.com
WALTERS WHOLESALE (COMPTON),COMPTON,CA,,,,,,18626 SASANA ROAD,,90211,,,www.walterswholesale.com
WALTERS WHOLESALE (CORONA),CORONA,CA,,,1951 271-8205@myfax.com,(951) 271-8200,(951) 271-8205,255 DEININGER CIRCLE,,92880,,,www.walterswholesale.com
WALTERS WHOLESALE (CORPORATE),SIGNAL HILL,CA,BILL DURKEE,JOHN,,562-988-3100,562-988.0858,2825 TEMPLE AVENUE,,90755,,,www.walterswholesale.com
WALTERS WHOLESALE (COSTA MESA),COSTA MESA,CA,,,,,,3037 ENTERPRISE STREET,,92626,,,www.walterswholesale.com
WALTERS WHOLESALE (COSTA MESA),SIGNAL HILL,CA,ANDY SALZ,PATRICK PARKS,1714-545-6424@myfax.com,714-545-2022,714-545-6424,2825 TEMPLE AVENUE,,90755,,,www.walterswholesale.com
WALTERS WHOLESALE (CULVER CITY),CULVER CITY,CA,,,1310 904-6305@myfax.com,(310) 904-6300,(310) 904-6305,3960 LANDMARK STREET,,90232,,,www.walterswholesale.com
WALTERS WHOLESALE (FULLERTON),FULLERTON,CA,,,,,,4010 NORTH PALM STREET,,92835,,,www.walterswholesale.com
WALTERS WHOLESALE (LAKE FOREST),LAKE FOREST,CA,,,,,,22552 SHANNON CIRCLE,,92630,,,www.walterswholesale.com
WALTERS WHOLESALE (LAKE FOREST),SIGNAL HILL,CA,CHRIS PETERS (BRANCH MANAGER),,1949.768.3412@myfax.com,(949) 768-1275,(949) 768-3412,2825 TEMPLE AVENUE,,90755,,,www.walterswholesale.com
WALTERS WHOLESALE (LAX),LOS ANGELES,CA,,,,,,11305 S. HINDRY AVENUE,,90045,,,www.walterswholesale.com
WALTERS WHOLESALE (LAX),SIGNAL HILL,CA,LEE KORNEGAY,DENNIS NICKLES,,310.342.5730,310.342.5740,2825 TEMPLE AVENUE,,90755,,,www.walterswholesale.com
WALTERS WHOLESALE (LONG BEACH),LONG BEACH,CA,,,,,,1619 W. 15TH STREET,,90813,,,www.walterswholesale.com
WALTERS WHOLESALE (LONG BEACH),SIGNAL HILL,CA,VAN VAN DOREN,ROBIN SAN JOSE,,562-436-2452,562-436-2749,2825 TEMPLE AVENUE,,90755,,,www.walterswholesale.com
WALTERS WHOLESALE (LONG BEACH),HAWTHORNE,CA,,,,,,12705 S VAN NESS AVENUE,,90250,,,www.walterswholesale.com
WALTERS WHOLESALE (PASADENA),PASADENA,CA,,,,,,2750 NINA STREET,,91107,,,www.walterswholesale.com
WALTERS WHOLESALE (PASADENA),SIGNAL HILL,CA,BILL BROCK,LIZ LARA A/P,1626.289.4670@myfax.com,626.289.6142,626.289.4670,2825 TEMPLE AVENUE,,90755,,,www.walterswholesale.com
WALTERS WHOLESALE (RANCHO CUCAMONGA),RANCHO CUCAMONGA,CA,,,,909-989-7058,909-989-2858,10864 EDISON COURT,,91730,,,www.walterswholesale.com
WALTERS WHOLESALE (RANCHO CUCAMONGA),SITNAL HILL,CA,COOKIE CHAGOLLA,REFUGIO CHAGOLLA,1909-989-2858@myfax.com,909-989-7058,909-989-2858,2825 TEMPLE AVENUE,,90755,,,www.walterswholesale.com
WALTERS WHOLESALE (RIVERSIDE),RIVERSIDE,CA,,,,,,1880 SPRUEC STREET,,92507,,,www.walterswholesale.com
WALTERS WHOLESALE (RIVERSIDE),SIGNAL HILL,CA,BOB HICKS,AP 562-988-3100 LIZ X5025,,951.680.0210,951.680.1646,2825 TEMPLE AVENUE,,90755,,,www.walterswholesale.com
WALTERS WHOLESALE (SAN DIEGO),SAN DIEGO,CA,DUANE SPRING (BRANCH MANAGER),,1858.437.5710@myfax.com,858.437.5700,858.437.5710,10031 OLD GOVE ROAD,,92131,,,www.walterswholesale.com
WALTERS WHOLESALE (SAN DIMAS),SAN DIMAS,CA,,,,,,357 EAST ARROW HIGHWAY,,91773,,,www.walterswholesale.com
WALTERS WHOLESALE (SANTA ANA),SANTA ANA,CA,,,,,,1510 RITCHEY STREET,,92705,,,www.walterswholesale.com
WALTERS WHOLESALE (SANTA ANA),SIGNAL HILL,CA,PHIL BRADLEY,Accounting Fax,,714.541.2253,714.541.0430,2825 TEMPLE AVENUE,,90755,,,www.walterswholesale.com
WALTERS WHOLESALE (SANTA FE SPRINGS),SANTA FE SPRINGS,CA,,,,,,11911 HAMDEN PLACE,,90670,,,www.walterswholesale.com
WALTERS WHOLESALE (SANTA FE SPRINGS),SIGNAL HILL,CA,BRIAN GULEY,,,562-949-0215,562-949-4396,2825 TEMPLE AVENUE,,90755,,,www.walterswholesale.com
WALTERS WHOLESALE (SUN VALLEY),SIGNAL HILL,CA,KEVIN COX,GARY HENDLEY,1818.351.9105@myfax.com,818.351.9100,818.351.9105,2825 TEMPLE AVENUE,,90755,,,www.walterswholesale.com
WALTERS WHOLESALE (SUN VALLEY),SUN VALLEY,CA,,,,,,11684 TUXFORD STREET,,91352,,,www.walterswholesale.com
WALTERS WHOLESALE (TORRANCE),SIGNAL HILL,CA,BRUCE FLINT,LIZ,bruce.flint@walterswholesale.com,310-325-5077,310-325-0989,2825 TEMPLE AVENUE,,90755,,,www.walterswholesale.com
WALTERS WHOLESALE (TORRANCE),TORRANCE,CA,,,,,,22881 LOCKNESS AVENUE,,90501,,,www.walterswholesale.com
WALTERS WHOLESALE (VERNON),VERNON,CA,LUIS MORENO,,1323-214-6150@myfax.com,323-214-6100,323-214-6150,3375 EAST SLAUSON AVE,,90058,,,
WALTERS WHOLESALE (VICTORVILLE),SIGNAL HILL,CA,DON REEDER,,1760.269.3035@myfax.com,760.269.3030,760.269.3035,2825 TEMPLE AVENUE,,90755,,,www.walterswholesale.com
WALTERS WHOLESALE (VICTORVILLE),VICTORVILLE,CA,,,,,,15315 CHOLAME ROAD,,92392,,,www.walterswholesale.com
WALTERS WHOLESALE (WESTMINSTER),SIGNAL HILL,CA,TOM KIMMERLE,LIZ,,714-895-7700,714-892-3390,2825 TEMPLE AVENUE,,90755,,,www.walterswholesale.com
WALTERS WHOLESALE (WESTMINSTER),WESTMINSTER,CA,,,,,,7100 FENWICK LANE,,92683,,,www.walterswholesale.com
WESCO (ANAHEIM),ANAHEIM,CA,KELLY,TRISH (A/P),ddroke@wesco.com,714-635-9710,714-635-9925,1333 ST. COLLEGE PARKWAY,,92806,,,
WESCO (SALT LAKE CITY),SAN DIEGO,CA,,,,,,7790 CONVOY COURT,,92111,,,
WESCO (ANAHEIM),VAN NUYS,CA,,,,(818) 787-3693,(818) 787-4786,16159 STAGG STREET,,91406,,,
WESTERN ELECTRIC SUPPLY CO.,WEST LOS ANGELES,CA,SOL KAHEN,YLVA- A/P,westernesc@aol.com,310-445-1200,310-445-1212,1620 COTNER AVENUE,,90025,,YLVA.WESTERNELECTRICSUPPLY@YAH,OO.COM
WESTSIDE WHOLESALE ELECTRIC & LIGHTING,LOS ANGELES,CA,LENN HIMES,,13239393986@myfax.com,323-939-7979,323-939-3986,7122 -A BEVERLY BLVD,,90036,,,
ACADEMY LAMPS,LOS ANGELES,CA,,,,310-271-1123,310-271-1318,9011 BEVERLY BLVD.,,90048,,,
"ALPHA ENERGY SOLUTION, INC.",LOS ANGELES,CA,MICHAEL CHO (OWNER),JOEY JUNG (PURCHASING),JJUNG@ALPHAESOLUTIONS.COM,(310) 516-9797,(310) 516-9797,12823 S. FIGUEROA ST.,,90061,,,www.alphaesolutions.com
AMELCO ELECTRIC,SAN DIEGO,CA,TODD HUTCHINS,,,619-232-6355,619-232-7531,2001 KETTNER BLVD.,,92101-1776,,,
AMERICAN DJ SUPPLY,LOS ANGELES,CA,,,AMERICAN@INTERLINE.NET,213-582-2650,213-582-2610,4295 CHARTER STREET,,90058,,,
ANCHOR COMMUNICATIONS,TORRANCE,CA,,,,800-262-4671,803-254-3367,913 W. 223RD STREET,,90502,,,
ANVIL ARTS,ANAHEIM,CA,,,,714-630-2870,714-666-1440,1137 NORTH FOUNTAIN WAY,,92806,,,
B & K ELECTRIC WHOLESALE (CITY OF INDUS),CITY OF INDUSTRY,CA,,,,626 965-5040,626 965-3028,PO BOX 3080,,91744,,,WWW.BK-ELECTRIC.COM
B & K ELECTRIC WHOLESALE (CORONA),CORONA,CA,,,,909 278-9911,909 278-9944,1680 COMMERCE STREET,,92880,,,WWW.BK-ELECTRIC.COM
B & K ELECTRIC WHOLESALE (DOWNEY),DOWNEY,CA,,,,562 940-9440,562 940-9449,12000 WOODRUFF AVE,,90241,,,WWW.BK-ELECTRIC.COM
B & K ELECTRIC WHOLESALE (IRWINDALE),IRWINDALE,CA,,,,626 960-3676,626 814-1692,16252 ARROW HIGHWAY,,91706,,,WWW.BK-ELECTRIC.COM
B & K ELECTRIC WHOLESALE (RANCHO CUCAMO),RANCHO CUCAMONGA,CA,,,,909 989-6608,909 989-9777,10090 EAST 4TH STREET,,91730,,,WWW.BK-ELECTRIC.COM
B & K ELECTRIC WHOLESALE (SANTA FE SPRI),SANTA FE SPRINGS,CA,,,,562 944-0336,562 944-7291,12066 CLARK STREET,,90670,,,WWW.BK-ELECTRIC.COM
B & K ELECTRIC WHOLESALE (VICTORVILLE),VICTORVILLE,CA,,,,760 243-7138,760 243-9874,"15330 CHOLAME ROAD, UNIT A",,92395,,,WWW.BK-ELECTRIC.COM
BEACON ELECTRIC SUPPLY (SAN MARCOS),SAN MARCOS,CA,,,,(760) 682-1400,(760) 682-0379,804 RANCHEROS DR.,,92069,,bought by GEXPRO/REXEL (IESCO),www.beaconelectric.com
BEST BUY LIGHTING,CORONA,CA,SANTIAGO VEGA (OWNER),,bestbuylighting@yahoo.com,(714) 448-7667,(714) 531-8033,2380 MONTEREY PENINSULAR,,92882-8638,,,
BRITEC ELECTRIC SUPPLY,CHULA VISTA,CA,FERNANDO ITURBE (SALES MANAGER),,NEMAXBRITEC@YAHOO.COM,(619) 425-1981,(619) 425-20**,3802 MAIN ST.,SUITE #7,91911,,,NO WEBSITE
CAMELOT ELECTRIC SUPPLY,LANCASTER,CA,RON THOMAS,,,805-948-4717,805-948-3523,43827 NORTH DIVISION STREET,,93535,,,
CARLEY LAMPS INC,TORRANCE,CA,,,CARLEYLMPS@AOL.COM,310-325-8474,310-534-2912,1502 WEST 228TH STREET,,90501,,,
CENTRAL WHOLESALE ELECTRICAL DISTRIBUTOR,HOLLISTER,CA,,,,408 637-1500,408 637-0281,827 INDUSTRIAL DRIVE #A,,95023,,,
CINEMILLS CORP.,BURBANK,CA,,,,818-843-4560,818-843-7834,3500 W. MAGNOLIA BLVD.,,91505,,,
COMERCIALIZADORA ELECTRONICS,SAN YSIDRO,CA,,,CEMSA@TELNOR.NET,+5266212584,525-521-3222,"2498 ROLL DRIVE, SUITE 850",,92173,,,
CONTINENTAL SALES & MARKETING,SOLANA BEACH,CA,PATRICK JENKINSON,,,,,101 NORTH ACACIA AVE #17,,92075,,,
COUGAR WORLDWIDE,PASADENA,CA,,,,626-405-0742,626-405-8818,PO BOX 90610,85 N. RAYMOND AVENUE,91109,,,
COUNTY WHOLESALE (ORANGE),ORANGE,CA,BOB CLINE,,,714-633-6440,714-633-4281,560 N. MAIN ST.,,92868,,,
DAVIS WHOLESALE ELECTRIC INC. (VALENCIA),VALENCIA,CA,,,,661 295-5788,661 295-5838,25064 ANZA DR.,,91355,,,
"DAVIS WHOLESALE ELECTRIC, INC. (CHATSWO)",CHATSWORTH,CA,,,,818 718-3030,818 718-3040,20810 LASSEN ST.,,91311,,,
DEEP SEA POWER & LIGHTS,SAN DIEGO,CA,,,,619-576-1261,619-576-0219,4819 RONSON COURT,,92111,,,
ELATION ENTERTAINMENT PRODUCTS,LOS ANGELES,CA,,,,213-582-3322,213-582-3311,4395 CHARTER STREET,,90058,,,
ELECTRICAL MAINTENANCE SERVICES,LOS ANGELES,CA,JONATHAN,,,310.842.9910,,3651 SOUTH BENTLEY AVE,,90034,,,
ENVIRONMENTAL LIGHTS,SAN DIEGO,CA,GREG THORSON (CEO),ANNE THORSON (VICE PRESIDENT),gthorson@EnvironmentalLights.com,(858) 414-5075,(707) 281-0567,11235 WEST BERNARDO COURT,SUITE 102,92064,,,WWW.ENVIROMENTALLIGHTS.COM
FEIT ELECTRIC CO,PICO RIVERA,CA,,,INFO@FEIT.COM,800-543-3348,562-908-6360,4901 GREGG ROAD,,90660,,,
GRAND FIELD QUALITY LIGHTING,ONTARIO,CA,DOLLY,,,909-390-8525,,820 ROCKEFELLER AVENUE,SUITE D,91761,,,
"ILIGHTING SOLUTIONS, INC.",GARDENA,CA,,,,310) 515-5955,310) 515-5445,14404 GRAMERCY PLACE,,90249,,,www.ilightingsolutions.net
INTERMART,SANTA MONICA,CA,CHARLES KAUFMAN,,CKAUFMAN@US.ORACLE.COM,310-450-7236,,1131 HILL STREET,,90405,,,
JP NOLAN & CO.,MAYWOOD,CA,,,,323-581-7158,323-583-1824,4027 EAST 52ND STREET,,90270-2298,,,
KENGIE INTERNATIONAL,VALENCIA,CA,ADAM LEE,,KENGIE@EARTHLINK.NET,805-254-5399,805-255-8866,24664 GOLF VIEW DRIVE,,91355,,,
LIGHT CLUB USA,CHATSWORTH,CA,BRUCE DENNIS (OWNER),,bruce@lightclubusa.com,TBD,TBD,9811 OWENSMOUTH AVE.,UNIT 1,91311,,,
MATTHEWS STUDIO EQUIPMENT,BURBANK,CA,,,,818-843-6715,213-849-1525,2405 EMPIRE AVENUE,,91504,,,
MOLE-RICHARDSON CO.,HOLLYWOOD,CA,MIKE PARKER,,,213-851-0111,213-851-5593,937 N. SYCAMORE AVENUE,,90038-2384,,,
PACIFIC PARTS & CONTROLS INC.,CHINO,CA,,,,909 465-1174,909 465-1178,6255 PRESCOTT COURT,,91710,,,
PADLAB,LOS ANGELES,CA,PENNY HERSCOVITCH,,pad@padlab.com,615.513.4063,,"612 MOULTON AVE, SUITE #1",,90031,,,www.pAdLAb.com
UPLAND LIGHTING,UPLAND,CA,JEFF HEDWALL,,,909-981-2353,,1174 WEST 9TH STREET,,91786,,,
VERTEX ELECTRICAL WHOLESALE,LONG BEACH,CA,CHUN KANG PANG (OWNER),LOK MAN CHIN (AP),VERTEXELECTRICAL@YAHOO.COM,(562) 219-3382,(562) 630-2688,6110 NORTH PARAMOUNT BLVD.,,90805,,,
W.A. BENJAMIN ELECTRIC CO,LOS ANGELES,CA,,,,213-749-7731,213-747-3904,1615 STAUTON AVENUE,,90021,,,
