Date,Client,Project,Project Code,Task,First name,Last name,Note,Hours,Invoiced,Approved,Billable
2011-01-02,DMW Communications,Internal,"",Admin,Denise,Marie,This is a dummy entry. You can edit or delete me.,0.5,no,no,billable
2011-01-01,Prudential,Test,"",Admin,Denise,Marie,"",0.02,no,no,non-billable
2011-01-01,Prudential,Go2Tools Forms,"",web work,Denise,Marie,"",2.5,no,no,billable
2011-01-02,Prudential,Go2Tools Forms,"",web work,Denise,Marie,cant get forms to work,3.0,no,no,billable
2011-01-02,Prudential,Go2Tools Forms,"",web work,Denise,Marie,"",0.01,no,no,billable
2011-01-02,Prudential,Go2Tools Forms,"",web work,Denise,Marie,"",0.51,no,no,billable
2011-01-02,Prudential,Go2Tools,"",web work,Denise,Marie,forms figuring out,1.71,no,no,billable
2011-01-02,Prudential,QR Code Postcard,"",Production,Denise,Marie,"",0.72,yes,no,billable
2011-01-02,Prudential,Go2Tools,"",web work,Denise,Marie,"",4.06,no,no,billable
2011-01-02,Prudential,Go2Tools,"",web work,Denise,Marie,dropdown menu,2.5,no,no,billable
2011-01-02,Prudential,Log January 2011,"",Schedule,Amber,Spain,"",4.51,no,no,billable
2011-01-02,Prudential,Go2Tools,"",web work,Denise,Marie,add drop down to all pages,2.99,no,no,billable
2011-01-02,Prudential,Go2Tools,"",web work,Denise,Marie,adding drop down to pages,2.25,no,no,billable
2011-01-03,Merrymanministries,Configure HTML for Thessalonian Disks,Merryman,Production,Matthew,Fitzgerald,"",2.0,no,no,billable
2011-01-03,Merrymanministries,Configure HTML for Thessalonian Disks,Merryman,ITW,Matthew,Fitzgerald,"",0.75,no,no,billable
2011-01-03,Prudential,Log January 2011,"",Production,Denise,Marie,sorting email,0.28,no,no,billable
2011-01-03,Prudential,Agent Excelerator Brochure,"",Production,Denise,Marie,changes proofing,0.1,yes,no,billable
2011-01-03,Prudential,QR Code Postcard,"",Production,Denise,Marie,"",0.25,yes,no,billable
2011-01-03,Prudential,Go2Tools,"",web work,Denise,Marie,dropdown issue,0.04,no,no,billable
2011-01-03,Prudential,QR Code Postcard,"",Production,Denise,Marie,"",0.25,yes,no,billable
2011-01-03,Prudential,Agent Excelerator Brochure,"",Production,Alison,Donato,"",0.26,yes,no,billable
2011-01-03,Prudential,QR Code Stickers,"",Production,Alison,Donato,"",0.51,yes,no,billable
2011-01-03,Prudential,PruAdmin January 2011,"",Admin,Denise,Marie,misc coordination,0.25,no,no,billable
2011-01-03,Prudential,QR Code Stickers,"",Production,Denise,Marie,check sticker,0.25,yes,no,billable
2011-01-03,Prudential,Log January 2011,"",Production,Alison,Donato,"",4.9,no,no,billable
2011-01-03,Prudential,QR Code Business Cards,"",Production,Denise,Marie,"",0.33,yes,no,billable
2011-01-03,Merrymanministries,Configure HTML for Thessalonian Disks,Merryman,Billing,Matthew,Fitzgerald,Setup Invoice for work completed,0.5,no,no,billable
2011-01-03,Prudential,Go2Tools Brochure,"",Production,Denise,Marie,"",0.46,yes,no,billable
2011-01-03,Prudential,PruAdmin January 2011,"",web work,Matthew,Fitzgerald,Test dropdown menu's on PC in IE and Firefox,0.12,no,no,billable
2011-01-03,BryceFastener,Redesign of BryceFastener.com,Bryce,web work,Matthew,Fitzgerald,Researching Forms,4.94,yes,no,billable
2011-01-03,Prudential,Go2Tools Brochure,"",Production,Denise,Marie,"",2.1,yes,no,billable
2011-01-03,Prudential,Agent Newsletters 0111,"",Production,Alison,Donato,"",2.23,yes,no,billable
2011-01-03,BryceFastener,Redesign of BryceFastener.com,Bryce,web work,Denise,Marie,forms issues,0.5,yes,no,billable
2011-01-03,Prudential,Go2Tools,"",web work,Denise,Marie,home page tweak,1.0,no,no,billable
2011-01-03,Prudential,PruAdmin January 2011,"",PruAdmin,Denise,Marie,go through emails,0.25,no,no,billable
2011-01-03,Prudential,21 Step Brochure,"",Layout/Design,Denise,Marie,"",1.5,yes,no,billable
2011-01-03,Prudential,Go2Tools,"",web work,Denise,Marie,drop down issue,0.5,no,no,billable
2011-01-03,Prudential,Go2Tools,"",web work,Denise,Marie,dropdown issue,0.48,no,no,billable
2011-01-03,Prudential,Log January 2011,"",PruAdmin,Amber,Spain,removes,0.25,no,no,billable
2011-01-03,Prudential,Log January 2011,"",Schedule,Amber,Spain,"",3.01,no,no,billable
2011-01-03,Prudential,Go2Tools,"",web work,Denise,Marie,dropdown text issue,2.25,no,no,billable
2011-01-04,Prudential,Go2Tools,"",web work,Denise,Marie,stupid drop downs again,0.5,no,no,billable
2011-01-04,Prudential,21 Step Brochure,"",Layout/Design,Denise,Marie,"",0.81,yes,no,billable
2011-01-04,Prudential,Log January 2011,"",Production,Alison,Donato,"",5.14,no,no,billable
2011-01-04,Prudential,PruAdmin January 2011,"",PruAdmin,Denise,Marie,marketing phone calls sort through emails,0.5,no,no,billable
2011-01-04,Prudential,MAggie Finks Announcement,LOG,Production,Denise,Marie,"",1.01,no,no,billable
2011-01-04,BryceFastener,Redesign of BryceFastener.com,Bryce,web work,Matthew,Fitzgerald,"",2.84,yes,no,billable
2011-01-04,Prudential,PruAdmin January 2011,"",Admin,Denise,Marie,sort through emails,0.72,no,no,billable
2011-01-04,Prudential,PruAdmin January 2011,"",Admin,Denise,Marie,icontact numbers/misc emails,0.5,no,no,billable
2011-01-03,Prudential,PruAdmin January 2011,"",Admin,Matthew,Fitzgerald,,0.37,no,no,billable
2011-01-04,Prudential,PruAdmin January 2011,"",PruAdmin,Denise,Marie,"checking spam, processing, etc",0.75,no,no,billable
2011-01-04,BryceFastener,Redesign of BryceFastener.com,Bryce,web work,Denise,Marie,"",2.88,yes,no,billable
2011-01-04,Merrymanministries,Transfer merrymanministries.com domain to HostGator,"",web work,Matthew,Fitzgerald,"",0.51,no,no,billable
2011-01-04,Prudential,Agent Newsletters 0111,"",Production,Alison,Donato,"",0.51,yes,no,billable
2011-01-04,Prudential,QR Code Postcard,"",Production,Alison,Donato,"",0.37,yes,no,billable
2011-01-04,Prudential,21 Step Brochure,"",Production,Denise,Marie,"",0.4,no,no,billable
2011-01-04,Prudential,Maggie Finks Holiday E-card,LOG,Billing,Denise,Marie,"",0.25,no,no,billable
2011-01-04,Prudential,21 Step Brochure,"",Production,Denise,Marie,"",0.37,no,no,billable
2011-01-04,Prudential,Short Sale Post Card,"",Production,Alison,Donato,"",0.61,yes,no,billable
2011-01-04,Prudential,Sort Sale Door Hanger,"",Production,Alison,Donato,"",0.82,yes,no,billable
2011-01-04,Prudential,Maggie Finks Holiday E-card,LOG,Billing,Denise,Marie,"",0.17,no,no,billable
2011-01-04,Prudential,21 Step Brochure,"",Production,Denise,Marie,"",2.0,no,no,billable
2011-01-04,Avante Imaging Solutions,Prudential Business Cards,"",Production,Alison,Donato,"",0.14,no,no,billable
2011-01-04,Prudential,Go2Tools Brochure,"",Production,Denise,Marie,"",1.0,yes,no,billable
2011-01-04,Prudential,PruAdmin January 2011,"",PruAdmin,Amber,Spain,Removes,0.25,no,no,billable
2011-01-04,Prudential,Log January 2011,"",Schedule,Amber,Spain,"",1.01,no,no,billable
2011-01-05,Prudential,Go2Tools Brochure,"",Production,Denise,Marie,"",1.0,yes,no,billable
2011-01-05,Prudential,Go2Tools Brochure,"",Production,Denise,Marie,"",1.0,yes,no,billable
2011-01-05,Avante Imaging Solutions,Prudential Business Cards,"",Production,Alison,Donato,"",0.93,no,no,billable
2011-01-05,Prudential,Log January 2011,"",Production,Alison,Donato,"",3.01,no,no,billable
2011-01-05,Prudential,PruAdmin January 2011,"",PruAdmin,Denise,Marie,convert file for Kathy,0.25,no,no,billable
2011-01-05,Prudential,PruAdmin January 2011,"",PruAdmin,Denise,Marie,agent assist - file for Chris,0.25,no,no,billable
2011-01-05,Prudential,Go2Tools Brochure,"",Production,Denise,Marie,"",0.31,yes,no,billable
2011-01-05,Prudential,QR Code Postcard,"",Production,Alison,Donato,"",0.21,yes,no,billable
2011-01-05,Prudential,21 Step Brochure,"",Production,Denise,Marie,"",1.0,no,no,billable
2011-01-05,Prudential,Sort Sale Door Hanger,"",Production,Denise,Marie,"",0.5,yes,no,billable
2011-01-05,Prudential,21 Step Brochure,"",Production,Denise,Marie,"",1.28,no,no,billable
2011-01-05,Prudential,Sort Sale Door Hanger,"",Production,Alison,Donato,"",1.49,yes,no,billable
2011-01-05,Prudential,21 Step Brochure,"",Production,Alison,Donato,"",2.34,no,no,billable
2011-01-05,Ray Group,Signage,"",Billing,Denise,Marie,"gave opinion of eflyer, questions",0.25,no,no,billable
2011-01-05,Prudential,Sort Sale Door Hanger,"",Production,Denise,Marie,"",0.25,yes,no,billable
2011-01-05,Prudential,PruAdmin January 2011,"",PruAdmin,Denise,Marie,agent assist - question from John,0.25,no,no,billable
2011-01-05,Prudential,21 Step Brochure,"",Production,Denise,Marie,"",0.09,no,no,billable
2011-01-05,Prudential,Go2Tools,"",web work,Denise,Marie,edits,0.4,no,no,billable
2011-01-05,Prudential,21 Step Brochure,"",Production,Denise,Marie,phone with Kathy,0.25,no,no,billable
2011-01-05,Prudential,Go2Tools,"",web work,Denise,Marie,"",0.75,no,no,billable
2011-01-05,Prudential,Log January 2011,"",Schedule,Amber,Spain,"",4.0,no,no,billable
2011-01-05,Prudential,PruAdmin January 2011,"",PruAdmin,Denise,Marie,katie billing,0.5,no,no,billable
2011-01-05,Prudential,Go2Tools,"",web work,Denise,Marie,"",3.12,no,no,billable
2011-01-06,Prudential,Go2Tools Brochure,"",Production,Denise,Marie,final production,0.5,yes,no,billable
2011-01-06,Prudential,Go2Tools,"",web work,Denise,Marie,"",0.09,no,no,billable
2011-01-06,Prudential,21 Step Brochure,"",Production,Denise,Marie,"",1.7,no,no,billable
2011-01-06,Avante Imaging Solutions,Prudential Business Cards,"",Production,Alison,Donato,"",0.22,no,no,billable
2011-01-06,Prudential,Log January 2011,"",Production,Alison,Donato,"",5.74,no,no,billable
2011-01-06,Prudential,21 Step Brochure,"",Production,Alison,Donato,"",0.74,no,no,billable
2011-01-06,Slava,Logo,"",Production,Alison,Donato,"",0.15,no,no,billable
2011-01-07,Prudential,Log January 2011,"",Production,Alison,Donato,"",4.6,no,no,billable
2011-01-07,Prudential,21 Step Brochure,"",Production,Alison,Donato,"",0.6,no,no,billable
2011-01-07,Merrymanministries,Transfer merrymanministries.com domain to HostGator,"",web work,Matthew,Fitzgerald,"",1.59,no,no,billable
2011-01-07,BryceFastener,Redesign of BryceFastener.com,Bryce,web work,Matthew,Fitzgerald,"Proofing site in IE, working on fixing up a few things",2.21,yes,no,billable
2011-01-07,Prudential,Go2Tools,"",Proofing,Alison,Donato,"",2.74,no,no,billable
2011-01-07,BryceFastener,Rexitivity Book,"",Production,Denise,Marie,"",1.25,yes,no,billable
2011-01-07,BryceFastener,Rexitivity Book,"",Production,Denise,Marie,"",2.0,yes,no,billable
2011-01-08,DMW Communications,Transfer data and setup new HDD DMW,"",Admin,Matthew,Fitzgerald,"",2.0,no,no,billable
2011-01-08,BryceFastener,Redesign of BryceFastener.com,Bryce,web work,Matthew,Fitzgerald,"",2.86,yes,no,billable
2011-01-08,Prudential,Log January 2011,"",Schedule,Amber,Spain,"",1.51,no,no,billable
2011-01-09,BryceFastener,Redesign of BryceFastener.com,Bryce,web work,Matthew,Fitzgerald,"",0.77,yes,no,billable
2011-01-09,DMW Communications,Transfer data and setup new HDD DMW,"",Admin,Matthew,Fitzgerald,"",0.5,no,no,billable
2011-01-09,DMW Communications,Internal,"",Billing,Matthew,Fitzgerald,"",2.47,no,no,billable
2011-01-09,BryceFastener,Create PDF's for Rexitivity and check font,"",Proofing,Matthew,Fitzgerald,"",1.54,yes,no,billable
2011-01-09,DMW Communications,Internal,"",Billing,Denise,Marie,New system,6.0,no,no,billable
2011-01-09,Tom Bodmer,131st St - MLS Change,"",Clerical,Denise,Marie,phone,0.25,yes,no,billable
2011-01-09,Tom Bodmer,131st St - MLS Change,"",Clerical,Denise,Marie,"",0.07,yes,no,billable
2011-01-09,Tom Bodmer,131st Change - Flyer,"",Production,Denise,Marie,"",0.5,yes,no,billable
2011-01-09,Tom Bodmer,131st - Eflyer,"",Production,Denise,Marie,Research,1.0,yes,no,billable
2011-01-09,Prudential,Log January 2011,"",Schedule,Amber,Spain,"",4.01,no,no,billable
2011-01-09,DMW Communications,Internal,"",Billing,Denise,Marie,"",2.5,no,no,billable
2011-01-05,Prudential,Go2Tools Brochure,"",Production,Denise,Marie,,-0.81,yes,no,billable
2011-01-10,DMW Communications,Transfer data and setup new HDD DMW,"",Admin,Alison,Donato,"",1.74,no,no,billable
2011-01-10,Prudential,21 Step Brochure,"",Layout/Design,Denise,Marie,new cover again,0.59,yes,no,billable
2011-01-10,Prudential,Log January 2011,"",PruAdmin,Denise,Marie,sort thru emails,0.25,no,no,billable
2011-01-10,DMW Communications,Internal,"",Project Management,Denise,Marie,with alison,0.25,no,no,non-billable
2011-01-10,Prudential,21 Step Brochure,"",Layout/Design,Denise,Marie,"",2.25,yes,no,billable
2011-01-10,Prudential,Log January 2011,"",Production,Alison,Donato,"",6.53,no,no,billable
2011-01-10,Prudential,Log January 2011,"",PruAdmin,Denise,Marie,agent assist - Lauren,0.25,no,no,billable
2011-01-10,Prudential,21 Step Brochure,"",Layout/Design,Denise,Marie,"",1.44,yes,no,billable
2011-01-10,Prudential,Log January 2011,"",PruAdmin,Denise,Marie,agent assist Lauren,0.25,no,no,billable
2011-01-10,Prudential,Log January 2011,"",PruAdmin,Denise,Marie,agent assist - carolyn keifer,0.25,no,no,billable
2011-01-10,Tom Bodmer,131st - Eflyer,"",Production,Denise,Marie,setting up account. $20 for service - bill back,0.51,no,no,billable
2011-01-10,Prudential,21 Step Brochure,"",Production,Denise,Marie,phone with kathy,0.25,no,no,billable
2011-01-10,Tom Bodmer,131st - Eflyer,"",Production,Denise,Marie,"",0.25,no,no,billable
2011-01-10,Prudential,Marketing Department Support - 01/11,"",Phone/Email with/for Marketing Dept,Denise,Marie,"fine homes, misc questions",0.25,no,no,billable
2011-01-10,Tom Bodmer,131st - Eflyer,"",Production,Denise,Marie,"",1.3,no,no,billable
2011-01-10,Prudential,Log January 2011,"",Schedule,Amber,Spain,"",3.23,no,no,billable
2011-01-10,Prudential,21 Step Brochure,"",Production,Denise,Marie,"",0.5,no,no,billable
2011-01-11,BryceFastener,Rexitivity Book,"",Proofing,Denise,Marie,"",1.5,yes,no,billable
2011-01-11,Prudential,21 Step Brochure,"",Production,Alison,Donato,"",1.1,no,no,billable
2011-01-11,Prudential,Log January 2011,"",Production,Alison,Donato,"",5.69,no,no,billable
2011-01-11,BryceFastener,Meetings/Overall Account Management,"",Project Management,Denise,Marie,"",2.5,yes,no,billable
2011-01-11,Tom Bodmer,131st - Eflyer,"",Production,Denise,Marie,"",0.25,no,no,billable
2011-01-11,Prudential,21 Step Brochure,"",Production,Denise,Marie,"",0.25,no,no,billable
2011-01-11,Prudential,Agent Newsletters 0111,"",Production,Denise,Marie,"",0.25,no,no,billable
2011-01-11,Prudential,Go2Tools Brochure,"",Production,Denise,Marie,minor changes,0.5,no,no,billable
2011-01-11,DMW Communications,Internal,"",Project Management,Denise,Marie,"",0.25,no,no,non-billable
2011-01-11,Prudential,What's New Flyer,"",Billing,Denise,Marie,"",2.03,yes,no,billable
2011-01-11,Avante Imaging Solutions,PruAZ BC - Rob Drake,"",Production,Alison,Donato,"",0.25,no,no,non-billable
2011-01-11,Avante Imaging Solutions,PruAZ BC - Dee Belcher,"",Production,Alison,Donato,&nbsp;,0.25,no,no,non-billable
2011-01-11,Avante Imaging Solutions,PruAZ BC- Mark Reinhart,"",Admin,Alison,Donato,&nbsp;,0.25,yes,no,billable
2011-01-11,Avante Imaging Solutions,PruAz BC - LaScala Team,"",Production,Alison,Donato,"",0.25,yes,no,billable
2011-01-11,Prudential,Marketing Department Support - 01/11,"",Phone/Email with/for Marketing Dept,Denise,Marie,"",0.35,no,no,billable
2011-01-11,Prudential,21 Step Brochure,"",Production,Denise,Marie,non personalization version,0.25,no,no,billable
2011-01-11,Prudential,We have the Internet Saturated,"",Layout/Design,Denise,Marie,"",1.2,yes,no,billable
2011-01-11,BryceFastener,Meetings/Overall Account Management,"",Project Management,Denise,Marie,prep for meeting,0.5,yes,no,billable
2011-01-11,Prudential,Rob Drake & Kelly McLain-letterhead,"",Admin,Alison,Donato,"",0.25,no,no,non-billable
2011-01-11,Prudential,QR Code Materials Revised,"",Production,Denise,Marie,"",1.0,no,no,billable
2011-01-11,Prudential,21 Step Brochure,"",Production,Denise,Marie,"",0.5,no,no,billable
2011-01-11,Prudential,Go2Tools,"",web work,Denise,Marie,"edits, live chat image change",3.0,no,no,billable
2011-01-12,Prudential,We have the Internet Saturated,"",Production,Denise,Marie,"",0.5,no,no,billable
2011-01-12,Prudential,Marketing Department Support - 01/11,"",Photo/File Search for Agents/Marketing Department,Denise,Marie,"",0.25,no,no,billable
2011-01-12,Prudential,Log January 2011,"",Production,Alison,Donato,"",7.56,no,no,billable
2011-01-12,Prudential,Marketing Department Support - 01/11,"",Phone/Email with/for Marketing Dept,Denise,Marie,"",0.25,no,no,billable
2011-01-12,Tom Bodmer,131st - Eflyer,"",Project Management,Denise,Marie,kevin cross phone number,0.25,no,no,non-billable
2011-01-12,Prudential,Marketing Department Support - 01/11,"",Update/maintain email lists,Alison,Donato,"",0.15,no,no,billable
2011-01-12,Prudential,Marketing Department Support - 01/11,"",Phone/Email with/for Marketing Dept,Denise,Marie,phone with kathy and diane,0.5,no,no,billable
2011-01-12,Prudential,Log January 2011,"",PruAdmin,Denise,Marie,agent assist - cheri cosgrove,0.25,no,no,billable
2011-01-12,Prudential,Log January 2011,"",PruAdmin,Denise,Marie,go through emails,0.25,no,no,billable
2011-01-12,Prudential,Go2Tools,"",web work,Denise,Marie,"",0.5,no,no,billable
2011-01-12,Prudential,Go2Tools,"",web work,Denise,Marie,"",0.37,no,no,billable
2011-01-12,Tom Bodmer,131st - Eflyer,"",Production,Denise,Marie,problems with realty emails,0.83,no,no,billable
2011-01-11,BryceFastener,Redesign of BryceFastener.com,Bryce,Meeting,Matthew,Fitzgerald,"",2.0,yes,no,billable
2011-01-12,BryceFastener,Redesign of BryceFastener.com,Bryce,web work,Matthew,Fitzgerald,"",0.3,yes,no,billable
2011-01-12,Merrymanministries,Transfer merrymanministries.com domain to HostGator,"",web work,Matthew,Fitzgerald,"",1.0,no,no,billable
2011-01-12,DMW Communications,Internal,"",PruAdmin,Denise,Marie,internet down,1.5,no,no,non-billable
2011-01-12,Prudential,Log January 2011,"",Production,Denise,Marie,ray group postcards,0.5,no,no,billable
2011-01-12,Tom Bodmer,131st St - MLS Change,"",Clerical,Denise,Marie,research and fix armls IDX,0.52,yes,no,billable
2011-01-12,Tom Bodmer,131st - Eflyer,"",Production,Denise,Marie,problem with realtyemails,0.25,no,no,billable
2011-01-13,Prudential,Marketing Department Support - 01/11,"",Marketing Tracking/Followup/Billing,Denise,Marie,"",0.25,no,no,billable
2011-01-12,Prudential,Log January 2011,"",PruAdmin,Denise,Marie,sorting emails,0.25,no,no,billable
2011-01-12,Prudential,Fine Homes Magazine,"",Production,Denise,Marie,"",1.32,no,no,billable
2011-01-12,Prudential,21 Step Brochure,"",Production,Alison,Donato,"",0.25,no,no,billable
2011-01-12,Prudential,Log January 2011,"",PruAdmin,Denise,Marie,with alison on jobs,0.25,no,no,billable
2011-01-12,Prudential,Fine Homes Magazine,"",Production,Denise,Marie,"",1.94,no,no,billable
2011-01-12,Prudential,Log January 2011,"",Schedule,Amber,Spain,"",2.01,no,no,billable
2011-01-12,Prudential,Log January 2011,"",PruAdmin,Denise,Marie,go through emails,0.25,no,no,billable
2011-01-12,Tom Bodmer,131st - Eflyer,"",PruAdmin,Denise,Marie,sending copies to tom's clients,0.25,no,no,billable
2011-01-13,Prudential,Fine Homes Magazine,"",Production,Denise,Marie,"",0.5,no,no,billable
2011-01-13,Prudential,Fine Homes Magazine,"",Production,Denise,Marie,"",1.0,no,no,billable
2011-01-13,Prudential,Fine Homes Magazine,"",Production,Denise,Marie,"",1.0,no,no,billable
2011-01-13,Prudential,Log January 2011,"",Production,Alison,Donato,"",7.15,no,no,billable
2011-01-13,Avante Imaging Solutions,PruAZ BC - Kevin Newell,"",Production,Alison,Donato,"",0.25,yes,no,billable
2011-01-13,Prudential,QR Code Materials Revised,"",Production,Denise,Marie,"",0.25,no,no,billable
2011-01-13,Prudential,Log January 2011,"",Production,Denise,Marie,NAncy McLean personal card,0.37,no,no,billable
2011-01-13,Prudential,Marketing Department Support - 01/11,"",Billing,Denise,Marie,phone kathy,0.25,no,no,billable
2011-01-13,Prudential,QR Code Materials Revised,"",Production,Denise,Marie,"",0.25,no,no,billable
2011-01-13,Prudential,Fine Homes Magazine,"",Production,Denise,Marie,"",0.5,no,no,billable
2011-01-13,Prudential,QR Code Materials Revised,"",Production,Denise,Marie,"",0.25,no,no,billable
2011-01-13,Prudential,Fine Homes Magazine,"",Production,Denise,Marie,"",0.25,no,no,billable
2011-01-13,Prudential,Log January 2011,"",Production,Denise,Marie,ray group postcards,0.33,no,no,billable
2011-01-13,Prudential,QR Code Materials Revised,"",Billing,Alison,Donato,"",0.25,yes,no,billable
2011-01-13,Prudential,Marketing Department Support - 01/11,"",Billing,Alison,Donato,"",0.25,no,no,billable
2011-01-13,Prudential,Fine Homes Magazine,"",Production,Denise,Marie,"",2.0,no,no,billable
2011-01-13,Prudential,Fine Homes Magazine,"",Production,Denise,Marie,"",1.13,no,no,billable
2011-01-13,Prudential,Buyer’s Guide – December Listings 2010/January 2011 Edition,"",Billing,Matthew,Fitzgerald,"",1.26,no,no,billable
2011-01-13,Prudential,Go2Tools Forms,"",web work,Matthew,Fitzgerald,"",2.15,no,no,billable
2011-01-13,Prudential,Fine Homes Magazine,"",Production,Denise,Marie,"",4.0,no,no,billable
2011-01-13,Prudential,Fine Homes Magazine,"",Production,Denise,Marie,"",1.5,no,no,billable
2011-01-14,Prudential,Log January 2011,"",Production,Alison,Donato,"",5.32,no,no,billable
2011-01-14,Prudential,Fine Homes Magazine,"",Production,Denise,Marie,"",0.5,no,no,billable
2011-01-14,Prudential,Fine Homes Magazine,"",Production,Denise,Marie,"",1.28,no,no,billable
2011-01-14,Prudential,Fine Homes Magazine,"",Production,Denise,Marie,sponsor ads,1.43,no,no,billable
2011-01-14,Avante Imaging Solutions,PruAZ BC- Mark Reinhart,"",Admin,Alison,Donato,"",0.22,yes,no,billable
2011-01-14,Avante Imaging Solutions,PRUAMERICAN BC - Henry Scott,"",Billing,Alison,Donato,"",0.5,no,no,non-billable
2011-01-14,Tom Bodmer,131st St - MLS Change,"",Production,Denise,Marie,"",0.22,no,no,billable
2011-01-14,Avante Imaging Solutions,PruAZ BC - Jen Ives,"",Billing,Alison,Donato,"",0.25,yes,no,billable
2011-01-14,Avante Imaging Solutions,PruAZ BC - Jeff Davis,"",Billing,Alison,Donato,"",0.11,yes,no,billable
2011-01-14,Avante Imaging Solutions,PruAZ BC - Chad Bauer,"",Billing,Alison,Donato,"",0.3,yes,no,billable
2011-01-14,Avante Imaging Solutions,PruAZ BC - Richard R. Uhl,"",Billing,Alison,Donato,"",0.11,no,no,non-billable
2011-01-14,Prudential,Go2Tools Forms,"",web work,Matthew,Fitzgerald,"",1.41,no,no,billable
2011-01-14,Prudential,Fine Homes Magazine,"",Production,Denise,Marie,sponsor ads,0.5,no,no,billable
2011-01-14,Prudential,Fine Homes Magazine,"",Proofing,Matthew,Fitzgerald,"",0.7,no,no,billable
2011-01-14,Prudential,Fine Homes Magazine,"",Production,Alison,Donato,"",0.42,no,no,billable
2011-01-14,Prudential,Fine Homes Magazine,"",Production,Denise,Marie,sponsor ads,0.5,no,no,billable
2011-01-14,Prudential,Fine Homes Magazine,"",Production,Denise,Marie,cover,1.0,no,no,billable
2011-01-14,Prudential,Marketing Department Support - 01/11,"",Vendor Coordination,Denise,Marie,spiderweave issues,0.75,no,no,billable
2011-01-14,DMW Communications,Internal,"",Project Management,Denise,Marie,alison issue,0.25,no,no,non-billable
2011-01-14,DMW Communications,Internal,"",Business Development,Alison,Donato,"",0.68,no,no,non-billable
2011-01-14,Prudential,Log January 2011,"",Schedule,Amber,Spain,"",2.5,no,no,billable
2011-01-14,Prudential,Log January 2011,"",Production,Denise,Marie,"",0.5,no,no,billable
2011-01-14,zPersonal,school stuff,"",Admin,Denise,Marie,talent show,1.5,no,no,non-billable
2011-01-14,zPersonal,Kid Stuff,"",Admin,Denise,Marie,friends over,0.5,no,no,non-billable
2011-01-14,Prudential,Fine Homes Magazine,"",Production,Denise,Marie,misc followup sponsor ad changes etc,1.0,no,no,billable
2011-01-14,DMW Communications,Internal,"",Billing,Denise,Marie,check new time management programs,1.5,no,no,billable
2011-01-15,DMW Communications,Internal,"",Admin,Denise,Marie,reviewing programs,1.25,no,no,billable
2011-01-15,DMW Communications,Internal,"",Admin,Denise,Marie,harvest set up,0.75,no,no,billable
2011-01-15,zPersonal,House Stuff1,"",personal,Denise,Marie,"",0.5,no,no,non-billable
2011-01-15,zPersonal,Personal,"",personal,Denise,Marie,"",0.5,no,no,non-billable
2011-01-15,zPersonal,Personal,"",personal,Denise,Marie,"allyssia, house, store, misc",3.41,no,no,non-billable
2011-01-15,Prudential,Go2Tools Forms,"",web work,Matthew,Fitzgerald,"",6.19,no,no,billable
2011-01-15,DMW Communications,Setup New Desk,"",Layout/Design,Matthew,Fitzgerald,"",0.48,no,no,non-billable
2011-01-15,Prudential,Log January 2011,"",PruAdmin,Denise,Marie,sorting emails,0.26,no,no,billable
2011-01-15,Prudential,Fine Homes Magazine,"",Production,Denise,Marie,"",2.0,no,no,billable
2011-01-15,zPersonal,Personal,"",personal,Denise,Marie,lunch break,1.5,no,no,non-billable
2011-01-15,Prudential,Fine Homes Magazine,"",Production,Denise,Marie,"",0.62,no,no,billable
2011-01-15,Prudential,Fine Homes Magazine,"",Production,Denise,Marie,"",0.25,no,no,billable
2011-01-15,Prudential,Fine Homes Magazine,"",Production,Denise,Marie,"",2.5,no,no,billable
2011-01-15,zPersonal,Personal,"",personal,Denise,Marie,break,0.75,no,no,non-billable
2011-01-15,zPersonal,Personal,"",personal,Denise,Marie,fart around,1.25,no,no,non-billable
2011-01-15,Prudential,Buyer’s Guide – December Listings 2010/January 2011 Edition,"",Production,Denise,Marie,"",1.75,no,no,billable
2011-01-16,Prudential,Marketing Department Support - 01/11,"",Vendor Coordination,Denise,Marie,"",0.25,no,no,billable
2011-01-16,zPersonal,House Stuff1,"",personal,Denise,Marie,"",1.0,no,no,non-billable
2011-01-16,Prudential,Buyer’s Guide – December Listings 2010/January 2011 Edition,"",Production,Denise,Marie,"",2.68,no,no,billable
2011-01-16,Prudential,Log January 2011,"",Production,Denise,Marie,enter into log,0.25,no,no,billable
2011-01-16,Prudential,Go2Tools Forms,"",web work,Matthew,Fitzgerald,"",3.78,no,no,billable
2011-01-16,Prudential,Marketing Department Support - 01/11,"",Marketing Tracking/Followup/Billing,Denise,Marie,"",0.25,no,no,billable
2011-01-16,Prudential,Marketing Department Support - 01/11,"",Marketing Tracking/Followup/Billing,Denise,Marie,Fine Homes,0.25,no,no,billable
2011-01-16,Slava,Logo,"",Production,Denise,Marie,"",0.5,no,no,billable
2011-01-16,Slava,Logo,"",Production,Denise,Marie,"",0.41,no,no,billable
2011-01-16,Prudential,Go2Tools Forms,"",web work,Denise,Marie,"",0.5,no,no,billable
2011-01-16,Prudential,Go2Tools Forms,"",web work,Denise,Marie,"",1.12,no,no,billable
2011-01-16,Prudential,Buyer’s Guide – December Listings 2010/January 2011 Edition,"",Production,Denise,Marie,"",1.7,no,no,billable
2011-01-16,Prudential,Buyer’s Guide – December Listings 2010/January 2011 Edition,"",Production,Denise,Marie,"",3.38,no,no,billable
2011-01-16,DMW Communications,Internal,"",Billing,Denise,Marie,"",1.0,no,no,billable
2011-01-16,DMW Communications,Internal,"",Billing,Denise,Marie,"",2.0,no,no,billable
2011-01-17,DMW Communications,Internal,"",Billing,Denise,Marie,"",1.25,no,no,billable
2011-01-17,Prudential,Log January 2011,"",PruAdmin,Denise,Marie,sorting emails,0.19,no,no,billable
2011-01-17,Prudential,Fine Homes Magazine,"",Production,Denise,Marie,"",0.25,no,no,billable
2011-01-17,Prudential,Marketing Department Support - 01/11,"",Phone/Email with/for Marketing Dept,Denise,Marie,kathy emails,0.25,no,no,billable
2011-01-17,Prudential,Fine Homes Magazine,"",Production,Denise,Marie,"",2.1,no,no,billable
2011-01-17,Prudential,Go2Tools Forms,"",web work,Matthew,Fitzgerald,"",2.65,no,no,billable
2011-01-17,Prudential,AgentNews 0211,"",Production,Alison,Donato,"",0.25,no,no,non-billable
2011-01-17,Prudential,Log January 2011,"",Production,Alison,Donato,"",5.98,no,no,billable
2011-01-17,Prudential,Marketing Department Support - 01/11,"",Phone/Email with/for Marketing Dept,Denise,Marie,kathy,0.25,no,no,billable
2011-01-17,DMW Communications,Internal,"",traffic,Denise,Marie,with alison/matt,0.25,no,no,billable
2011-01-17,Prudential,Go2Tools,"",Production,Denise,Marie,with matt,0.25,no,no,billable
2011-01-17,Prudential,Fine Homes Magazine,"",Production,Denise,Marie,Institutional Ad,1.0,no,no,billable
2011-01-17,zPersonal,Personal,"",personal,Denise,Marie,allyssia home,0.3,no,no,non-billable
2011-01-17,Prudential,Buyer’s Guide – December Listings 2010/January 2011 Edition,"",Billing,Matthew,Fitzgerald,"",0.36,no,no,billable
2011-01-17,Prudential,Go2Tools Forms,"",web work,Denise,Marie,"",0.25,no,no,billable
2011-01-17,Prudential,Log January 2011,"",Approved,Denise,Marie,process,0.25,no,no,billable
2011-01-17,Prudential,Fine Homes Magazine,"",Production,Denise,Marie,institutional ad,1.14,no,no,billable
2011-01-17,Prudential,Fine Homes Magazine,"",Production,Denise,Marie,changes,0.5,no,no,billable
2011-01-17,zPersonal,Personal,"",personal,Denise,Marie,"",0.5,no,no,non-billable
2011-01-17,Prudential,Fine Homes Magazine,"",Production,Denise,Marie,"",0.28,no,no,billable
2011-01-17,Prudential,Buyer’s Guide – December Listings 2010/January 2011 Edition,"",Production,Denise,Marie,"",0.75,no,no,billable
2011-01-17,Avante Imaging Solutions,PruAZ BC - Chad Bauer,"",Production,Alison,Donato,"",0.15,no,no,billable
2011-01-17,Avante Imaging Solutions,PruAZ BC - Jen Ives,"",Production,Alison,Donato,"",0.15,no,no,billable
2011-01-17,Prudential,Rob Drake & Kelly McLain-letterhead,"",Production,Alison,Donato,&nbsp;,0.25,no,no,non-billable
2011-01-17,Prudential,Buyer’s Guide – December Listings 2010/January 2011 Edition,"",Production,Alison,Donato,"",0.83,no,no,billable
2011-01-17,Prudential,Log January 2011,"",Schedule,Amber,Spain,"",2.0,no,no,billable
2011-01-17,zPersonal,Personal,"",personal,Denise,Marie,"girls to lifetime, pt, dinner, rest",4.75,no,no,non-billable
2011-01-18,zPersonal,House Stuff1,"",personal,Denise,Marie,"allyssia not feeling well, jordan issues, misc house",2.0,no,no,non-billable
2011-01-18,Prudential,Marketing Department Support - 01/11,"",Vendor Coordination,Denise,Marie,prutools issues,1.5,no,no,billable
2011-01-18,Prudential,Marketing Department Support - 01/11,"",Phone/Email with/for Marketing Dept,Denise,Marie,"",0.25,no,no,billable
2011-01-17,Becky Ryan,Eflyer - January 2011,"",Production,Denise,Marie,"",0.5,no,no,billable
2011-01-18,DMW Communications,Internal,"",Admin,Denise,Marie,email issues,0.5,no,no,billable
2011-01-18,Prudential,Log January 2011,"",Approved,Denise,Marie,sort through emails,0.25,no,no,billable
2011-01-18,Becky Ryan,Eflyer - January 2011,"",Production,Denise,Marie,eflyer problems,0.25,no,no,billable
2011-01-18,Prudential,Fine Homes Magazine,"",Production,Denise,Marie,"",0.25,no,no,billable
2011-01-18,Prudential,Fine Homes Magazine,"",Production,Denise,Marie,"",0.39,no,no,billable
2011-01-18,Prudential,Fine Homes Magazine,"",Production,Denise,Marie,institutional ad,0.5,no,no,billable
2011-01-18,Prudential,Fine Homes Magazine,"",Production,Denise,Marie,sponsor page,0.25,no,no,billable
2011-01-18,Prudential,Fine Homes Magazine,"",Production,Denise,Marie,instittutional ad,1.0,no,no,billable
2011-01-18,Avante Imaging Solutions,PruAZ BC - Jen Ives,"",Production,Alison,Donato,"",0.1,no,no,billable
2011-01-18,Prudential,Log January 2011,"",Production,Alison,Donato,"",4.1,no,no,billable
2011-01-18,Prudential,Fine Homes Magazine,"",Production,Denise,Marie,phone with kathy,0.25,no,no,billable
2011-01-18,Becky Ryan,Eflyer - January 2011,"",Billing,Denise,Marie,image issue,0.5,no,no,billable
2011-01-18,DMW Communications,Internal,"",Admin,Denise,Marie,with alison,0.25,no,no,billable
2011-01-18,Prudential,Log January 2011,"",PruAdmin,Denise,Marie,chris fretland agent assist,0.25,no,no,billable
2011-01-18,Avante Imaging Solutions,PruAz BC - Ben Hudon,"",Production,Alison,Donato,"",0.18,no,no,billable
2011-01-18,Avante Imaging Solutions,PRUAMERICAN BC - Henry Scott,"",Billing,Alison,Donato,"",0.12,no,no,non-billable
2011-01-18,DMW Communications,Internal,"",Admin,Denise,Marie,restart/email issues,0.5,no,no,billable
2011-01-18,Prudential,Fine Homes Magazine,"",Production,Denise,Marie,"",0.84,no,no,billable
2011-01-18,Avante Imaging Solutions,PruAZ BC - Dianne Shestko,"",Billing,Alison,Donato,"",0.15,yes,no,billable
2011-01-18,Prudential,Buyer’s Guide – December Listings 2010/January 2011 Edition,"",Production,Denise,Marie,"",1.0,no,no,billable
2011-01-18,zPersonal,Personal,"",personal,Denise,Marie,argue with Jordan,0.5,no,no,non-billable
2011-01-18,Prudential,Fine Homes Magazine,"",Production,Denise,Marie,"",0.75,no,no,billable
2011-01-18,Prudential,AgentNews 0211,"",Billing,Alison,Donato,"",0.15,no,no,non-billable
2011-01-18,Prudential,Log January 2011,"",Schedule,Amber,Spain,"",3.06,no,no,billable
2011-01-18,DMW Communications,Internal,"",Admin,Denise,Marie,with matt,0.25,no,no,billable
2011-01-18,zPersonal,Personal,"",personal,Denise,Marie,dinner/stuff,2.0,no,no,non-billable
2011-01-18,Prudential,Buyer’s Guide – December Listings 2010/January 2011 Edition,"",Production,Denise,Marie,"",0.25,no,no,billable
2011-01-18,Becky Ryan,Eflyer - January 2011,"",Production,Denise,Marie,"",0.5,no,no,billable
2011-01-18,Prudential,Buyer’s Guide – December Listings 2010/January 2011 Edition,"",Production,Denise,Marie,"",0.25,no,no,billable
2011-01-19,Prudential,Buyer’s Guide – December Listings 2010/January 2011 Edition,"",Production,Denise,Marie,"",0.75,no,no,billable
2011-01-19,zPersonal,Kid Stuff,"",personal,Denise,Marie,allyssia up,2.0,no,no,non-billable
2011-01-19,Prudential,Log January 2011,"",Approved,Denise,Marie,emails,0.25,no,no,billable
2011-01-19,DMW Communications,Internal,"",Admin,Denise,Marie,"",0.25,no,no,billable
2011-01-19,Prudential,Fine Homes Magazine,"",Production,Denise,Marie,"ray group edits, cover changes",0.75,no,no,billable
2011-01-19,Prudential,Fine Homes Magazine,"",Production,Denise,Marie,"",0.75,no,no,billable
2011-01-19,Prudential,Buyer’s Guide – December Listings 2010/January 2011 Edition,"",Production,Denise,Marie,"",0.75,no,no,billable
2011-01-19,Prudential,Buyer’s Guide – December Listings 2010/January 2011 Edition,"",Production,Denise,Marie,"",0.95,no,no,billable
2011-01-19,Prudential,Fine Homes Magazine,"",Production,Denise,Marie,"",2.75,no,no,billable
2011-01-19,Prudential,Log January 2011,"",Production,Alison,Donato,"",5.1,no,no,billable
2011-01-19,Avante Imaging Solutions,PruAz BC - Ben Hudon,"",Billing,Alison,Donato,"",0.25,yes,no,billable
2011-01-19,Prudential,Buyer’s Guide – December Listings 2010/January 2011 Edition,"",Production,Denise,Marie,"",0.75,no,no,billable
2011-01-19,Prudential,AgentNews 0211,"",Production,Denise,Marie,"",0.25,no,no,non-billable
2011-01-19,Prudential,Buyer’s Guide – December Listings 2010/January 2011 Edition,"",Production,Denise,Marie,"",0.08,no,no,billable
2011-01-19,Prudential,AgentNews 0211,"",Production,Alison,Donato,"",0.25,no,no,non-billable
2011-01-19,zPersonal,Kid Stuff,"",personal,Denise,Marie,"pick up girls, bank, store",0.75,no,no,non-billable
2011-01-19,Prudential,Fine Homes Magazine,"",Production,Denise,Marie,"",0.25,no,no,billable
2011-01-19,DMW Communications,Internal,"",Admin,Matthew,Fitzgerald,Meeting with Denise from 9-10,1.0,no,no,billable
2011-01-19,DMW Communications,Investigate Spiderweave Issues,"",Admin,Matthew,Fitzgerald,"",0.69,no,no,non-billable
2011-01-19,BryceFastener,Redesign of BryceFastener.com,Bryce,web work,Matthew,Fitzgerald,"",1.28,yes,no,billable
2011-01-19,Prudential,Fine Homes Magazine,"",Production,Denise,Marie,photo issue,0.25,no,no,billable
2011-01-19,Prudential,Buyer’s Guide – December Listings 2010/January 2011 Edition,"",Production,Denise,Marie,"",0.5,no,no,billable
2011-01-19,zPersonal,Girl Scouts,"",personal,Denise,Marie,"",0.5,no,no,non-billable
2011-01-19,Prudential,Buyer’s Guide – December Listings 2010/January 2011 Edition,"",Billing,Denise,Marie,"",0.14,no,no,billable
2011-01-19,Prudential,Fine Homes Magazine,"",Production,Denise,Marie,"",0.31,no,no,billable
2011-01-19,Prudential,Buyer’s Guide – December Listings 2010/January 2011 Edition,"",Production,Denise,Marie,"",0.24,no,no,billable
2011-01-19,BryceFastener,Meetings/Overall Account Management,"",Billing,Denise,Marie,with matt,0.25,yes,no,billable
2011-01-19,Prudential,Buyer’s Guide – December Listings 2010/January 2011 Edition,"",Production,Denise,Marie,"",1.0,no,no,billable
2011-01-19,Prudential,Go2Tools Forms,"",web work,Matthew,Fitzgerald,"",1.59,no,no,billable
2011-01-19,zPersonal,Personal,"",personal,Denise,Marie,rest,1.0,no,no,non-billable
2011-01-19,Prudential,Buyer’s Guide – December Listings 2010/January 2011 Edition,"",Production,Denise,Marie,"",1.0,no,no,billable
2011-01-19,Prudential,Buyer’s Guide – December Listings 2010/January 2011 Edition,"",Production,Denise,Marie,"",1.25,no,no,billable
2011-01-20,Prudential,Buyer’s Guide – December Listings 2010/January 2011 Edition,"",Production,Denise,Marie,"",1.95,no,no,billable
2011-01-20,zPersonal,Kid Stuff,"",personal,Denise,Marie,Allyssia/house,1.25,no,no,non-billable
2011-01-20,Prudential,Buyer’s Guide – December Listings 2010/January 2011 Edition,"",Production,Denise,Marie,"",0.75,no,no,billable
2011-01-20,Prudential,Fine Homes Magazine,"",Production,Denise,Marie,"",0.25,no,no,billable
2011-01-20,Prudential,Fine Homes Magazine,"",Production,Denise,Marie,"",0.62,no,no,billable
2011-01-20,Prudential,Log January 2011,"",Production,Alison,Donato,"",3.63,no,no,billable
2011-01-20,Prudential,Buyer’s Guide – December Listings 2010/January 2011 Edition,"",Production,Denise,Marie,"",3.0,no,no,billable
2011-01-20,Prudential,Buyer’s Guide – December Listings 2010/January 2011 Edition,"",Production,Alison,Donato,"",2.29,no,no,billable
2011-01-20,Prudential,Fine Homes Magazine,"",Production,Denise,Marie,"",0.25,no,no,billable
2011-01-20,zPersonal,Personal,"",personal,Denise,Marie,records stuff for meeting tomorrow,0.83,no,no,non-billable
2011-01-20,BryceFastener,Redesign of BryceFastener.com,Bryce,Production,Denise,Marie,"",1.5,yes,no,billable
2011-01-20,Avante Imaging Solutions,PruAZ BC - Nick Arekat,"",Billing,Alison,Donato,"",0.15,no,no,non-billable
2011-01-20,Avante Imaging Solutions,PruAZ BC - Amy Langbehn,"",Billing,Alison,Donato,"",0.15,no,no,non-billable
2011-01-20,BryceFastener,Redesign of BryceFastener.com,Bryce,web work,Matthew,Fitzgerald,"",1.8,yes,no,billable
2011-01-20,Merrymanministries,Transfer merrymanministries.com domain to HostGator,"",web work,Matthew,Fitzgerald,"",1.77,no,no,billable
2011-01-20,zPersonal,Personal,"",personal,Denise,Marie,"school, dinner, pickup",2.5,no,no,non-billable
2011-01-20,BryceFastener,Redesign of BryceFastener.com,Bryce,Production,Denise,Marie,"",0.5,yes,no,billable
2011-01-20,BryceFastener,Redesign of BryceFastener.com,Bryce,Production,Denise,Marie,"",1.75,yes,no,billable
2011-01-20,BryceFastener,Catalog,"",Production,Denise,Marie,"",0.5,yes,no,billable
2011-01-20,zPersonal,Personal,"",personal,Denise,Marie,"",0.25,no,no,non-billable
2011-01-20,BryceFastener,Redesign of BryceFastener.com,Bryce,Production,Denise,Marie,"",2.0,yes,no,billable
2011-01-21,Prudential,Go2Tools Forms,"",web work,Denise,Marie,"",2.0,no,no,billable
2011-01-21,Prudential,Go2Tools Forms,"",web work,Matthew,Fitzgerald,"",1.37,no,no,billable
2011-01-21,Prudential,Log January 2011,"",Production,Alison,Donato,"",3.62,no,no,billable
2011-01-21,BryceFastener,Redesign of BryceFastener.com,Bryce,Production,Alison,Donato,"",3.37,yes,no,billable
2011-01-21,BryceFastener,Purchase Photo items for Bryce,"",Project Management,Matthew,Fitzgerald,"",0.75,yes,no,billable
2011-01-21,BryceFastener,Redesign of BryceFastener.com,Bryce,Admin,Matthew,Fitzgerald,"",0.5,yes,no,billable
2011-01-21,BryceFastener,Redesign of BryceFastener.com,Bryce,Production,Denise,Marie,"",1.5,yes,no,billable
2011-01-21,BryceFastener,Photo Shoot,"",Production,Denise,Marie,"",1.5,yes,no,billable
2011-01-21,zPersonal,Personal,"",personal,Denise,Marie,"pick up allyssia, lunch, misc",0.75,no,no,non-billable
2011-01-21,Prudential,Buyer’s Guide – December Listings 2010/January 2011 Edition,"",Production,Denise,Marie,"",4.25,no,no,billable
2011-01-21,Avante Imaging Solutions,PruAZ BC - Amy Langbehn,"",Production,Alison,Donato,"",0.15,no,no,non-billable
2011-01-21,Prudential,Log January 2011,"",PruAdmin,Amber,Spain,Removes,0.11,no,no,billable
2011-01-21,Prudential,Log January 2011,"",Schedule,Amber,Spain,"",2.0,no,no,billable
2011-01-21,BryceFastener,Photo Shoot,"",Production,Matthew,Fitzgerald,"",3.1,yes,no,billable
2011-01-22,BryceFastener,Sorting / editing photo's taken at photoshoot,"",Production,Matthew,Fitzgerald,"",1.89,no,no,billable
2011-01-22,Prudential,"Buyers Guide Issue - December Listings, January Issue Emailers","",Billing,Denise,Marie,"",0.25,no,no,billable
2011-01-22,BryceFastener,Photo Shoot,"",Billing,Denise,Marie,"",0.44,no,no,billable
2011-01-22,Prudential,"Buyers Guide Issue - December Listings, January Issue Emailers","",Production,Denise,Marie,"",1.26,no,no,billable
2011-01-22,BryceFastener,Photo Shoot,"",Production,Matthew,Fitzgerald,"",1.92,no,no,billable
2011-01-21,zPersonal,Personal,"",personal,Denise,Marie,talent show,2.5,no,no,non-billable
2011-01-22,zPersonal,House Stuff1,"",personal,Denise,Marie,"rest, laundry, clean, blah",5.0,no,no,non-billable
2011-01-22,zPersonal,Personal,"",personal,Denise,Marie,break,0.25,no,no,non-billable
2011-01-22,Prudential,Marketing Department Support - 01/11,"",Billing,Denise,Marie,kathy emails,0.25,no,no,billable
2011-01-22,Prudential,Log January 2011,"",Agent Assist,Denise,Marie,Tracy McMillian,0.46,no,no,billable
2011-01-22,Prudential,Marketing Department Support - 01/11,"",Phone/Email with/for Marketing Dept,Denise,Marie,kathy emails,0.15,no,no,billable
2011-01-22,BryceFastener,Redesign of BryceFastener.com,Bryce,web work,Denise,Marie,"",3.5,no,no,billable
2011-01-22,zPersonal,Personal,"",personal,Denise,Marie,"",2.0,no,no,non-billable
2011-01-22,BryceFastener,Redesign of BryceFastener.com,Bryce,web work,Denise,Marie,"",0.25,no,no,billable
2011-01-22,BryceFastener,Rexitivity Book,"",Billing,Denise,Marie,"",0.75,no,no,billable
2011-01-23,BryceFastener,Meetings/Overall Account Management,"",web work,Matthew,Fitzgerald,"",0.64,no,no,billable
2011-01-23,BryceFastener,Redesign of BryceFastener.com,Bryce,web work,Matthew,Fitzgerald,"",5.17,no,no,billable
2011-01-23,BryceFastener,Meetings/Overall Account Management,"",Production,Denise,Marie,prep for matt/with matt,1.0,no,no,billable
2011-01-23,BryceFastener,Redesign of BryceFastener.com,Bryce,web work,Denise,Marie,"",1.78,no,no,billable
2011-01-23,BryceFastener,Rexitivity Book,"",Billing,Denise,Marie,"",1.25,no,no,billable
2011-01-23,zPersonal,Personal,"",personal,Denise,Marie,"",1.25,no,no,non-billable
2011-01-23,zPersonal,Personal,"",personal,Denise,Marie,Alenia over,1.0,no,no,non-billable
2011-01-23,Prudential,Log January 2011,"",Schedule,Amber,Spain,"",3.57,no,no,billable
2011-01-23,BryceFastener,Rexitivity Book,"",Billing,Denise,Marie,"",3.5,no,no,billable
2011-01-23,zPersonal,Personal,"",personal,Denise,Marie,"girls, misc",2.0,no,no,non-billable
2011-01-23,BryceFastener,Rexitivity Book,"",Production,Denise,Marie,"",3.2,no,no,billable
2011-01-24,Prudential,Fine Homes Magazine,"",Production,Denise,Marie,"",3.83,no,no,billable
2011-01-24,Prudential,Log January 2011,"",Production,Alison,Donato,"",7.12,no,no,billable
2011-01-24,Avante Imaging Solutions,PruAZ BC - Nick Arekat,"",Production,Alison,Donato,"",0.12,no,no,non-billable
2011-01-24,Prudential,Log January 2011,"",Agent Assist,Denise,Marie,sorting thru emails,0.5,no,no,billable
2011-01-24,Prudential,Marketing Department Support - 01/11,"",Marketing Tracking/Followup/Billing,Denise,Marie,sorting thru emails,0.5,no,no,billable
2011-01-24,Prudential,Go2Tools,"",web work,Denise,Marie,"",1.53,no,no,billable
2011-01-24,Prudential,Marketing Department Support - 01/11,"",Production,Denise,Marie,"buyers guide to facebook, other questions to Kathy",0.69,no,no,billable
2011-01-24,Prudential,"Buyers Guide Issue - December Listings, January Issue FH to HTML","",Production,Denise,Marie,"",1.15,no,no,billable
2011-01-24,Avante Imaging Solutions,PRUAMERICAN BC - Mike Gruener,"",Production,Alison,Donato,"",0.18,no,no,non-billable
2011-01-24,Avante Imaging Solutions,PruAZ BC - Cara Wright,"",Production,Alison,Donato,"",0.27,no,no,non-billable
2011-01-24,Avante Imaging Solutions,PruAZ BC - Ray Group,"",Production,Alison,Donato,"",0.2,no,no,non-billable
2011-01-24,zPersonal,Personal,"",personal,Denise,Marie,pick up allyssia,0.5,no,no,non-billable
2011-01-24,Prudential,"Buyers Guide Issue - December Listings, January Issue FH to HTML","",Production,Denise,Marie,"",0.5,no,no,billable
2011-01-24,Prudential,AgentNews 0211,"",Production,Denise,Marie,bendy sobel newsletter,0.25,no,no,non-billable
2011-01-24,Prudential,"Buyers Guide Issue - December Listings, January Issue FH to HTML","",Production,Alison,Donato,"",0.2,no,no,billable
2011-01-24,Prudential,Log January 2011,"",Schedule,Amber,Spain,"",3.1,no,no,billable
2011-01-24,Prudential,9 up All,"",Production,Denise,Marie,"",1.0,no,no,non-billable
2011-01-24,zPersonal,Personal,"",personal,Denise,Marie,"pt, dinner, misc",2.0,no,no,non-billable
2011-01-24,Prudential,AgentNews 0211,"",Production,Denise,Marie,bendy sobel newsletter,1.0,no,no,non-billable
2011-01-24,Prudential,Go2Tools Forms,"",web work,Denise,Marie,"",1.5,no,no,billable
2011-01-25,Prudential,Go2Tools Forms,"",web work,Denise,Marie,"",0.75,no,no,billable
2011-01-25,zPersonal,Personal,"",personal,Denise,Marie,"ally to pt, rent, school",2.0,no,no,non-billable
2011-01-25,Prudential,Go2Tools Forms,"",web work,Denise,Marie,"",1.65,no,no,billable
2011-01-25,Prudential,Log January 2011,"",Production,Alison,Donato,"",4.19,no,no,billable
2011-01-25,Prudential,Rob Drake & Kelly McLain-letterhead,"",Admin,Alison,Donato,"",0.12,no,no,non-billable
2011-01-25,Prudential,AgentNews 0211,"",Production,Denise,Marie,"",1.28,no,no,non-billable
2011-01-25,BryceFastener,Sorting / editing photo's taken at photoshoot,"",Production,Alison,Donato,"",1.49,no,no,billable
2011-01-25,BryceFastener,Redesign of BryceFastener.com,Bryce,web work,Denise,Marie,"",0.19,no,no,billable
2011-01-25,BryceFastener,Redesign of BryceFastener.com,Bryce,web work,Denise,Marie,"",0.5,no,no,billable
2011-01-25,BryceFastener,Rexitivity Book,"",Production,Denise,Marie,"",2.25,no,no,billable
2011-01-25,BryceFastener,Rexitivity Book,"",Production,Denise,Marie,"",0.5,no,no,billable
2011-01-25,BryceFastener,Rexitivity Book,"",Production,Denise,Marie,"",0.42,no,no,billable
2011-01-25,Avante Imaging Solutions,PruAZ BC - Ray Group,"",Production,Denise,Marie,"",0.25,no,no,non-billable
2011-01-25,Prudential,Log January 2011,"",Agent Assist,Denise,Marie,Charlotte,0.25,no,no,billable
2011-01-25,Avante Imaging Solutions,PruAZ BC - Cara Wright,"",Billing,Alison,Donato,"",0.12,no,no,non-billable
2011-01-25,Prudential,AgentNews 0211,"",Production,Alison,Donato,"",1.07,no,no,non-billable
2011-01-25,BryceFastener,Redesign of BryceFastener.com,Bryce,web work,Denise,Marie,file issues,0.25,no,no,billable
2011-01-25,Avante Imaging Solutions,PruAZ BC - Ray Group,"",Production,Denise,Marie,"",0.25,no,no,non-billable
2011-01-25,zPersonal,Personal,"",personal,Denise,Marie,pickup allyssia,0.5,no,no,non-billable
2011-01-25,BryceFastener,Redesign of BryceFastener.com,Bryce,web work,Denise,Marie,"",1.75,no,no,billable
2011-01-25,Prudential,Log January 2011,"",Schedule,Amber,Spain,"",2.0,no,no,billable
2011-01-25,zPersonal,Personal,"",personal,Denise,Marie,"",1.5,no,no,non-billable
2011-01-25,Prudential,Go2Tools Forms,"",web work,Denise,Marie,"",1.92,no,no,billable
2011-01-26,Prudential,Go2Tools Forms,"",web work,Denise,Marie,"",2.08,no,no,billable
2011-01-26,Prudential,Go2Tools Forms,"",web work,Denise,Marie,"",0.51,no,no,billable
2011-01-26,zPersonal,Personal,"",personal,Denise,Marie,"",0.25,no,no,non-billable
2011-01-26,Prudential,AgentNews 0211,"",Production,Denise,Marie,"",0.54,no,no,non-billable
2011-01-26,Prudential,Log January 2011,"",Production,Alison,Donato,"",2.02,no,no,billable
2011-01-26,Prudential,Go2Tools Forms,"",web work,Denise,Marie,"",1.8,no,no,billable
2011-01-26,Avante Imaging Solutions,PruAZ BC - Richard R. Uhl,"",Production,Alison,Donato,"",0.12,no,no,non-billable
2011-01-26,Prudential,AgentNews 0211,"",Production,Alison,Donato,"",5.24,no,no,non-billable
2011-01-26,BryceFastener,Meetings/Overall Account Management,"",Project Management,Denise,Marie,"",1.25,no,no,billable
2011-01-26,Prudential,Go2Tools Forms,"",web work,Denise,Marie,"",1.5,no,no,billable
2011-01-26,zPersonal,Personal,"",personal,Denise,Marie,pick up allyssia,0.75,no,no,non-billable
2011-01-26,Prudential,Go2Tools Forms,"",web work,Denise,Marie,"",1.25,no,no,billable
2011-01-26,zPersonal,Personal,"",personal,Denise,Marie,"rest, allyssia issue, homework, clean, dinner",5.0,no,no,non-billable
2011-01-27,zPersonal,Personal,"",personal,Denise,Marie,"dentist, house, organize, ally to school, misc",4.0,no,no,non-billable
2011-01-27,DMW Communications,Internal,"",Admin,Denise,Marie,organize,0.5,no,no,billable
2011-01-27,Prudential,Log January 2011,"",Agent Assist,Alison,Donato,"",5.81,no,no,billable
2011-01-27,zPersonal,Personal,"",personal,Denise,Marie,allyssia sick,1.0,no,no,non-billable
2011-01-27,BryceFastener,Rexitivity Book,"",Proofing,Denise,Marie,"",2.5,no,no,billable
2011-01-27,Prudential,Log January 2011,"",Admin,Denise,Marie,emails,0.25,no,no,non-billable
2011-01-27,Prudential,AgentNews 0211,"",Production,Denise,Marie,"",0.25,no,no,non-billable
2011-01-27,BryceFastener,Rexitivity Book,"",Production,Denise,Marie,"",0.61,no,no,billable
2011-01-27,Avante Imaging Solutions,PRUAMERICAN BC - Mike Gruener,"",Production,Alison,Donato,"",0.12,no,no,non-billable
2011-01-27,Prudential,Log January 2011,"",Agent Assist,Denise,Marie,review dana files,0.25,no,no,billable
2011-01-27,Prudential,Log January 2011,"",Agent Assist,Denise,Marie,sorting thru emails,0.25,no,no,billable
2011-01-27,zPersonal,Girl Scouts,"",personal,Denise,Marie,"",0.5,no,no,non-billable
2011-01-27,Prudential,Go2Tools Forms,"",web work,Denise,Marie,"",0.3,no,no,billable
2011-01-27,Avante Imaging Solutions,PruAZ BC - Maria Mathern,"",Billing,Alison,Donato,"",0.2,no,no,non-billable
2011-01-27,Avante Imaging Solutions,PruAZ BC - Fiona Saulness,"",Billing,Alison,Donato,"",0.12,no,no,non-billable
2011-01-27,Avante Imaging Solutions,PruAZ BC - Scott Peay,"",Billing,Alison,Donato,"",0.2,no,no,non-billable
2011-01-27,Ray Group,Just Sold Postcard,"",Layout/Design,Denise,Marie,"",0.33,no,no,billable
2011-01-27,Ray Group,Just Sold Postcard,"",Layout/Design,Denise,Marie,"",0.68,no,no,billable
2011-01-27,zPersonal,House Stuff1,"",personal,Denise,Marie,"",0.5,no,no,non-billable
2011-01-27,Prudential,Go2Tools Forms,"",web work,Denise,Marie,"",1.0,no,no,billable
2011-01-27,DMW Communications,Internal,"",Admin,Matthew,Fitzgerald,"",0.3,no,no,billable
2011-01-27,Merrymanministries,Make HTML Changes,"",web work,Matthew,Fitzgerald,"",1.21,no,no,billable
2011-01-27,Prudential,Go2Tools Forms,"",web work,Matthew,Fitzgerald,"",0.78,no,no,billable
2011-01-27,zPersonal,House Stuff1,"",personal,Denise,Marie,"",0.75,no,no,non-billable
2011-01-27,Prudential,Go2Tools Forms,"",web work,Denise,Marie,"",2.0,no,no,billable
2011-01-27,In The Word,Upload Disks to HTML and configure,"",web work,Matthew,Fitzgerald,"",1.39,no,no,billable
2011-01-27,Prudential,Log January 2011,"",Schedule,Amber,Spain,"",1.8,no,no,billable
2011-01-27,zPersonal,House Stuff1,"",personal,Denise,Marie,"",1.0,no,no,non-billable
2011-01-27,Prudential,Go2Tools Forms,"",web work,Denise,Marie,"",0.79,no,no,billable
2011-01-28,Prudential,Log January 2011,"",Agent Assist,Alison,Donato,"",6.0,no,no,billable
2011-01-28,Prudential,AgentNews 0211,"",Billing,Alison,Donato,"",2.0,no,no,non-billable
2011-01-28,Prudential,Go2Tools Forms,"",web work,Matthew,Fitzgerald,"",3.51,no,no,billable
2011-01-28,zPersonal,Personal,"",personal,Denise,Marie,new doctor,5.5,no,no,non-billable
2011-01-28,Prudential,Go2Tools Forms,"",web work,Denise,Marie,"",1.5,no,no,billable
2011-01-28,Prudential,Log January 2011,"",Agent Assist,Denise,Marie,chris burrows,0.25,no,no,billable
2011-01-28,Prudential,Log January 2011,"",Agent Assist,Denise,Marie,cj mavor,0.25,no,no,billable
2011-01-28,Prudential,Log January 2011,"",Agent Assist,Denise,Marie,chris fretland,0.25,no,no,billable
2011-01-28,Prudential,Go2Tools Forms,"",web work,Denise,Marie,"",4.38,no,no,billable
2011-01-28,DMW Communications,Pick up Ally from School,"",Clerical,Matthew,Fitzgerald,"",0.58,no,no,billable
2011-01-28,Merrymanministries,Make HTML Changes,"",web work,Matthew,Fitzgerald,"",0.34,no,no,billable
2011-01-28,Prudential,Go2Tools,"",web work,Matthew,Fitzgerald,"",0.25,no,no,billable
2011-01-28,BryceFastener,Pick up Rexitivity Proof from Avante,"",Clerical,Matthew,Fitzgerald,"",1.59,no,no,billable
2011-01-28,Prudential,Recruit - January 2011,"",Production,Denise,Marie,"",0.25,no,no,billable
2011-01-28,BryceFastener,Rexitivity Book,"",Production,Denise,Marie,send to bryce,0.25,no,no,billable
2011-01-28,Prudential,Go2Tools Forms,"",web work,Denise,Marie,home page issue,0.5,no,no,billable
2011-01-28,Prudential,Log January 2011,"",Schedule,Amber,Spain,"",2.5,no,no,billable
2011-01-28,Ray Group,Just Sold Postcard,"",Production,Denise,Marie,"",0.83,no,no,billable
2011-01-28,Prudential,Recruit - January 2011,"",Production,Denise,Marie,"",0.38,no,no,billable
2011-01-29,Prudential,Go2Tools Forms,"",Proofing,Denise,Marie,"",2.0,no,no,billable
2011-01-29,zPersonal,House Stuff1,"",personal,Denise,Marie,"",2.5,no,no,non-billable
2011-01-29,zPersonal,House Stuff1,"",personal,Denise,Marie,house/allyssia,1.0,no,no,non-billable
2011-01-29,Avante Imaging Solutions,PruAZ BC - CJ Mavor,"",Production,Denise,Marie,"",0.86,no,no,billable
2011-01-29,Prudential,Go2Tools Forms,"",web work,Denise,Marie,"",1.0,no,no,billable
2011-01-29,Prudential,Go2Tools Forms,"",web work,Denise,Marie,"",2.58,no,no,billable
2011-01-29,BryceFastener,Redesign of BryceFastener.com,Bryce,web work,Matthew,Fitzgerald,SEO Testing,2.66,no,no,billable
2011-01-29,Prudential,Log January 2011,"",Schedule,Amber,Spain,"",4.01,no,no,billable
2011-01-29,zPersonal,Personal,"",personal,Denise,Marie,"",1.25,no,no,non-billable
2011-01-29,Prudential,Log January 2011,"",Production,Denise,Marie,"",0.25,no,no,billable
2011-01-29,Prudential,Log January 2011,"",Production,Denise,Marie,"",1.02,no,no,billable
2011-01-30,Avante Imaging Solutions,PruAZ BC Nancy McLean,"",Billing,Denise,Marie,"",0.1,yes,no,billable
2011-01-30,Avante Imaging Solutions,Commission - Prudential Door Hangers,"",Billing,Denise,Marie,"",0.1,yes,no,billable
2011-01-30,DMW Communications,Internal,"",Billing,Denise,Marie,"",1.5,no,no,billable
2011-01-30,DMW Communications,Internal,"",Billing,Denise,Marie,"",1.0,no,no,billable
2011-01-29,DMW Communications,Internal,"",Admin,Denise,Marie,research job tracking programs,2.0,no,no,billable
2011-01-30,Prudential,Go2Tools,"",web work,Denise,Marie,"",1.1,no,no,billable
2011-01-30,zPersonal,Cinderella,"",personal,Denise,Marie,"",1.5,no,no,non-billable
2011-01-30,zPersonal,House Stuff1,"",personal,Denise,Marie,"",1.33,no,no,non-billable
2011-01-30,Prudential,Go2Tools,"",web work,Denise,Marie,"",4.5,no,no,billable
2011-01-30,zPersonal,Personal,"",personal,Denise,Marie,"",1.25,no,no,non-billable
2011-01-30,Prudential,Recruit - January 2011,"",Production,Denise,Marie,redesign masthead,1.0,no,no,billable
2011-01-31,Prudential,Log January 2011,"",Production,Alison,Donato,"",4.5,no,no,billable
2011-01-31,Avante Imaging Solutions,PruAZ BC - Scott Peay,"",Billing,Alison,Donato,"",0.25,no,no,non-billable
2011-01-31,Prudential,Log January 2011,"",Schedule,Amber,Spain,"",2.02,no,no,billable
2011-02-01,Prudential,Marketing Department Support - 01/11,"",Production,Alison,Donato,"",0.25,no,no,billable
2011-02-01,zPersonal,Personal,"",personal,Denise,Marie,"lice, clean, pt, organize",4.0,no,no,non-billable
2011-02-01,Prudential,Agent Excelerator Monthly Retainer – February 2011,"",Project Management,Denise,Marie,organize go through files,0.5,no,no,billable
2011-02-01,Prudential,Log February 2011,"",Agent Assist,Alison,Donato,"",7.25,no,no,billable
2011-02-01,Prudential,Agent Excelerator Monthly Retainer – February 2011,"",Agent Assist,Denise,Marie,Jon Chaffee,0.25,no,no,billable
2011-02-01,Prudential,Agent Excelerator Monthly Retainer – February 2011,"",Agent Assist,Denise,Marie,Tim - QR Code ?,0.25,no,no,billable
2011-02-01,Prudential,Recruit - January 2011,"",Production,Denise,Marie,"",1.0,no,no,billable
2011-02-01,Prudential,Recruit - January 2011,"",Production,Denise,Marie,"",0.85,no,no,billable
2011-02-01,Prudential,Agent Excelerator Monthly Retainer – February 2011,"",Agent Assist,Denise,Marie,chris burrow - qr code question,0.54,no,no,billable
2011-02-01,Prudential,Go2Tools,"",web work,Denise,Marie,redirect prutools to go2tools,0.25,no,no,billable
2011-02-01,Prudential,Go2Tools,"",web work,Denise,Marie,test live help,0.25,no,no,billable
2011-02-01,BryceFastener,Power Point,"",Production,Denise,Marie,"",0.75,no,no,billable
2011-02-01,BryceFastener,Redesign of BryceFastener.com,Bryce,web work,Matthew,Fitzgerald,SEO Testing,1.51,no,no,billable
2011-02-01,BryceFastener,Meetings/Overall Account Management,"",web work,Matthew,Fitzgerald,Domain Account Testing / redirecting,0.34,no,no,billable
2011-02-01,Avante Imaging Solutions,PruAZ BC - CJ Mavor,"",Billing,Alison,Donato,"",0.25,no,no,billable
2011-02-01,BryceFastener,Sorting / editing photo's taken at photoshoot,"",Layout/Design,Matthew,Fitzgerald,"",1.0,no,no,billable
2011-02-01,Prudential,Log February 2011,"",Schedule,Amber,Spain,"",3.01,no,no,billable
2011-02-02,BryceFastener,Power Point,"",Production,Denise,Marie,"",0.75,no,no,billable
2011-02-02,Prudential,Agent Excelerator Monthly Retainer – February 2011,"",Project Management,Denise,Marie,"",0.25,no,no,billable
2011-02-01,BryceFastener,Power Point,"",Production,Denise,Marie,"",2.0,no,no,billable
2011-02-01,zPersonal,health issues,"",Admin,Denise,Marie,"",2.0,no,no,non-billable
2011-02-02,BryceFastener,Power Point,"",Production,Denise,Marie,"",3.0,no,no,billable
2011-02-02,zPersonal,health issues,"",Admin,Denise,Marie,ally sick,1.0,no,no,non-billable
2011-02-02,Prudential,Log February 2011,"",Production,Alison,Donato,"",6.75,no,no,billable
2011-02-02,BryceFastener,Sorting / editing photo's taken at photoshoot,"",Billing,Alison,Donato,"",0.5,no,no,billable
2011-02-02,Prudential,Agent Excelerator Monthly Retainer – February 2011,"",Agent Assist,Denise,Marie,Chris Burrows,0.25,no,no,billable
2011-02-02,zPersonal,health issues,"",Admin,Denise,Marie,"",2.0,no,no,non-billable
2011-02-02,Ray Group,Just Sold Postcard,"",Billing,Alison,Donato,"",0.25,no,no,billable
2011-02-02,BryceFastener,Power Point,"",Layout/Design,Matthew,Fitzgerald,"",3.0,no,no,billable
2011-02-02,Prudential,Log February 2011,"",Schedule,Amber,Spain,"",2.08,no,no,billable
2011-02-02,Prudential,Agent Excelerator Monthly Retainer – February 2011,"",PruAdmin,Denise,Marie,chris coodination,0.5,no,no,billable
2011-02-02,Prudential,Agent Excelerator Monthly Retainer – February 2011,"",PruAdmin,Denise,Marie,ken waters,0.25,no,no,billable
2011-02-03,Prudential,Corporate Newsletter = 0111,"",Production,Denise,Marie,"",2.0,no,no,billable
2011-02-03,Prudential,Agent Excelerator Monthly Retainer – February 2011,"",PruAdmin,Denise,Marie,processing emails,0.5,no,no,billable
2011-02-03,Prudential,Log February 2011,"",Production,Alison,Donato,"",7.25,no,no,billable
2011-02-03,Avante Imaging Solutions,PruAZ BC - Jim Corsaro,"",Billing,Alison,Donato,"",0.25,no,no,non-billable
2011-02-03,Prudential,Agent Excelerator Monthly Retainer – February 2011,"",Agent Assist,Denise,Marie,Shari Baker - Signage (Live Chat),0.25,no,no,billable
2011-02-03,Prudential,Agent Excelerator Monthly Retainer – February 2011,"",Agent Assist,Denise,Marie,Beverly Distler - Signage,0.25,no,no,billable
2011-02-03,Prudential,Marketing Department Support - 02/11,"",Photo/File Search for Agents/Marketing Department,Denise,Marie,pull FH icon for Kathy,0.25,no,no,billable
2011-02-03,Prudential,Corporate Newsletter = 0111,"",Production,Denise,Marie,"",2.1,no,no,billable
2011-02-03,Prudential,Agent Excelerator Monthly Retainer – February 2011,"",Agent Assist,Denise,Marie,Fiona Saulness - web question,0.25,no,no,billable
2011-02-03,Prudential,Agent Excelerator Monthly Retainer – February 2011,"",Agent Assist,Denise,Marie,Joe McKowen,0.25,no,no,billable
2011-02-03,Prudential,Agent Excelerator Monthly Retainer – February 2011,"",Agent Assist,Denise,Marie,Jim Krivic (sp) pulled logos,0.25,no,no,billable
2011-02-03,zPersonal,House Stuff1,"",personal,Denise,Marie,"",0.75,no,no,non-billable
2011-02-03,Prudential,Agent Excelerator Monthly Retainer – February 2011,"",Project Management,Denise,Marie,processing,0.25,no,no,billable
2011-02-03,Prudential,Marketing Department Support - 02/11,"",Photo/File Search for Agents/Marketing Department,Denise,Marie,digital magazine pricing,0.5,no,no,billable
2011-02-03,Prudential,Agent Excelerator Monthly Retainer – February 2011,"",Project Management,Denise,Marie,"",0.25,no,no,billable
2011-02-03,zPersonal,health issues,"",Admin,Denise,Marie,"",0.75,no,no,non-billable
2011-02-03,Prudential,"Buyers Guide Issue - December Listings, January Issue FH to HTML","",web work,Denise,Marie,"",0.81,no,no,billable
2011-02-03,Prudential,Corporate Newsletter = 0111,"",Production,Denise,Marie,"",2.0,no,no,billable
2011-02-03,Prudential,Agent Excelerator Monthly Retainer – February 2011,"",Agent Assist,Matthew,Fitzgerald,"",0.46,no,no,billable
2011-02-03,Avante Imaging Solutions,PruAZ BC - Belcher,"",Billing,Alison,Donato,"",0.25,no,no,non-billable
2011-02-03,Merrymanministries,Transfer merrymanministries.com domain to HostGator,"",web work,Matthew,Fitzgerald,"",0.89,no,no,billable
2011-02-03,BryceFastener,Power Point,"",Layout/Design,Matthew,Fitzgerald,"",1.89,no,no,billable
2011-02-03,In The Word,Upload Disks to HTML and configure,"",web work,Matthew,Fitzgerald,"",0.8,no,no,billable
2011-02-03,zPersonal,House Stuff1,"",personal,Denise,Marie,"",2.0,no,no,non-billable
2011-02-03,Prudential,Log February 2011,"",Schedule,Amber,Spain,"",1.05,no,no,billable
2011-02-04,BryceFastener,Power Point,"",Production,Denise,Marie,logo adjustments,2.0,no,no,billable
2011-02-04,BryceFastener,Power Point,"",Production,Denise,Marie,changes,0.5,no,no,billable
2011-02-04,Prudential,Corporate Newsletter = 0111,"",Production,Denise,Marie,"",0.35,no,no,billable
2011-02-04,zPersonal,health issues,"",Admin,Denise,Marie,pt allyssia,2.0,no,no,non-billable
2011-02-04,Prudential,Log February 2011,"",Production,Alison,Donato,"",4.25,no,no,billable
2011-02-04,zPersonal,health issues,"",Admin,Denise,Marie,"",0.5,no,no,non-billable
2011-02-04,BryceFastener,Power Point,"",Layout/Design,Matthew,Fitzgerald,"",1.5,no,no,billable
2011-02-04,DMW Communications,Training Jordan,"",Clerical,Matthew,Fitzgerald,"",0.5,no,no,billable
2011-02-04,DMW Communications,Training Jordan,"",Clerical,Jordan,Savage,"",0.49,no,no,billable
2011-02-04,Prudential,Log February 2011,"",Production,Jordan,Savage,"",0.78,no,no,billable
2011-02-04,Merrymanministries,Transfer merrymanministries.com domain to HostGator,"",web work,Matthew,Fitzgerald,"",0.07,no,no,billable
2011-02-04,BryceFastener,Power Point,"",Proofing,Jordan,Savage,"",0.31,no,no,billable
2011-02-04,BryceFastener,Power Point,"",Production,Alison,Donato,"",0.75,no,no,billable
2011-02-04,Prudential,AgentNews 0211,"",Billing,Alison,Donato,"",2.25,no,no,non-billable
2011-02-04,Merrymanministries,Transfer merrymanministries.com domain to HostGator,"",web work,Matthew,Fitzgerald,"",3.23,no,no,billable
2011-02-04,zPersonal,health issues,"",Clerical,Jordan,Savage,"",1.0,no,no,non-billable
2011-02-05,BryceFastener,Power Point,"",Layout/Design,Matthew,Fitzgerald,"",0.09,no,no,billable
2011-02-05,Ray Group,Just Sold Postcard,"",Production,Matthew,Fitzgerald,"",0.78,no,no,billable
