Customer,Telephone 1,Customer E-mail
"Albu & Associates, Inc.",407-788-1450,
Argus Constructors,407-841-0692,peggy@argusc.com
Accutech Construction Inc.,407-292-9007,
AD Owens,407-228-6485,edore@adowens.com
A.K. Holcomb Construction,407-849-0436,
Brassfield & Gorrie,407-562-4500,
BG Southern Division,407-258-8900,gziegler@bgsouthern.com
Bay Hill Occhiali,407-219-3200,
Barton Malow,407-352-8880,
Beverly McNeil,407-691-1738,
Barb & Tim Shipe,407-851-4057,
Collage Companies Construction,407.829.2257,info@collage-usa.com
Charles Perry Construction,407-977-1555,
"Kre8 Media, Inc.",407-644-34354,rob@CRTstudio.com
Children's Surgery Center,407-748-4616,
Daniels Corporation,407-644-6900,
Design Enterprises,407-830-1414,
Desmond Lily,,
Florida Hospital,407-303-2815,
Florida Hospital Winter Park,407-646-7355,
Freese Construction,407-373-6000,matthew@freeseco.com
Gomez Construction,407-628-4353,
Gainsborough Group,407-850-0092,
Harbco Construction,407-422-4272,
Hembree Construction,407-841-9460,
Harkins Development Corporation,407-323-9310,
HDE Incorporated,407-829-8431,
Hutton Enterprises,407-947-0369,
Halifax Health - Fac. Operations,386-258-4811,
HW Davis Construction,407-849-1212,
JD McGraw & Company,407-688-8235,jduff@cfl.rr.com
"Dr. John Jenkins, MD",407-303-4622,
J K Skorman,407-253-2001,
J. Raymond Construction,407-862-6966,tlail@jray.com
Lamm & Company Partners,407-895-2525,
Larry Holt and Randy Smith,321-868-7906,
Mark Baker Events,407-491-6562,
"Mulligan Constructors, Inc.",407-654-6523,
Macdade Construction Inc.,407-415-7749,tony@macdadeconstruction.com
Osceola Reginal Medical Center,407-518-3578,david.oneill@healthcare.com
PBA Building Corp.,407-482-8282,
Pillar Group,352-394-1032,
PHM Group,941-750-9333,
Phil Kean Designs,407-599-3922,
Remington College,407-562-5500,
Riker Duley Construction,321-206-3399,
Relax in Comfort,,
Solaire Condos,,
"Schenck, Herman & Mary",813-421-4214,
Shred - it,407-956-8480,
SunTrust Corporate Real Estate,407-237-4330,
Tanner and Company,407-545-4700,PT@TannerAndCompany.com
Turner Construction,407-210-2542,
Terra Firma Construction,407-294-5656,
"T & T Contracting Group, Inc.",407-478-3671,
Vista Constructors,407-862-9650,Tom@vistaconstructorsinc.com
Vascular Real Estate Investments,,
Wycliff Bible Translators,407-852-3600,
Wally Henderson,407-257-9292,
Winter Park Construction,407-644-8923,
Walsh Residence,954-882-6226,
Watermark Solid Surface,615-291-6111,
