Name,Given Name,Additional Name,Family Name,Yomi Name,Given Name Yomi,Additional Name Yomi,Family Name Yomi,Name Prefix,Name Suffix,Initials,Nickname,Short Name,Maiden Name,Birthday,Gender,Location,Billing Information,Directory Server,Mileage,Occupation,Hobby,Sensitivity,Priority,Subject,Notes,Group Membership,E-mail 1 - Type,E-mail 1 - Value,E-mail 2 - Type,E-mail 2 - Value,IM 1 - Type,IM 1 - Service,IM 1 - Value,Phone 1 - Type,Phone 1 - Value,Phone 2 - Type,Phone 2 - Value,Phone 3 - Type,Phone 3 - Value,Phone 4 - Type,Phone 4 - Value,Address 1 - Type,Address 1 - Formatted,Address 1 - Street,Address 1 - City,Address 1 - PO Box,Address 1 - Region,Address 1 - Postal Code,Address 1 - Country,Address 1 - Extended Address,Organization 1 - Type,Organization 1 - Name,Organization 1 - Yomi Name,Organization 1 - Title,Organization 1 - Department,Organization 1 - Symbol,Organization 1 - Location,Organization 1 - Job Description
AAAARG,AAAARG,,,,,,,,,,,,,,,,,,,,,,,,,,* ,someone@aaaarg.org,,,,,,,,,,,,,,,,,,,,,,,,,,,,,,
Aaron  Houts,Aaron,,Houts,,,,,,,,,,,,,,,,,,,,,,,bday ::: * My Contacts,* ,aahouts@gmail.com,,,,,,Mobile,6507038924,,,,,,,,,,,,,,,,,,,,,,,
Aaron Clark,Aaron,,Clark,,,,,,,,,,,,,,,,,,,,,,<sn>id:100000289151374/friendof:649204047</sn>,Starred in Android ::: bday ::: * Family ::: * My Contacts,* Other,aaron.t.clark@gmail.com,,,,,,Mobile,(831) 334-9529,Work,(831) 334-9529,,,,,,,,,,,,,,,,,,,,,
Aaron Nesbitt,Aaron,,Nesbitt,,,,,,,,,,,,,,,,,,,,,,,,* ,aknebitt@earthlink.net,,,,,,,,,,,,,,,,,,,,,,,,,,,,,,
"aaron.t.clark""",aaron.,t.,"clark""",,,,,,,,,,,,,,,,,,,,,,,ohlone ::: * My Contacts,* Home,aaron.t.clark@gmail.com,,,,,,,,,,,,,,,,,,,,,,,,,,,,,,
Adam Eads,Adam,,Eads,,,,,,,,,,,,,,,,,,,,,,<sn>id:721003700/friendof:649204047</sn>,bday ::: * My Contacts,* Other,adamonthebus@gmail.com,,,,,,Mobile,4155736074,,,,,,,,,,,,,,,,,,,,,,,
Adelheid Mers,Adelheid,,Mers,,,,,,,,,,,,,,,,,,,,,,,,* ,amers@saic.edu,,,,,,,,,,,,,,,,,,,,,,,,,,,,,,
Adrian Rasmussen,Adrian,,Rasmussen,,,,,,,,,,,,,,,,,,,,,,<sn>id:592919476/friendof:649204047</sn>,* My Contacts ::: bday,,,,,,,,Mobile,8313259164,,,,,,,,,,,,,,,,,,,,,,,
Ailin Conant,Ailin,,Conant,,,,,,,,,,,,,,,,,,,,,,<sn>id:520855330/friendof:649204047</sn>,* My Contacts,* Other,ailinconant@gmail.com,,,,,,Home,8314233926,Mobile,3475530362,,,,,,,,,,,,,,,,,,,,,
Ailin Conant,Ailin,,Conant,,,,,,,,,,,,,,,,,,,,,,,,* ,ailinconant@googlemail.com,,,,,,,,,,,,,,,,,,,,,,,,,,,,,,
Alderman Ellen Hartwell,Alderman,Ellen,Hartwell,,,,,,,,,,,,,,,,,,,,,,,,* ,contacteha@gmail.com,,,,,,,,,,,,,,,,,,,,,,,,,,,,,,
Alexandra Hitz Brullman,Alexandra,Hitz,Brullman,,,,,,,,,,,,,,,,,,,,,,,* My Contacts,,,,,,,,Mobile,447904840064,,,,,,,,,,,,,,,,,,,,,,,
Alicia Chester,Alicia,,Chester,,,,,,,,,,,,,,,,,,,,,,<sn>id:510615995/friendof:649204047</sn>,,* Other,alicia.d.chester@gmail.com,,,,,,,,,,,,,,,,,,,,,,,,,,,,,,
Alixandra Mullins,Alixandra,,Mullins,,,,,,,,,,,,,,,,,,,,,,,,* ,almullin@cabrillo.edu,,,,,,,,,,,,,,,,,,,,,,,,,,,,,,
,,,,,,,,,,,,,,,,,,,,,,,,,,,* ,alochh@artic.edu,,,,,,,,,,,,,,,,,,,,,,,,,,,,,,
amanda posner,amanda,,posner,,,,,,,,,,,,,,,,,,,,,,<sn>id:1216381234/friendof:649204047</sn>,bday ::: * My Contacts,Home,orangecakemix@gmail.com,* Other,adposner@gmail.com,,,,Mobile,7733320444,,,,,,,,,,,,,,,,,,,,,,,
Amanda Sommella,Amanda,,Sommella,,,,,,,,,,,,,,,,,,,,,,,* My Contacts,,,,,,,,Mobile,4159906786,,,,,,,,,,,,,,,,,,,,,,,
Amy Peeler,Amy,,Peeler,,,,,,,,,,,,,,,,,,,,,,,,* ,amy@scwomenshealth.org,,,,,,,,,,,,,,,,,,,,,,,,,,,,,,
Amy Peeler,Amy,,Peeler,,,,,,,,,,,,,,,,,,,,,,,,* ,yam8@pacbell.net,,,,,,,,,,,,,,,,,,,,,,,,,,,,,,
Anahata Neumann,Anahata,,Neumann,,,,,,,,,,,,,,,,,,,,,,,* My Contacts,,,,,,,,Mobile,8312346907,,,,,,,,,,,,,,,,,,,,,,,
andrea slavik,andrea,,slavik,,,,,,,,,,,,,,,,,,,,,,<sn>id:684114745/friendof:649204047</sn>,* My Contacts,* Other,andreaslavik8@hotmail.com,,,,,,Mobile,3124512687,,,,,,,,,,,,,,,,,,,,,,,
Andrew Janecki,Andrew,,Janecki,,,,,,,,,,,,,,,,,,,,,,,ohlone ::: * My Contacts,* Other,acjesq@got.net,,,,,,,,,,,,,,,,,,,,,,,,,,,,,,
Andrew Lochhead,Andrew,,Lochhead,,,,,,,,,,,,,,,,,,,,,,,,* ,andrew.rave.lochhead@gmail.com,,,,,,,,,,,,,,,,,,,,,,,,,,,,,,
Anke Trojan,Anke,,Trojan,,,,,,,,,,,,,,,,,,,,,,<sn>id:590746839/friendof:649204047</sn>,,* Other,anke.trojan@gmx.net,,,,,,,,,,,,,,,,,,,,,,,,,,,,,,
Ann  Nesbitt,Ann,,Nesbitt,,,,,,,,,,,,,,,,,,,,,,,,* ,lovemom.family@juno.com,,,,,,,,,,,,,,,,,,,,,,,,,,,,,,
Anne Fletcher,Anne,,Fletcher,,,,,,,,,,,,,,,,,,,,,,<sn>id:653590275/friendof:649204047</sn>,,* Other,afletcher@antioch-college.edu,,,,,,,,,,,,,,,,,,,,,,,,,,,,,,
Antoinette  Calderon,Antoinette,,Calderon,,,,,,,,,,,,,,,,,,,,,,,* My Contacts,* ,calhug@tele2.ch,,,,,,Home,044-273-2982,,,,,,,Home,"StreetRosengartenstr. 68
CH-8037 Zuerich
  
",,,,,,,,,,,,,,,
April Kester,April,,Kester,,,,,,,,,,,,,,,,,,,,,,,* My Contacts,,,,,,,,Mobile,8312399792,,,,,,,,,,,,,,,,,,,,,,,
,,,,,,,,,,,,,,,,,,,,,,,,,,,* ,areyes@bayfed.com,,,,,,,,,,,,,,,,,,,,,,,,,,,,,,
Ari Messer,Ari,,Messer,,,,,,,,,,,,,,,,,,,,,,<sn>id:543765799/friendof:649204047</sn>,,* Other,arimesser@yahoo.com,,,,,,,,,,,,,,,,,,,,,,,,,,,,,,
Aric Nesbitt,Aric,,Nesbitt,,,,,,,,,,,,,,,,,,,,,,<sn>id:71501440/friendof:649204047</sn>,,* Other,aric.nesbitt@gmail.com,,,,,,,,,,,,,,,,,,,,,,,,,,,,,,
,,,,,,,,,,,,,,,,,,,,,,,,,,,* ,aublake@cabrillo.edu,,,,,,,,,,,,,,,,,,,,,,,,,,,,,,
Augustus Bradley,Augustus,,Bradley,,,,,,,,,,,,,,,,,,,,,,<sn>id:634581209/friendof:649204047</sn>,* My Contacts,,,,,,,,Mobile,8315667773,,,,,,,,,,,,,,,,,,,,,,,
Aurelien Dudragne,Aurelien,,Dudragne,,,,,,,,,,,,,,,,,,,,,,,,* ,aureliendudragne@yahoo.fr,,,,,,,,,,,,,,,,,,,,,,,,,,,,,,
,,,,,,,,,,,,,,,,,,,,,,,,,,,* ,BDS036@co.santa-cruz.ca.us,,,,,,,,,,,,,,,,,,,,,,,,,,,,,,
Becky Adams,Becky,,Adams,,,,,,,,,,,,,,,,,,,,,,<sn>id:285401638/friendof:649204047</sn>,,* Other,elinui@gmail.com,,,,,,,,,,,,,,,,,,,,,,,,,,,,,,
"Beguhn, Gina [BSD] - PSY",Gina,[BSD] - PSY,Beguhn,,,,,,,,,,,,,,,,,,,,,,,,* ,gbeguhn@yoda.bsd.uchicago.edu,,,,,,,,,,,,,,,,,,,,,,,,,,,,,,
,,,,,,,,,,,,,,,,,,,,,,,,,,,* ,BenFain@mac.com,,,,,,,,,,,,,,,,,,,,,,,,,,,,,,
Benjamin Madeska,Benjamin,,Madeska,,,,,,,,,,,,,,,,,,,,,,,,,madeska@gmail.com,* ,bmades@saic.edu,,,,,,,,,,,,,,,,,,,,,,,,,,,,
Berit Schneeweiss,Berit,,Schneeweiss,,,,,,,,,,,,,,,,,,,,,,<sn>id:2911080/friendof:649204047</sn>,* My Contacts,* Other,bschneeweiss@gmail.com,,,,,,Mobile,6176101583,,,,,,,,,,,,,,,,,,,,,,,
Beth Nugent,Beth,,Nugent,,,,,,,,,,,,,,,,,,,,,,,,* ,cnugent@saic.edu,,,,,,,,,,,,,,,,,,,,,,,,,,,,,,
Bill Leland,Bill,,Leland,,,,,,,,,,,,,,,,,,,,,,,,* ,bleland7@gmail.com,,,,,,,,,,,,,,,,,,,,,,,,,,,,,,
Bill Manov,Bill,,Manov,,,,,,,,,,,,,,,,,,,,,,,* My Contacts,* ,bmanov@health.co.santa-cruz.ca.us,,,,,,,,,,,,,,,,,,,,,,,,,,,,,,
Bill Tysseling,Bill,,Tysseling,,,,,,,,,,,,,,,,,,,,,,,,* ,wtysseling@gmail.com,,,,,,,,,,,,,,,,,,,,,,,,,,,,,,
,,,,,,,,,,,,,,,,,,,,,,,,,,,* ,bill.manov@health.co.santa-cruz.ca.us,,,,,,,,,,,,,,,,,,,,,,,,,,,,,,
,,,,,,,,,,,,,,,,,,,,,,,,,,,* ,bill.tysseling@metizo.com,,,,,,,,,,,,,,,,,,,,,,,,,,,,,,
,,,,,,,,,,,,,,,,,,,,,,,,,,,* ,bill.tysseling@santacruzchamber.org,,,,,,,,,,,,,,,,,,,,,,,,,,,,,,
Billy Grams,Billy,,Grams,,,,,,,,,,,,,,,,,,,,,,<sn>id:2909096/friendof:649204047</sn>,* My Contacts,* Other,billy.grams@gmail.com,,,,,,Mobile,3862905347,,,,,,,,,,,,,,,,,,,,,,,
,,,,,,,,,,,,,,,,,,,,,,,,,,,* ,bluemistake@hotmail.com,,,,,,,,,,,,,,,,,,,,,,,,,,,,,,
Bob Aubrey,Bob,,Aubrey,,,,,,,,,,,,,,,,,,,,,,,* My Contacts,* Other,bob.aubrey@metizo.com,,,,,,,,,,,,,,,,,,,,,,,,Metizo,,,,,,
Bob Kennedy,Bob,,Kennedy,,,,,,,,,,,,,,,,,,,,,,,,* ,ENV001@co.santa-cruz.ca.us,,,,,,,,,,,,,,,,,,,,,,,,,,,,,,
,,,,,,,,,,,,,,,,,,,,,,,,,,,* ,Bobi_Hines84@yahoo.com,,,,,,,,,,,,,,,,,,,,,,,,,,,,,,
,,,,,,,,,,,,,,,,,,,,,,,,,,,* ,bobowaimg@gmail.com,,,,,,,,,,,,,,,,,,,,,,,,,,,,,,
,,,,,,,,,,,,,,,,,,,,,,,,,,,* ,br.vegan@gmail.com,,,,,,,,,,,,,,,,,,,,,,,,,,,,,,
Brian Esker,Brian,,Esker,,,,,,,,,,,,,,,,,,,,,,,,* ,besker@saic.edu,,,,,,,,,,,,,,,,,,,,,,,,,,,,,,
bryant cook,bryant,,cook,,,,,,,,,,,,,,,,,,,,,,<sn>id:573286375/friendof:649204047</sn>,* My Contacts,,,,,,,,Mobile,3123398324,,,,,,,,,,,,,,,,,,,,,,,
,,,,,,,,,,,,,,,,,,,,,,,,,,,* ,bschaa1@artic.edu,,,,,,,,,,,,,,,,,,,,,,,,,,,,,,
Bubs,Bubs,,,,,,,,,,,,,,,,,,,,,,,,,,* ,elquat@gmail.com,,,,,,,,,,,,,,,,,,,,,,,,,,,,,,
burnsjoan@cruzio.com,burnsjoan@cruzio.com,,,,,,,,,,,,,,,,,,,,,,,,,,* ,burnsjoan@cruzio.com,,,,,,,,,,,,,,,,,,,,,,,,,,,,,,
c hawley,c,,hawley,,,,,,,,,,,,,,,,,,,,,,,,* ,cahawley@live.com,,,,,,,,,,,,,,,,,,,,,,,,,,,,,,
Cabinet Magazine,Cabinet,,Magazine,,,,,,,,,,,,,,,,,,,,,,,,* ,subscriptions@cabinetmagazine.org,,,,,,,,,,,,,,,,,,,,,,,,,,,,,,
,,,,,,,,,,,,,,,,,,,,,,,,,,,* ,cagneykrutz@yahoo.com,,,,,,,,,,,,,,,,,,,,,,,,,,,,,,
Callie Hawley,Callie,,Hawley,,,,,,,,,,,,,,,,,,,,,,<sn>id:571118408/friendof:649204047</sn>,* My Contacts ::: bday,* Other,calliehawley@yahoo.com,,,,,,Mobile,2067154810,,,,,,,Home,"1418 2nd Ave W
Seattle WA 98119",,,,,,,,,,,,,,,
cara clark,cara,,clark,,,,,,,,,,,,,,,,,,,,,,<sn>id:572614464/friendof:649204047</sn>,* My Contacts,,,,,,,,Mobile,8313323009,,,,,,,,,,,,,,,,,,,,,,,
cara philips,cara,,philips,,,,,,,,,,,,,,,,,,,,,,,* My Contacts,* ,caramias@hotmail.com,,,,,,Mobile,7606960298,,,,,,,,,,,,,,,,,,,,,,,
Career Development,Career,,Development,,,,,,,,,,,,,,,,,,,,,,,,* ,careers@artic.edu,,,,,,,,,,,,,,,,,,,,,,,,,,,,,,
Carmen Robles,Carmen,,Robles,,,,,,,,,,,,,,,,,,,,,,,,* ,roblesc@co.santa-cruz.ca.us,,,,,,,,,,,,,,,,,,,,,,,,,,,,,,
Carrol Moran,Carrol,,Moran,,,,,,,,,,,,,,,,,,,,,,,,* ,carrol@elachieve.org,,,,,,,,,,,,,,,,,,,,,,,,,,,,,,
Carrol Moran,Carrol,,Moran,,,,,,,,,,,,,,,,,,,,,,,,* ,carrol@ucsc.edu,,,,,,,,,,,,,,,,,,,,,,,,,,,,,,
Carrol Moran,Carrol,,Moran,,,,,,,,,,,,,,,,,,,,,,,ohlone ::: * My Contacts,* Other,carrolm@me.com,,,,,,Home,(831) 425-7605,,,,,,,,,,,,,,,,,,,,,,,
Carrol_Moran,Carrol_Moran,,,,,,,,,,,,,,,,,,,,,,,,,,* ,carrol_moran@comcast.net,,,,,,,,,,,,,,,,,,,,,,,,,,,,,,
,,,,,,,,,,,,,,,,,,,,,,,,,,,* ,casey@bookshopsantacruz.com,,,,,,,,,,,,,,,,,,,,,,,,,,,,,,
,,,,,,,,,,,,,,,,,,,,,,,,,,,* ,catherine.r.lewis@gmail.com,,,,,,,,,,,,,,,,,,,,,,,,,,,,,,
Celina Aguilar,Celina,,Aguilar,,,,,,,,,,,,,,,,,,,,,,,,* ,LinaAguilar@gmail.com,,,,,,,,,,,,,,,,,,,,,,,,,,,,,,
Charlie Williams,Charlie,,Williams,,,,,,,,,,,,,,,,,,,,,,,,Home,ickydog@gmail.com,* ,charlie@ickydog.com,,,,,,,,,,,,,,,,,,,,,,,,,,,,
Charlotte Saenz,Charlotte,,Saenz,,,,,,,,,,,,,,,,,,,,,,,,* ,charlottesaenz@gmail.com,,,,,,,,,,,,,,,,,,,,,,,,,,,,,,
,,,,,,,,,,,,,,,,,,,,,,,,,,,* ,charlotte@aya.yale.edu,,,,,,,,,,,,,,,,,,,,,,,,,,,,,,
Chelsea Lord,Chelsea,,Lord,,,,,,,,,,,,,,,,,,,,,,,* My Contacts,,,,,,,,Mobile,8312122736,,,,,,,,,,,,,,,,,,,,,,,
Chelsea Lord,Chelsea,,Lord,,,,,,,,,,,,,,,,,,,,,,,* My Contacts ::: bday,* Other,greencleansc@gmail.com,,,,,,,,,,,,,,,,,,,,,,,,,,,,,,
,,,,,,,,,,,,,,,,,,,,,,,,,,,* ,cherilovedog@yahoo.com,,,,,,,,,,,,,,,,,,,,,,,,,,,,,,
"Childs, Emma [BSD] - PSY",Emma,[BSD] - PSY,Childs,,,,,,,,,,,,,,,,,,,,,,,,* ,echilds@yoda.bsd.uchicago.edu,,,,,,,,,,,,,,,,,,,,,,,,,,,,,,
Chris H,Chris,,H,,,,,,,,,,,,,,,,,,,,,,,* My Contacts,* ,schrish@gmail.com,,,,,,,,,,,,,,Home,"1418 2nd Ave W.
Seattle WA 98119
",,,,,,,,,,,,,,,
chris nania,chris,,nania,,,,,,,,,,,,,,,,,,,,,,<sn>id:82100670/friendof:649204047</sn>,* My Contacts,,,,,,,,Mobile,6086977588,,,,,,,,,,,,,,,,,,,,,,,
,,,,,,,,,,,,,,,,,,,,,,,,,,,* ,christacusumano@gmail.com,,,,,,,,,,,,,,,,,,,,,,,,,,,,,,
Christine Sippl,Christine,,Sippl,,,,,,,,,,,,,,,,,,,,,,,,* ,csippl@health.co.santa-cruz.ca.us,,,,,,,,,,,,,,,,,,,,,,,,,,,,,,
,,,,,,,,,,,,,,,,,,,,,,,,,,,* ,christine.sippl@health.co.santa-cruz.ca.us,,,,,,,,,,,,,,,,,,,,,,,,,,,,,,
Christy Hawley,Christy,,Hawley,,,,,,,,,,,,,,,,,,,,,,,* My Contacts ::: bday,* ,christyanne_36@hotmail.com,,,,,,Mobile,8314238712,,,,,,,Home,"122 Kirby Street
Santa Cruz CA 95060
USA",,,,,,,,,,,,,,,
,,,,,,,,,,,,,,,,,,,,,,,,,,,* ,christyh@cruzio.com,,,,,,,,,,,,,,,,,,,,,,,,,,,,,,
,,,,,,,,,,,,,,,,,,,,,,,,,,,* ,ckirlin11@gmail.com,,,,,,,,,,,,,,,,,,,,,,,,,,,,,,
,,,,,,,,,,,,,,,,,,,,,,,,,,,* ,cknigh@saic.edu,,,,,,,,,,,,,,,,,,,,,,,,,,,,,,
Clark Family,Clark,,Family,,,,,,,,,,,,,,,,,,,,,,,* My Contacts,,,,,,,,Mobile,7708449638,,,,,,,,,,,,,,,,,,,,,,,
,,,,,,,,,,,,,,,,,,,,,,,,,,,* ,cleder@saic.edu,,,,,,,,,,,,,,,,,,,,,,,,,,,,,,
ClickShake Games,ClickShake,,Games,,,,,,,,,,,,,,,,,,,,,,,,* ,contact@clickshakegames.com,,,,,,,,,,,,,,,,,,,,,,,,,,,,,,
,,,,,,,,,,,,,,,,,,,,,,,,,,,* ,cnugen@saic.edu,,,,,,,,,,,,,,,,,,,,,,,,,,,,,,
,,,,,,,,,,,,,,,,,,,,,,,,,,,* ,coastiegirlfs@yahoo.com,,,,,,,,,,,,,,,,,,,,,,,,,,,,,,
collaboration station,collaboration,,station,,,,,,,,,,,,,,,,,,,,,,,,* ,sciumbatenhauer@gmail.com,,,,,,,,,,,,,,,,,,,,,,,,,,,,,,
cori kipps,cori,,kipps,,,,,,,,,,,,,,,,,,,,,,,* My Contacts ::: bday,,,,,,,,Mobile,8313324485,,,,,,,,,,,,,,,,,,,,,,,
Corinne Clawson,Corinne,,Clawson,,,,,,,,,,,,,,,,,,,,,,,,* ,corinneclawson@gmail.com,,,,,,,,,,,,,,,,,,,,,,,,,,,,,,
Credit Union,Credit,,Union,,,,,,,,,,,,,,,,,,,,,,,* My Contacts,,,,,,,,Mobile,8314257708,,,,,,,,,,,,,,,,,,,,,,,
,,,,,,,,,,,,,,,,,,,,,,,,,,,* ,crhee@artic.edu,,,,,,,,,,,,,,,,,,,,,,,,,,,,,,
Crispin Rosenkranz,Crispin,,Rosenkranz,,,,,,,,,,,,,,,,,,,,,,<sn>id:695497095/friendof:649204047</sn>,,* Other,crispinrosenkranz@yahoo.com,,,,,,,,,,,,,,,,,,,,,,,,,,,,,,
,,,,,,,,,,,,,,,,,,,,,,,,,,,* ,crissiblake@yahoo.com,,,,,,,,,,,,,,,,,,,,,,,,,,,,,,
,,,,,,,,,,,,,,,,,,,,,,,,,,,* ,crosslist@pd.org,,,,,,,,,,,,,,,,,,,,,,,,,,,,,,
crystal cristallo,crystal,,cristallo,,,,,,,,,,,,,,,,,,,,,,,* My Contacts,,,,,,,,Mobile,566-6427,,,,,,,,,,,,,,,,,,,,,,,
Curt Taylor,Curt,,Taylor,,,,,,,,,,,,,,,,,,,,,,,* My Contacts,* ,fifthchakra@prodigy.net,,,,,,Mobile,7732385101,,,,,,,,,,,,,,,,,,,,,,,
"Curtis, Matthew D",Matthew,D,Curtis,,,,,,,,,,,,,,,,,,,,,,,,* ,mdcurtis@cps.k12.il.us,,,,,,,,,,,,,,,,,,,,,,,,,,,,,,
Cynthia Adams,Cynthia,,Adams,,,,,,,,,,,,,,,,,,,,,,,,* ,cynthiapond@cruzio.com,,,,,,,,,,,,,,,,,,,,,,,,,,,,,,
,,,,,,,,,,,,,,,,,,,,,,,,,,,* ,cyusem@saic.edu,,,,,,,,,,,,,,,,,,,,,,,,,,,,,,
Dahlia Tulett,Dahlia,,Tulett,,,,,,,,,,,,,,,,,,,,,,,,* ,dtulet@saic.edu,,,,,,,,,,,,,,,,,,,,,,,,,,,,,,
Dakota Brown,Dakota,,Brown,,,,,,,,,,,,,,,,,,,,,,,,* ,jbrown7@artic.edu,,,,,,,,,,,,,,,,,,,,,,,,,,,,,,
Dan Pruitt,Dan,,Pruitt,,,,,,,,,,,,,,,,,,,,,,,* My Contacts,,,,,,,,Mobile,8318181491,,,,,,,,,,,,,,,,,,,,,,,
Dane Cervine,Dane,,Cervine,,,,,,,,,,,,,,,,,,,,,,,,* ,dcervine@health.co.santa-cruz.ca.us,,,,,,,,,,,,,,,,,,,,,,,,,,,,,,
Daniel Hughes,Daniel,,Hughes,,,,,,,,,,,,,,,,,,,,,,<sn>id:1386135503/friendof:649204047</sn>,* My Contacts ::: bday,,,,,,,,Mobile,8313340545,,,,,,,,,,,,,,,,,,,,,,,
Danielle Leventhal,Danielle,,Leventhal,,,,,,,,,,,,,,,,,,,,,,,,* ,danileventhal@yahoo.com,,,,,,,,,,,,,,,,,,,,,,,,,,,,,,
Danielle Sommer,Danielle,,Sommer,,,,,,,,,,,,,,,,,,,,,,<sn>id:1543119096/friendof:649204047</sn>,,* Other,asahel1910@gmail.com,,,,,,,,,,,,,,,,,,,,,,,,,,,,,,
Danny Dineen,Danny,,Dineen,,,,,,,,,,,,,,,,,,,,,,<sn>id:1032271116/friendof:649204047</sn>,* My Contacts ::: bday,* Other,dannydineen@gmail.com,,,,,,,,,,,,,,,,,,,,,,,,,,,,,,
Darcy Bean,Darcy,,Bean,,,,,,,,,,,,,,,,,,,,,,,,* ,bean.junior@gmail.com,,,,,,,,,,,,,,,,,,,,,,,,,,,,,,
darcy@omrealtygroup.com,darcy@omrealtygroup.com,,,,,,,,,,,,,,,,,,,,,,,,,,* ,darcy@omrealtygroup.com,,,,,,,,,,,,,,,,,,,,,,,,,,,,,,
Darren Willett,Darren,,Willett,,,,,,,,,,,,,,,,,,,,,,,* My Contacts ::: bday,,,,,,,,Mobile,3108503757,,,,,,,,,,,,,,,,,,,,,,,
Darren Willett,Darren,,Willett,,,,,,,,,,,,,,,,,,,,,,,* My Contacts ::: bday,,,,,,,,Mobile,3108503757,,,,,,,,,,,,,,,,,,,,,,,
darryl collins,darryl,,collins,,,,,,,,,,,,,,,,,,,,,,,* My Contacts,,,,,,,,Mobile,7089791896,,,,,,,,,,,,,,,,,,,,,,,
David Blunt,David,,Blunt,,,,,,,,,,,,,,,,,,,,,,,* My Contacts,,,,,,,,Mobile,4156906699,,,,,,,,,,,,,,,,,,,,,,,
David Rudesill,David,,Rudesill,,,,,,,,,,,,,,,,,,,,,,,* My Contacts ::: bday,* Other,pingpongprince@gmail.com,,,,,,Mobile,8315353491,,,,,,,,,,,,,,,,,,,,,,,
davin heckman,davin,,heckman,,,,,,,,,,,,,,,,,,,,,,,* My Contacts,* Other,davinheckman@gmail.com,,,,,,Mobile,5172635155,,,,,,,,,,,,,,,,,,,,,,,
,,,,,,,,,,,,,,,,,,,,,,,,,,,* ,dbcgab@gmail.com,,,,,,,,,,,,,,,,,,,,,,,,,,,,,,
De Andre Shelton,De,Andre,Shelton,,,,,,,,,,,,,,,,,,,,,,,,* ,dre1shelton@gmail.com,,,,,,,,,,,,,,,,,,,,,,,,,,,,,,
de Wit Laboratory,de,Wit,Laboratory,,,,,,,,,,,,,,,,,,,,,,,,* ,dewitlab@yoda.bsd.uchicago.edu,,,,,,,,,,,,,,,,,,,,,,,,,,,,,,
Dena Taylor,Dena,,Taylor,,,,,,,,,,,,,,,,,,,,,,,ohlone ::: * My Contacts,* ,detaylor@cabrillo.edu,,,,,,,,,,,,,,,,,,,,,,,,,,,,,,
Dennis Lafferty,Dennis,,Lafferty,,,,,,,,,,,,,,,,,,,,,,<sn>id:654850625/friendof:649204047</sn>,* My Contacts,,,,,,,,Mobile,7733433377,,,,,,,,,,,,,,,,,,,,,,,
Devin Saunders,Devin,,Saunders,,,,,,,,,,,,,,,,,,,,,,<sn>id:100000374595390/friendof:649204047</sn>,* My Contacts ::: bday,,,,,,,,Mobile,8315662964,,,,,,,,,,,,,,,,,,,,,,,
diane pfotenhauer wren,diane,pfotenhauer,wren,,,,,,,,,,,,,,,,,,,,,," 
",* My Contacts ::: bday,* ,diane@ospreypacks.com,,,,,,,,,,,,,,,,,,,,,,,,,,,,,,
diane_wren557@yahoo.com,diane_wren557@yahoo.com,,,,,,,,,,,,,,,,,,,,,,,,,,* ,diane_wren557@yahoo.com,,,,,,,,,,,,,,,,,,,,,,,,,,,,,,
Divya Menon,Divya,,Menon,,,,,,,,,,,,,,,,,,,,,,<sn>id:775724973/friendof:649204047</sn>,,* Other,dmenon83@yahoo.com,,,,,,,,,,,,,,,,,,,,,,,,,,,,,,
Divya Menon,Divya,,Menon,,,,,,,,,,,,,,,,,,,,,,<sn>id:775724973/friendof:649204047</sn>,* My Contacts,* Other,jaded83@gmail.com,,,,,,Mobile,7188010562,,,,,,,,,,,,,,,,,,,,,,,
Divya Menon Kohn,Divya,Menon,Kohn,,,,,,,,,,,,,,,,,,,,,,,,* ,divyamenonkohn@gmail.com,,,,,,,,,,,,,,,,,,,,,,,,,,,,,,
,,,,,,,,,,,,,,,,,,,,,,,,,,,* ,dkalec@saic.edu,,,,,,,,,,,,,,,,,,,,,,,,,,,,,,
,,,,,,,,,,,,,,,,,,,,,,,,,,,* ,dkisia@gmail.com,,,,,,,,,,,,,,,,,,,,,,,,,,,,,,
,,,,,,,,,,,,,,,,,,,,,,,,,,,* ,dkisia@hotmail.com,,,,,,,,,,,,,,,,,,,,,,,,,,,,,,
domingo sanchez,domingo,,sanchez,,,,,,,,,,,,,,,,,,,,,,,,* ,mingosanchez@gmail.com,,,,,,,,,,,,,,,,,,,,,,,,,,,,,,
Dori Clark,Dori,,Clark,,,,,,,,,,,,,,,,,,,,,,,* My Contacts,,,,,,,,Mobile,6788970760,,,,,,,,,,,,,,,,,,,,,,,
,,,,,,,,,,,,,,,,,,,,,,,,,,,* ,dpollack@saic.edu,,,,,,,,,,,,,,,,,,,,,,,,,,,,,,
Drury Brennan,Drury,,Brennan,,,,,,,,,,,,,,,,,,,,,,<sn>id:82100618/friendof:649204047</sn>,* My Contacts,* Other,aesthetic.ascetic@gmail.com,,,,,,Mobile,8186331937,,,,,,,,,,,,,,,,,,,,,,,
,,,,,,,,,,,,,,,,,,,,,,,,,,,* ,dstephens@saic.edu,,,,,,,,,,,,,,,,,,,,,,,,,,,,,,
Dustin Sharp,Dustin,,Sharp,,,,,,,,,,,,,,,,,,,,,,,* My Contacts ::: bday,,,,,,,,Mobile,8313595716,,,,,,,,,,,,,,,,,,,,,,,
Dustin Sharp,Dustin,,Sharp,,,,,,,,,,,,,,,,,,,,,,,,* ,sces_surfer@sbcglobal.net,,,,,,,,,,,,,,,,,,,,,,,,,,,,,,
Dustin Wright,Dustin,,Wright,,,,,,,,,,,,,,,,,,,,,,,bday ::: * My Contacts,* ,dustinswright@gmail.com,,,,,,Mobile,8313596608,,,,,,,,,,,,,,,,,,,,,,,
,,,,,,,,,,,,,,,,,,,,,,,,,,,* ,ed@lumpen.com,,,,,,,,,,,,,,,,,,,,,,,,,,,,,,
Edin Bayhan,Edin,,Bayhan,,,,,,,,,,,,,,,,,,,,,,,* My Contacts,* Other,edin_bayhan@yahoo.com,,,,,,,,,,,,,,,,,,,,,,,,Sunami,,,,,,
Eileen Murphy,Eileen,,Murphy,,,,,,,,,,,,,,,,,,,,,,,,* ,emurphy_sc@yahoo.com,,,,,,,,,,,,,,,,,,,,,,,,,,,,,,
,,,,,,,,,,,,,,,,,,,,,,,,,,,* ,ekuehn@saic.edu,,,,,,,,,,,,,,,,,,,,,,,,,,,,,,
Eleanor (Ellie) Littman (E-mail),Eleanor,(Ellie),Littman,,,,,,(E-mail),,,,,,,,,,,,,,,,,,* ,ellie@hipscc.org,,,,,,,,,,,,,,,,,,,,,,,,,,,,,,
elenac@post.harvard.edu,elenac@post.harvard.edu,,,,,,,,,,,,,,,,,,,,,,,,,,* ,elenac@post.harvard.edu,,,,,,,,,,,,,,,,,,,,,,,,,,,,,,
Elias Salameh,Elias,,Salameh,,,,,,,,,,,,,,,,,,,,,,<sn>id:1418099/friendof:649204047</sn>,,* Other,eesalameh@yahoo.com,,,,,,,,,,,,,,,,,,,,,,,,,,,,,,
Elijah Pfotenhauer,Elijah,,Pfotenhauer,,,,,,,,,,,,,,,,,,,,,,,Starred in Android ::: bday ::: * My Contacts,* Other,paintedladder@yahoo.com,,,,,,Mobile,8312393193,,,,,,,,,,,,,,,,,,,,,,,
Elisa,Elisa,,,,,,,,,,,,,,,,,,,,,,,,,,* ,elisa@coho.org,,,,,,,,,,,,,,,,,,,,,,,,,,,,,,
Eliza Schiffren,Eliza,,Schiffren,,,,,,,,,,,,,,,,,,,,,,,* My Contacts,* Other,elizaschiffrin@gmail.com,,,,,,Mobile,3477128978,,,,,,,,,,,,,,,,,,,,,,,
Elizabeth Schilling,Elizabeth,,Schilling,,,,,,,,,,,,,,,,,,,,,,,,* ,elizabeths@cbridges.org,,,,,,,,,,,,,,,,,,,,,,,,,,,,,,
Elizabeth Schilling,Elizabeth,,Schilling,,,,,,,,,,,,,,,,,,,,,,,* My Contacts ::: bday,* Other,lizzy@baymoon.com,,,,,,Mobile,8312396012,,,,,,,,,,,,,,,,,,,,,,,
,,,,,,,,,,,,,,,,,,,,,,,,,,,* ,ellen.hartwell@gmail.com,,,,,,,,,,,,,,,,,,,,,,,,,,,,,,
,,,,,,,,,,,,,,,,,,,,,,,,,,,* ,ellen.murtha@scruzccu.org,,,,,,,,,,,,,,,,,,,,,,,,,,,,,,
Elouise Orbin,Elouise,,Orbin,,,,,,,,,,,,,,,,,,,,,,,* My Contacts,,,,,,,,Mobile,3125930188,,,,,,,,,,,,,,,,,,,,,,,
Enni Centonze,Enni,,Centonze,,,,,,,,,,,,,,,,,,,,,," ticino: 0916830035
2 contrada dei silva 
6834 morbio inferiore

cari: 0918661401
",* My Contacts,* ,ennicentonze@hotmail.com,,,,,,Home,41 0435345875 ,Home / Mobile,41 0787374597,,,,,Home,"Kornerstrasse 11
Zurich  8004
CH",,,,,,,,,,,,,,,
,,,,,,,,,,,,,,,,,,,,,,,,,,,* ,eporocket@gmail.com,,,,,,,,,,,,,,,,,,,,,,,,,,,,,,
Erica  Clark,Erica,,Clark,,,,,,,,,,,,,,,,,,,,,,,* My Contacts,,,,,,,,Mobile,6785264122,,,,,,,,,,,,,,,,,,,,,,,
Erin Bregman,Erin,,Bregman,,,,,,,,,,,,,,,,,,,,,,<sn>id:3606683/friendof:649204047</sn>,,* Other,eden@umail.ucsb.edu,,,,,,,,,,,,,,,,,,,,,,,,,,,,,,
ethan white,ethan,,white,,,,,,,,,,,,,,,,,,,,,,,* My Contacts,* ,ethanawhite@gmail.com,,,,,,Mobile,6175120933,,,,,,,,,,,,,,,,,,,,,,,
Etsy Account Confirmation,Etsy,Account,Confirmation,,,,,,,,,,,,,,,,,,,,,,,,* ,registration@mail.etsy.com,,,,,,,,,,,,,,,,,,,,,,,,,,,,,,
Eva Rupert,Eva,,Rupert,,,,,,,,,,,,,,,,,,,,,,,* My Contacts,* Other,evalynnetc@hotmail.com,,,,,,Other,203-770-2447,,,,,,,,,,,,,,,,,,,,,,,
Eve Dineen,Eve,,Dineen,,,,,,,,,,,,,,,,,,,,,,<sn>id:594068608/friendof:649204047</sn>,bday ::: * My Contacts,* Other,evedineen@gmail.com,,,,,,,,,,,,,,,,,,,,,,,,,,,,,,
,,,,,,,,,,,,,,,,,,,,,,,,,,,* ,ewanat@saic.edu,,,,,,,,,,,,,,,,,,,,,,,,,,,,,,
Farmers Insurance,Farmers,,Insurance,,,,,,,,,,,,,,,,,,,,,,,* My Contacts,,,,,,,,Mobile,8314237163,,,,,,,,,,,,,,,,,,,,,,,
Forrest,Forrest,,,,,,,,,,,,,,,,,,,,,,,,,* My Contacts,,,,,,,,Mobile,83191586970,,,,,,,,,,,,,,,,,,,,,,,
Forrest Abbotmoore,Forrest,,Abbotmoore,,,,,,,,,,,,,,,,,,,,,,,,* ,abbotmoore@yahoo.com,,,,,,,,,,,,,,,,,,,,,,,,,,,,,,
Frank Leon Roberts,Frank,Leon,Roberts,,,,,,,,,,,,,,,,,,,,,,<sn>id:829804/friendof:649204047</sn>,,* Other,frankroberts@nyu.edu,,,,,,,,,,,,,,,,,,,,,,,,,,,,,,
Frau Fiber,Frau,,Fiber,,,,,,,,,,,,,,,,,,,,,,,* My Contacts,* ,fraufiber@gmail.com,,,,,,Mobile,7146157706,,,,,,,,,,,,,,,,,,,,,,,
G. Wind,G.,,Wind,,,,,,,,,,,,,,,,,,,,,,,,* ,simmydan@gmail.com,,,,,,,,,,,,,,,,,,,,,,,,,,,,,,
Gabe Lundeen,Gabe,,Lundeen,,,,,,,,,,,,,,,,,,,,,,,,* ,ignatiusmonkey@yahoo.com,,,,,,,,,,,,,,,,,,,,,,,,,,,,,,
Gabriel Lundeen,Gabriel,,Lundeen,,,,,,,,,,,,,,,,,,,,,,<sn>id:770777027/friendof:649204047</sn>,,* Other,glundeen@gmail.com,,,,,,,,,,,,,,,,,,,,,,,,,,,,,,
Gail Jones,Gail,,Jones,,,,,,,,,,,,,,,,,,,,,,,,* ,jonesg@co.santa-cruz.ca.us,,,,,,,,,,,,,,,,,,,,,,,,,,,,,,
Garland Taylor,Garland,,Taylor,,,,,,,,,,,,,,,,,,,,,,,,* ,gtaylo@artic.edu,,,,,,,,,,,,,,,,,,,,,,,,,,,,,,
Garland Taylor,Garland,,Taylor,,,,,,,,,,,,,,,,,,,,,,,,* ,gtaylor@artic.edu,,,,,,,,,,,,,,,,,,,,,,,,,,,,,,
Gerald Landers,Gerald,,Landers,,,,,,,,,,,,,,,,,,,,,,,,* ,landerg@health.co.santa-cruz.ca.us,,,,,,,,,,,,,,,,,,,,,,,,,,,,,,
,,,,,,,,,,,,,,,,,,,,,,,,,,,* ,gerald.landers@health.co.santa-cruz.ca.us,,,,,,,,,,,,,,,,,,,,,,,,,,,,,,
,,,,,,,,,,,,,,,,,,,,,,,,,,,* ,gigs-755093684@craigslist.org,,,,,,,,,,,,,,,,,,,,,,,,,,,,,,
Gizzy Schragg,Gizzy,,Schragg,,,,,,,,,,,,,,,,,,,,,,,* My Contacts,,,,,,,,Mobile,8315889521,,,,,,,,,,,,,,,,,,,,,,,
Glenys Davidson,Glenys,,Davidson,,,,,,,,,,,,,,,,,,,,,,,,* ,gdavidson@cruzio.com,,,,,,,,,,,,,,,,,,,,,,,,,,,,,,
,,,,,,,,,,,,,,,,,,,,,,,,,,,* ,gliebert@saic.edu,,,,,,,,,,,,,,,,,,,,,,,,,,,,,,
Gloria Nieto,Gloria,,Nieto,,,,,,,,,,,,,,,,,,,,,,,,* ,glorianieto@comcast.net,,,,,,,,,,,,,,,,,,,,,,,,,,,,,,
Gramma Granpa,Gramma,,Granpa,,,,,,,,,,,,,,,,,,,,,,,* My Contacts,,,,,,,,Mobile,8314752916,,,,,,,,,,,,,,,,,,,,,,,
Gramma Granpa,Gramma,,Granpa,,,,,,,,,,,,,,,,,,,,,,,* My Contacts,,,,,,,,Mobile,8314752916,,,,,,,,,,,,,,,,,,,,,,,
great.white.oak@gmail.com,great.white.oak@gmail.com,,,,,,,,,,,,,,,,,,,,,,,,,,* ,great.white.oak@gmail.com,,,,,,,,,,,,,,,,,,,,,,,,,,,,,,
Greg Tucker,Greg,,Tucker,,,,,,,,,,,,,,,,,,,,,,,,* ,mr.greg.tucker@gmail.com,,,,,,,,,,,,,,,,,,,,,,,,,,,,,,
"Grigas, Raymond Montague",Raymond,Montague,Grigas,,,,,,,,,,,,,,,,,,,,,,,,* ,rgriga1@uic.edu,,,,,,,,,,,,,,,,,,,,,,,,,,,,,,
Gro Ferskaug,Gro,,Ferskaug,,,,,,,,,,,,,,,,,,,,,,<sn>id:1270712696/friendof:649204047</sn>,* My Contacts,,,,,,,,Mobile,3127581578,,,,,,,,,,,,,,,,,,,,,,,
Gro Salon,Gro,,Salon,,,,,,,,,,,,,,,,,,,,,,,* My Contacts,,,,,,,,Work,7737721153,,,,,,,,,,,,,,,,,,,,,,,
Gro Salon,Gro,,Salon,,,,,,,,,,,,,,,,,,,,,,,* My Contacts,,,,,,,,Work,7737721153,,,,,,,,,,,,,,,,,,,,,,,
H. R. C. N-Winterburn,H.,R. C.,N-Winterburn,,,,,,,,,,,,,,,,,,,,,,,,* ,hcwinter@gmail.com,,,,,,,,,,,,,,,,,,,,,,,,,,,,,,
Hannah Pfotenhauer,Hannah,,Pfotenhauer,,,,,,,,,,,,,,,,,,,,,,,,* ,Tennisgirl102994@aol.com,,,,,,,,,,,,,,,,,,,,,,,,,,,,,,
Harbor Vet,Harbor,,Vet,,,,,,,,,,,,,,,,,,,,,,,* My Contacts,,,,,,,,Mobile,8314762202,,,,,,,,,,,,,,,,,,,,,,,
Harper's Weekly Confirmation (from SparkLIST.com),Harper's,Weekly,Confirmation,,,,,,(from SparkLIST.com),,,,,,,,,,,,,,,,,,* ,sparklist-confirm-12024062T@pluto.sparklist.com,,,,,,,,,,,,,,,,,,,,,,,,,,,,,,
Hector De Gregorio,Hector,,De Gregorio,,,,,,,,,,,,,,,,,,,,,,,* My Contacts,,,,,,,,Mobile,442084699345,,,,,,,,,,,,,,,,,,,,,,,
Hector De Gregorio,Hector,,De Gregorio,,,,,,,,,,,,,,,,,,,,,," MODAS GREOR
Arrabal de S. Pascual 52
cp.12540  Vila-real  (CS)
SPAIN   EU",* My Contacts,* Other,30.hector@gmail.com,,,,,,Mobile,011447708322800,,,,,,,,,,,,,,,,,,,,,,,
Heidi Neubauer-Winterburn,Heidi,,Neubauer-Winterburn,,,,,,,,,,,,,,,,,,,,,,,,* ,hcwinter@mtholyoke.edu,,,,,,,,,,,,,,,,,,,,,,,,,,,,,,
Helen J Burgess,Helen,J,Burgess,,,,,,,,,,,,,,,,,,,,,,,,* ,editor@hyperrhiz.net,,,,,,,,,,,,,,,,,,,,,,,,,,,,,,
,,,,,,,,,,,,,,,,,,,,,,,,,,,* ,herb@aerialarchives.com,,,,,,,,,,,,,,,,,,,,,,,,,,,,,,
Isabel Crowder,Isabel,,Crowder,,,,,,,,,,,,,,,,,,,,,,,,* ,isabelcrowder@hotmail.com,,,,,,,,,,,,,,,,,,,,,,,,,,,,,,
Ismiaji Cahyono,Ismiaji,,Cahyono,,,,,,,,,,,,,,,,,,,,,,,,* ,icahyo@artic.edu,,,,,,,,,,,,,,,,,,,,,,,,,,,,,,
Ismiaji Cahyono,Ismiaji,,Cahyono,,,,,,,,,,,,,,,,,,,,,,,,* ,icahyo@saic.edu,,,,,,,,,,,,,,,,,,,,,,,,,,,,,,
Jackie Schmidt-Posner,Jackie,,Schmidt-Posner,,,,,,,,,,,,,,,,,,,,,,<sn>id:1164518946/friendof:649204047</sn>,,* Other,jsp@stanford.edu,,,,,,,,,,,,,,,,,,,,,,,,,,,,,,
Jacky Blacque,Jacky,,Blacque,,,,,,,,,,,,,,,,,,,,,,,,* ,jacky.blacque@gmail.com,,,,,,,,,,,,,,,,,,,,,,,,,,,,,,
Jacqueline Lindfors Berger,Jacqueline,Lindfors,Berger,,,,,,,,,,,,,,,,,,,,,,,,* ,jacquelinelindforsberger@gmail.com,,,,,,,,,,,,,,,,,,,,,,,,,,,,,,
Jacquie Redfane,Jacquie,,Redfane,,,,,,,,,,,,,,,,,,,,,,,,* ,j.redfane@gmail.com,,,,,,,,,,,,,,,,,,,,,,,,,,,,,,
Jaime Mroczkowski,Jaime,,Mroczkowski,,,,,,,,,,,,,,,,,,,,,,,,* ,shrewdesign@mac.com,,,,,,,,,,,,,,,,,,,,,,,,,,,,,,
James Britt,James,,Britt,,,,,,,,,,,,,,,,,,,,,,,ball - vcs ::: * My Contacts,* Other,jbritt1@saic.edu,,,,,,,,,,,,,,,,,,,,,,,,,,,,,,
James Elkins,James,,Elkins,,,,,,,,,,,,,,,,,,,,,,,,* ,jelkins@saic.edu,,,,,,,,,,,,,,,,,,,,,,,,,,,,,,
,,,,,,,,,,,,,,,,,,,,,,,,,,,* ,jameselkins@fastmail.fm,,,,,,,,,,,,,,,,,,,,,,,,,,,,,,
,,,,,,,,,,,,,,,,,,,,,,,,,,ohlone ::: * My Contacts,* Other,janecki@sbcglobal.net,,,,,,,,,,,,,,,,,,,,,,,,,,,,,,
Janice Geiser-Schaffer,Janice,,Geiser-Schaffer,,,,,,,,,,,,,,,,,,,,,,,* My Contacts,* Other,janice.geiser@swissonline.com,,,,,,,,,,,,,,Other,"Dossenstrasse 21
5000 Aarau  
Switzerland
",Dossenstrasse 21,5000 Aarau  ,,Switzerland,,,,,,,,,,,
jason ellis,jason,,ellis,,,,,,,,,,,,,,,,,,,,,,,,* ,jasonellisbass@hotmail.com,,,,,,,,,,,,,,,,,,,,,,,,,,,,,,
Jaykub Young,Jaykub,,Young,,,,,,,,,,,,,,,,,,,,,,,,* ,flamingpostcards@hotmail.com,,,,,,,,,,,,,,,,,,,,,,,,,,,,,,
jean and paul pfotenhauer,jean,and paul,pfotenhauer,,,,,,,,,,,,,,,,,,,,,,,* My Contacts ::: bday,* Other,pfoty@sbcglobal.net,,,,,,,,,,,,,,,,,,,,,,,,,,,,,,
Jean Peterson,Jean,,Peterson,,,,,,,,,,,,,,,,,,,,,,,,* ,jean@scwomenshealth.org,,,,,,,,,,,,,,,,,,,,,,,,,,,,,,
Jenna Jordan,Jenna,,Jordan,,,,,,,,,,,,,,,,,,,,,,<sn>id:1283214150/friendof:649204047</sn>,* My Contacts ::: bday,* Other,JENNAJ@uchicago.edu,,,,,,Mobile,7738441525,,,,,,,,,,,,,,,,,,,,,,,
Jennifer DeGroodt,Jennifer,,DeGroodt,,,,,,,,,,,,,,,,,,,,,,,,* ,jenniferdegroodt@aol.com,,,,,,,,,,,,,,,,,,,,,,,,,,,,,,
Jennifer Rendon,Jennifer,,Rendon,,,,,,,,,,,,,,,,,,,,,,,,* ,jenrendon@gmail.com,,,,,,,,,,,,,,,,,,,,,,,,,,,,,,
Jennine Mae,Jennine,,Mae,,,,,,,,,,,,,,,,,,,,,,,* My Contacts ::: bday,,,,,,,,Mobile,8313458070,,,,,,,,,,,,,,,,,,,,,,,
Jennine Mae Olea,Jennine,Mae,Olea,,,,,,,,,,,,,,,,,,,,,,,,* ,missmaes@mac.com,,,,,,,,,,,,,,,,,,,,,,,,,,,,,,
,,,,,,,,,,,,,,,,,,,,,,,,,,* My Contacts ::: bday,* Other,jennine@missmaes.com,,,,,,,,,,,,,,,,,,,,,,,,,,,,,,
,,,,,,,,,,,,,,,,,,,,,,,,,,,* ,jennineolea@aol.com,,,,,,,,,,,,,,,,,,,,,,,,,,,,,,
Jeremy Wilder,Jeremy,,Wilder,,,,,,,,,,,,,,,,,,,,,,,* My Contacts,,,,,,,,Mobile,4155154235,,,,,,,,,,,,,,,,,,,,,,,
Jess Humble,Jess,,Humble,,,,,,,,,,,,,,,,,,,,,,,* My Contacts,,,,,,,,Mobile,8313313965,,,,,,,,,,,,,,,,,,,,,,,
Jesse Bregman,Jesse,,Bregman,,,,,,,,,,,,,,,,,,,,,,,ohlone ::: * My Contacts,* Other,jbregman@mac.com,,,,,,,,,,,,,,,,,,,,,,,,,,,,,,
Jesse Bregman,Jesse,,Bregman,,,,,,,,,,,,,,,,,,,,,,,,* ,jbregman@me.com,,,,,,,,,,,,,,,,,,,,,,,,,,,,,,
Jessica Cachu,Jessica,,Cachu,,,,,,,,,,,,,,,,,,,,,,,,* ,jcachu@wawc.org,,,,,,,,,,,,,,,,,,,,,,,,,,,,,,
,,,,,,,,,,,,,,,,,,,,,,,,,,,* ,Jhardesty@saic.edu,,,,,,,,,,,,,,,,,,,,,,,,,,,,,,
Jim & Angie Christmann,Jim,& Angie,Christmann,,,,,,,,,,,,,,,,,,,,,,,ohlone ::: * My Contacts,* Other,jaxmann@shanarae.com,,,,,,,,,,,,,,,,,,,,,,,,,,,,,,
Jim Bunting,Jim,,Bunting,,,,,,,,,,,,,,,,,,,,,,<sn>id:503196785/friendof:649204047</sn>,* My Contacts ::: bday,* Other,yeahjim@gmail.com,,,,,,Mobile,8313594882,,,,,,,,,,,,,,,,,,,,,,,
jluoto@artic.edu,jluoto@artic.edu,,,,,,,,,,,,,,,,,,,,,,,,,,* ,jluoto@artic.edu,,,,,,,,,,,,,,,,,,,,,,,,,,,,,,
,,,,,,,,,,,,,,,,,,,,,,,,,,,* ,jmanning@saic.edu,,,,,,,,,,,,,,,,,,,,,,,,,,,,,,
,,,,,,,,,,,,,,,,,,,,,,,,,,,* ,job-s2vpx-1917631990@craigslist.org,,,,,,,,,,,,,,,,,,,,,,,,,,,,,,
,,,,,,,,,,,,,,,,,,,,,,,,,,,* ,job-weqt5-2058357479@craigslist.org,,,,,,,,,,,,,,,,,,,,,,,,,,,,,,
Jody Peugh,Jody,,Peugh,,,,,,,,,,,,,,,,,,,,,,,* My Contacts,,,,,,,,Mobile,8314266259,,,,,,,,,,,,,,,,,,,,,,,
jody pfotenhauer,jody,,pfotenhauer,,,,,,,,,,,,,,,,,,,,,,,,* ,jody.l.pfotenhauer@intel.com,,,,,,,,,,,,,,,,,,,,,,,,,,,,,,
joe kernan,joe,,kernan,,,,,,,,,,,,,,,,,,,,,,,,* ,kernan.joe@gmail.com,,,,,,,,,,,,,,,,,,,,,,,,,,,,,,
Joe Phares,Joe,,Phares,,,,,,,,,,,,,,,,,,,,,,,,* ,jphares@co.santa-cruz.ca.us,,,,,,,,,,,,,,,,,,,,,,,,,,,,,,
,,,,,,,,,,,,,,,,,,,,,,,,,,,* ,joe6730@ymail.com,,,,,,,,,,,,,,,,,,,,,,,,,,,,,,
Joey Orr,Joey,,Orr,,,,,,,,,,,,,,,,,,,,,,,,* ,joeyorr@comcast.net,,,,,,,,,,,,,,,,,,,,,,,,,,,,,,
Joey Orr,Joey,,Orr,,,,,,,,,,,,,,,,,,,,,,<sn>id:603980550/friendof:649204047</sn>,ball - vcs ::: * My Contacts,* Other,joeyorr@earthlink.net,,,,,,Home,4042285952,Mobile,3125503861,,,,,,,,,,,,,,,,,,,,,
Joey Orr,Joey,,Orr,,,,,,,,,,,,,,,,,,,,,,,,* ,joeyorr13@gmail.com,,,,,,,,,,,,,,,,,,,,,,,,,,,,,,
John Gilchrist,John,,Gilchrist,,,,,,,,,,,,,,,,,,,,,,,,* ,jga@cruzio.com,,,,,,,,,,,,,,,,,,,,,,,,,,,,,,
John Seth,John,,Seth,,,,,,,,,,,,,,,,,,,,,,,,* ,J.S.Seth@btinternet.com,,,,,,,,,,,,,,,,,,,,,,,,,,,,,,
,,,,,,,,,,,,,,,,,,,,,,,,,,,* ,join-trickster_talk@lyris.its.trinity.edu,,,,,,,,,,,,,,,,,,,,,,,,,,,,,,
jon erdmann,jon,,erdmann,,,,,,,,,,,,,,,,,,,,,,,,* ,reallyhadtomove@gmail.com,,,,,,,,,,,,,,,,,,,,,,,,,,,,,,
Jon Levin,Jon,,Levin,,,,,,,,,,,,,,,,,,,,,,,* My Contacts,* Other,moral_kombat@hotmail.com,,,,,,Mobile,7757719474,,,,,,,,,,,,,,,,,,,,,,,
,,,,,,,,,,,,,,,,,,,,,,,,,,,* ,jonesg@health.co.santa-cruz.ca.us,,,,,,,,,,,,,,,,,,,,,,,,,,,,,,
Joni Janecki,Joni,,Janecki,,,,,,,,,,,,,,,,,,,,,,,,* ,jlj@jlja.com,,,,,,,,,,,,,,,,,,,,,,,,,,,,,,
Jordan Nickerson,Jordan,,Nickerson,,,,,,,,,,,,,,,,,,,,,,,,* ,jordannickerson@tmail.com,,,,,,,,,,,,,,,,,,,,,,,,,,,,,,
Jose Cardenas,Jose,,Cardenas,,,,,,,,,,,,,,,,,,,,,,<sn>id:606873661/friendof:649204047</sn>,* My Contacts,,,,,,,,Mobile,7732356273,,,,,,,,,,,,,,,,,,,,,,,
Joseph Grigely,Joseph,,Grigely,,,,,,,,,,,,,,,,,,,,,,,,* ,jgrigely@artic.edu,,,,,,,,,,,,,,,,,,,,,,,,,,,,,,
Joseph Grigely,Joseph,,Grigely,,,,,,,,,,,,,,,,,,,,,,,ball - vcs ::: * My Contacts,* Other,jgrigely@saic.edu,,,,,,,,,,,,,,,,,,,,,,,,,,,,,,
Josie Thomas,Josie,,Thomas,,,,,,,,,,,,,,,,,,,,,,,* My Contacts ::: bday,,,,,,,,Mobile,8312395815,,,,,,,,,,,,,,,,,,,,,,,
Journey Revington,Journey,,Revington,,,,,,,,,,,,,,,,,,,,,,,,* ,journey@dancingbirth.com,,,,,,,,,,,,,,,,,,,,,,,,,,,,,,
,,,,,,,,,,,,,,,,,,,,,,,,,,,* ,Jrossk@saic.edu,,,,,,,,,,,,,,,,,,,,,,,,,,,,,,
,,,,,,,,,,,,,,,,,,,,,,,,,,,* ,jshulruf@yoda.bsd.uchicago.edu,,,,,,,,,,,,,,,,,,,,,,,,,,,,,,
Judith Wellner,Judith,,Wellner,,,,,,,,,,,,,,,,,,,,,,<sn>id:689136974/friendof:649204047</sn>,* My Contacts,,,,,,,,Mobile,8312348847,,,,,,,,,,,,,,,,,,,,,,,
Julia Marsh,Julia,,Marsh,,,,,,,,,,,,,,,,,,,,,,,,* ,jmarsh@artic.edu,,,,,,,,,,,,,,,,,,,,,,,,,,,,,,
julia marsh,julia,,marsh,,,,,,,,,,,,,,,,,,,,,,,,* ,jmarsh@saic.edu,,,,,,,,,,,,,,,,,,,,,,,,,,,,,,
,,,,,,,,,,,,,,,,,,,,,,,,,,,* ,julia1658@yahoo.com,,,,,,,,,,,,,,,,,,,,,,,,,,,,,,
Julie Lefmann,Julie,,Lefmann,,,,,,,,,,,,,,,,,,,,,,,* My Contacts ::: bday,Other,julie@withmyowntwohands.net,* Other,jlefto@hotmail.com,,,,Mobile,4085298031,,,,,,,,,,,,,,,,,,,,,,,
,,,,,,,,,,,,,,,,,,,,,,,,,,,* ,juliepalmsboyer@gmail.com,,,,,,,,,,,,,,,,,,,,,,,,,,,,,,
,,,,,,,,,,,,,,,,,,,,,,,,,,,* ,justinthomasschaefer@gmail.com,,,,,,,,,,,,,,,,,,,,,,,,,,,,,,
k van schoik,k,,van schoik,,,,,,,,,,,,,,,,,,,,,,,* My Contacts,* Other,kvanschoik@gmail.com,,,,,,Mobile,6145178972,,,,,,,,,,,,,,,,,,,,,,,
Kachina Addison,Kachina,,Addison,,,,,,,,,,,,,,,,,,,,,,<sn>id:791449293/friendof:649204047</sn>,* My Contacts,,,,,,,,Mobile,8315352794,,,,,,,,,,,,,,,,,,,,,,,
Kaili Reynolds,Kaili,,Reynolds,,,,,,,,,,,,,,,,,,,,,,,* My Contacts,,,,,,,,Mobile,8312953972,,,,,,,,,,,,,,,,,,,,,,,
Kamila Burns,Kamila,,Burns,,,,,,,,,,,,,,,,,,,,,,,,* ,kamila@hipscc.org,,,,,,,,,,,,,,,,,,,,,,,,,,,,,,
Karen Morris,Karen,,Morris,,,,,,,,,,,,,,,,,,,,,,,,* ,kmorris@artic.edu,,,,,,,,,,,,,,,,,,,,,,,,,,,,,,
Karen Morris,Karen,,Morris,,,,,,,,,,,,,,,,,,,,,,,ball - vcs ::: * My Contacts,* Other,kmorris@saic.edu,,,,,,,,,,,,,,,,,,,,,,,,,,,,,,
Karen Ware,Karen,,Ware,,,,,,,,,,,,,,,,,,,,,,<sn>id:534331046/friendof:649204047</sn>,,* Other,kjware@gmail.com,,,,,,,,,,,,,,,,,,,,,,,,,,,,,,
Karen Ware,Karen,,Ware,,,,,,,,,,,,,,,,,,,,,,<sn>id:534331046/friendof:649204047</sn>,,* Other,kware@saic.edu,,,,,,,,,,,,,,,,,,,,,,,,,,,,,,
,,,,,,,,,,,,,,,,,,,,,,,,,,,* ,karissa.lang@gmail.com,,,,,,,,,,,,,,,,,,,,,,,,,,,,,,
Kasha Guilfoyle,Kasha,,Guilfoyle,,,,,,,,,,,,,,,,,,,,,,,,* ,kashaguilfoyle@yahoo.com,,,,,,,,,,,,,,,,,,,,,,,,,,,,,,
kashka,kashka,,,,,,,,,,,,,,,,,,,,,,,,,,* ,kashka@sorted.org,,,,,,,,,,,,,,,,,,,,,,,,,,,,,,
Katharina Schmitt,Katharina,,Schmitt,,,,,,,,,,,,,,,,,,,,,,<sn>id:600762219/friendof:649204047</sn>,,* Other,katharina_schmitt@yahoo.com,,,,,,,,,,,,,,,,,,,,,,,,,,,,,,
Katherine Lennard,Katherine,,Lennard,,,,,,,,,,,,,,,,,,,,,,,,* ,klennard@gmail.com,,,,,,,,,,,,,,,,,,,,,,,,,,,,,,
Katherine Martineau,Katherine,,Martineau,,,,,,,,,,,,,,,,,,,,,,,ohlone ::: * My Contacts,* Other,kbmartineau@gmail.com,,,,,,,,,,,,,,,,,,,,,,,,,,,,,,
Katherine Pill,Katherine,,Pill,,,,,,,,,,,,,,,,,,,,,,,,* ,katherine.pill@gmail.com,,,,,,,,,,,,,,,,,,,,,,,,,,,,,,
Kathleen McCarthy,Kathleen,,McCarthy,,,,,,,,,,,,,,,,,,,,,,,,* ,kmccarthy@pvhealthtrust.org,,,,,,,,,,,,,,,,,,,,,,,,,,,,,,
,,,,,,,,,,,,,,,,,,,,,,,,,,,* ,kathschmitt@gmail.com,,,,,,,,,,,,,,,,,,,,,,,,,,,,,,
Kathy Cummins,Kathy,,Cummins,,,,,,,,,,,,,,,,,,,,,,,* My Contacts ::: bday,* ,sunkath2001@yahoo.com,,,,,,,,,,,,,,,,,,,,,,,,,,,,,,
Katie Lewis,Katie,,Lewis,,,,,,,,,,,,,,,,,,,,,,<sn>id:1203201/friendof:649204047</sn>,* My Contacts,,,,,,,,Mobile,8312278386,,,,,,,,,,,,,,,,,,,,,,,
Katie Lewis,Katie,,Lewis,,,,,,,,,,,,,,,,,,,,,,,* My Contacts ::: bday,* Other,katielew@berkeley.edu,,,,,,,,,,,,,,,,,,,,,,,,,,,,,,
Katrina Fauss,Katrina,,Fauss,,,,,,,,,,,,,,,,,,,,,,<sn>id:628898392/friendof:649204047</sn>,* My Contacts,* Other,katfauss@hotmail.com,,,,,,,,,,,,,,,,,,,,,,,,,,,,,,
Katy Couleur,Katy,,Couleur,,,,,,,,,,,,,,,,,,,,,,,,* ,KTcouleur@aol.com,,,,,,,,,,,,,,,,,,,,,,,,,,,,,,
,,,,,,,,,,,,,,,,,,,,,,,,,,,* ,Kbenne@saic.edu,,,,,,,,,,,,,,,,,,,,,,,,,,,,,,
,,,,,,,,,,,,,,,,,,,,,,,,,,,* ,kc@riverat.org,,,,,,,,,,,,,,,,,,,,,,,,,,,,,,
,,,,,,,,,,,,,,,,,,,,,,,,,,,* ,kdaly1@saic.edu,,,,,,,,,,,,,,,,,,,,,,,,,,,,,,
kelly mullendore,kelly,,mullendore,,,,,,,,,,,,,,,,,,,,,,,,* ,brobdignagian@gmail.com,,,,,,,,,,,,,,,,,,,,,,,,,,,,,,
Kelly Mullendore,Kelly,,Mullendore,,,,,,,,,,,,,,,,,,,,,,,,* ,kelly_mullendore@yahoo.com,,,,,,,,,,,,,,,,,,,,,,,,,,,,,,
Kendra Turk,Kendra,,Turk,,,,,,,,,,,,,,,,,,,,,,<sn>id:790299946/friendof:649204047</sn>,bday ::: * My Contacts ::: ohlone,* Other,Katurk@gmail.com,,,,,,,,,,,,,,,,,,,,,,,,,,,,,,
Kennedy Cosker,Kennedy,,Cosker,,,,,,,,,,,,,,,,,,,,,,,,* ,kcosker@health.co.santa-cruz.ca.us,,,,,,,,,,,,,,,,,,,,,,,,,,,,,,
,,,,,,,,,,,,,,,,,,,,,,,,,,,* ,kennedy.cosker@health.co.santa-cruz.ca.us,,,,,,,,,,,,,,,,,,,,,,,,,,,,,,
Kenneth Zawacki,Kenneth,,Zawacki,,,,,,,,,,,,,,,,,,,,,,,* My Contacts,* ,farrad@gmail.com,,,,,,Mobile,3127311404,,,,,,,,,,,,,,,,,,,,,,,
Kerry,Kerry,,,,,,,,,,,,,,,,,,,,,,,,,,* ,kerry@scwomenshealth.org,,,,,,,,,,,,,,,,,,,,,,,,,,,,,,
,,,,,,,,,,,,,,,,,,,,,,,,,,,* ,kirby@scica.org,,,,,,,,,,,,,,,,,,,,,,,,,,,,,,
,,,,,,,,,,,,,,,,,,,,,,,,,,,* ,kmcguire@saic.edu,,,,,,,,,,,,,,,,,,,,,,,,,,,,,,
,,,,,,,,,,,,,,,,,,,,,,,,,,,* ,kmulle@artic.edu,,,,,,,,,,,,,,,,,,,,,,,,,,,,,,
,,,,,,,,,,,,,,,,,,,,,,,,,,,* ,koreilly@saic.edu,,,,,,,,,,,,,,,,,,,,,,,,,,,,,,
Kristen Hixon,Kristen,,Hixon,,,,,,,,,,,,,,,,,,,,,,,* My Contacts,,,,,,,,Mobile,3124833367,,,,,,,,,,,,,,,,,,,,,,,
Kristen Sharp,Kristen,,Sharp,,,,,,,,,,,,,,,,,,,,,,,* My Contacts ::: bday,Other,ksharp57@sbcglobal.net,* Other,ksharp@sccs.santacruz.k12.ca.us,,,,Home,8314765249,Mobile,8313452106,,,,,,,,,,,,,,,,,,,,,
,,,,,,,,,,,,,,,,,,,,,,,,,,,* ,kristenoutten@hotmail.com,,,,,,,,,,,,,,,,,,,,,,,,,,,,,,
,,,,,,,,,,,,,,,,,,,,,,,,,,,* ,kristim@uchicago.edu,,,,,,,,,,,,,,,,,,,,,,,,,,,,,,
Kristina Muten,Kristina,,Muten,,,,,,,,,,,,,,,,,,,,,,,,* ,kristina@scwomenshealth.org,,,,,,,,,,,,,,,,,,,,,,,,,,,,,,
"Kubo, Michael D. (ARC-SSX)[SETI INSTITUTE]",Michael,D. (ARC-SSX)[SETI INSTITUTE],Kubo,,,,,,,,,,,,,,,,,,,,,,,,* ,michael.d.kubo@nasa.gov,,,,,,,,,,,,,,,,,,,,,,,,,,,,,,
,,,,,,,,,,,,,,,,,,,,,,,,,,,* ,kwheeler@futureoftalent.org,,,,,,,,,,,,,,,,,,,,,,,,,,,,,,
,,,,,,,,,,,,,,,,,,,,,,,,,,,* ,l_k_wolfe@yahoo.com,,,,,,,,,,,,,,,,,,,,,,,,,,,,,,
,,,,,,,,,,,,,,,,,,,,,,,,,,,* ,l.young.kutsukake@gmail.com,,,,,,,,,,,,,,,,,,,,,,,,,,,,,,
Lana Williams,Lana,,Williams,,,,,,,,,,,,,,,,,,,,,,,,* ,lanawils2@gmail.com,,,,,,,,,,,,,,,,,,,,,,,,,,,,,,
Larry Friedman,Larry,,Friedman,,,,,,,,,,,,,,,,,,,,,,,,* ,lfte@cruzio.com,,,,,,,,,,,,,,,,,,,,,,,,,,,,,,
Laura Szumowski,Laura,,Szumowski,,,,,,,,,,,,,,,,,,,,,,,,* ,zoo.mouse.key@gmail.com,,,,,,,,,,,,,,,,,,,,,,,,,,,,,,
Le Salon Cruz,Le Salon,,Cruz,,,,,,,,,,,,,,,,,,,,,,,* My Contacts,,,,,,,,Mobile,8314201000,,,,,,,,,,,,,,,,,,,,,,,
Leah Tumerman,Leah,,Tumerman,,,,,,,,,,,,,,,,,,,,,,,,* ,leahtumerman@gmail.com,,,,,,,,,,,,,,,,,,,,,,,,,,,,,,
Lee Klawans,Lee,,Klawans,,,,,,,,,,,,,,,,,,,,,,,,* ,klawans@hotmail.com,,,,,,,,,,,,,,,,,,,,,,,,,,,,,,
Lee Materrazi,Lee,,Materrazi,,,,,,,,,,,,,,,,,,,,,,,* My Contacts ::: bday,* Other,leeanne337@yahoo.com,,,,,,,,,,,,,,,,,,,,,,,,,,,,,,
Leila Hofstein,Leila,,Hofstein,,,,,,,,,,,,,,,,,,,,,,<sn>id:1095234528/friendof:649204047</sn>,* My Contacts,,,,,,,,Mobile,8313343330,,,,,,,,,,,,,,,,,,,,,,,
Leilani Jefferies,Leilani,,Jefferies,,,,,,,,,,,,,,,,,,,,,,,* My Contacts,,,,,,,,Mobile,5669976 ::: 8315669976,,,,,,,,,,,,,,,,,,,,,,,
lemeli@artic.edu,lemeli@artic.edu,,,,,,,,,,,,,,,,,,,,,,,,,,* ,lemeli@artic.edu,,,,,,,,,,,,,,,,,,,,,,,,,,,,,,
,,,,,,,,,,,,,,,,,,,,,,,,,,,* ,lemeli@saic.edu,,,,,,,,,,,,,,,,,,,,,,,,,,,,,,
Leslie Conner,Leslie,,Conner,,,,,,,,,,,,,,,,,,,,,,,,* ,leslie@hipscc.org,,,,,,,,,,,,,,,,,,,,,,,,,,,,,,
Leslie Goodfriend,Leslie,,Goodfriend,,,,,,,,,,,,,,,,,,,,,,,,* ,lgoodfri@co.santa-cruz.ca.us,,,,,,,,,,,,,,,,,,,,,,,,,,,,,,
Leslie Tremaine,Leslie,,Tremaine,,,,,,,,,,,,,,,,,,,,,,,,* ,tremail@health.co.santa-cruz.ca.us,,,,,,,,,,,,,,,,,,,,,,,,,,,,,,
,,,,,,,,,,,,,,,,,,,,,,,,,,,* ,leslie.tremaine@health.co.santa-cruz.ca.us,,,,,,,,,,,,,,,,,,,,,,,,,,,,,,
Liam Newnham,Liam,,Newnham,,,,,,,,,,,,,,,,,,,,,,<sn>id:637750528/friendof:649204047</sn>,* My Contacts,* Other,liamisntit@yahoo.com,,,,,,Mobile,447530754285,,,,,,,,,,,,,,,,,,,,,,,
Lilia Chagolla,Lilia,,Chagolla,,,,,,,,,,,,,,,,,,,,,,,,* ,lchagolla@ccah-alliance.org,,,,,,,,,,,,,,,,,,,,,,,,,,,,,,
Linda Pas,Linda,,Pas,,,,,,,,,,,,,,,,,,,,,,,,* ,lpas@saic.edu,,,,,,,,,,,,,,,,,,,,,,,,,,,,,,
Linda Wilshusen,Linda,,Wilshusen,,,,,,,,,,,,,,,,,,,,,,<sn>id:1314372131/friendof:649204047</sn>,ohlone ::: Starred in Android ::: bday ::: * Family ::: * My Contacts,* Other,l-j-w@pacbell.net,,,,,,Home,8314626241,Mobile,8315881847,,,,,,,,,,,,,,,,,,,,,
Lindsey Misale,Lindsey,,Misale,,,,,,,,,,,,,,,,,,,,,,<sn>id:741477231/friendof:649204047</sn>,* My Contacts,* Other,lindsey.misale@gmail.com,,,,,,Mobile,7739627448,,,,,,,,,,,,,,,,,,,,,,,
liszka kutsukake,liszka,,kutsukake,,,,,,,,,,,,,,,,,,,,,,,,* ,liszka.kutsukake@gmail.com,,,,,,,,,,,,,,,,,,,,,,,,,,,,,,
,,,,,,,,,,,,,,,,,,,,,,,,,,,* ,liveoaklinda@gmail.com,,,,,,,,,,,,,,,,,,,,,,,,,,,,,,
Liz Chernett,Liz,,Chernett,,,,,,,,,,,,,,,,,,,,,,<sn>id:605350/friendof:649204047</sn>,* My Contacts,,,,,,,,Mobile,6103049085,,,,,,,,,,,,,,,,,,,,,,,
,,,,,,,,,,,,,,,,,,,,,,,,,,,* ,lizprints@aol.com,,,,,,,,,,,,,,,,,,,,,,,,,,,,,,
Lochhead_Andrew Andrew,Lochhead_Andrew,,Andrew,,,,,,,,,,,,,,,,,,,,,,,,* ,alochh@saic.edu,,,,,,,,,,,,,,,,,,,,,,,,,,,,,,
Login Help,Login,,Help,,,,,,,,,,,,,,,,,,,,,,,,* ,loginhelp@support.myspace.com,,,,,,,,,,,,,,,,,,,,,,,,,,,,,,
Lolly Belanger,Lolly,,Belanger,,,,,,,,,,,,,,,,,,,,,,,,* ,spiltink@cruzio.com,,,,,,,,,,,,,,,,,,,,,,,,,,,,,,
Lora,Lora,,,,,,,,,,,,,,,,,,,,,,,,,,Home,loralode@gmail.com,* ,loralode@yahoo.com,,,,,,,,,,,,,,,,,,,,,,,,,,,,
M Wolf-Meyer,M,,Wolf-Meyer,,,,,,,,,,,,,,,,,,,,,,,,* ,wolf-meyer@wayne.edu,,,,,,,,,,,,,,,,,,,,,,,,,,,,,,
M Wolf-Meyer,M,,Wolf-Meyer,,,,,,,,,,,,,,,,,,,,,,,,* ,wolf0358@umn.edu,,,,,,,,,,,,,,,,,,,,,,,,,,,,,,
,,,,,,,,,,,,,,,,,,,,,,,,,,,* ,madelm@saic.edu,,,,,,,,,,,,,,,,,,,,,,,,,,,,,,
magnus lindgren,magnus,,lindgren,,,,,,,,,,,,,,,,,,,,,,<sn>id:702631535/friendof:649204047</sn>,,* Other,cmagnuslindgren@hotmail.com,,,,,,,,,,,,,,,,,,,,,,,,,,,,,,
,,,,,,,,,,,,,,,,,,,,,,,,,,,* ,mail@dexproducts.com,,,,,,,,,,,,,,,,,,,,,,,,,,,,,,
Manolis Hadjimanolis,Manolis,,Hadjimanolis,,,,,,,,,,,,,,,,,,,,,,<sn>id:663035358/friendof:649204047</sn>,,* Other,hadjimanolis55@hotmail.com,,,,,,,,,,,,,,,,,,,,,,,,,,,,,,
Mara Reynolds,Mara,,Reynolds,,,,,,,,,,,,,,,,,,,,,,<sn>id:9700819/friendof:649204047</sn>,* My Contacts,Other,mara.j.reynolds@gmail.com,* Other,lyingrrl@hotmail.com,,,,Mobile,8312396859,,,,,,,Other,"1521 SE 21st #2
Portland OR 97214
USA
",1521 SE 21st #2,Portland OR 97214,,USA,,,,,,,,,,,
Marcy Whitebook,Marcy,,Whitebook,,,,,,,,,,,,,,,,,,,,,,<sn>id:1219079/friendof:649204047</sn>,* My Contacts ::: bday,Other,marcycarl@gmail.com,* Other,mwhbk@berkeley.edu,,,,,,,,,,,,,,,,,,,,,,,,,,,,
Margaret Olin,Margaret,,Olin,,,,,,,,,,,,,,,,,,,,,,<sn>id:616504666/friendof:649204047</sn>,,* Other,molin@artic.edu,,,,,,,,,,,,,,,,,,,,,,,,,,,,,,
margaret olin,margaret,,olin,,,,,,,,,,,,,,,,,,,,,,<sn>id:616504666/friendof:649204047</sn>,,* Other,molin@saic.edu,,,,,,,,,,,,,,,,,,,,,,,,,,,,,,
Maria Carles Ferrer,Maria,Carles,Ferrer,,,,,,,,,,,,,,,,,,,,,,,,* ,mcarle@artic.edu,,,,,,,,,,,,,,,,,,,,,,,,,,,,,,
Maria Love,Maria,,Love,,,,,,,,,,,,,,,,,,,,,,,,* ,mlove@health.co.santa-cruz.ca.us,,,,,,,,,,,,,,,,,,,,,,,,,,,,,,
Mariana Francisco,Mariana,,Francisco,,,,,,,,,,,,,,,,,,,,,,,,* ,mariana_francis@hotmail.com,,,,,,,,,,,,,,,,,,,,,,,,,,,,,,
Maribel Zuniga,Maribel,,Zuniga,,,,,,,,,,,,,,,,,,,,,,,,* ,mzuniga@splg.org,,,,,,,,,,,,,,,,,,,,,,,,,,,,,,
Marilyn Patton,Marilyn,,Patton,,,,,,,,,,,,,,,,,,,,,,,* My Contacts,,,,,,,,Mobile,8312341697,,,,,,,,,,,,,,,,,,,,,,,
Marisa Boyce,Marisa,,Boyce,,,,,,,,,,,,,,,,,,,,,,<sn>id:1236892/friendof:649204047</sn>,,* Other,marisaboyce@hotmail.com,,,,,,,,,,,,,,,,,,,,,,,,,,,,,,
Marvin Hoffman,Marvin,,Hoffman,,,,,,,,,,,,,,,,,,,,,,,,* ,hoff@usi.uchicago.edu,,,,,,,,,,,,,,,,,,,,,,,,,,,,,,
Matthew Wolf-Meyer,Matthew,,Wolf-Meyer,,,,,,,,,,,,,,,,,,,,,,<sn>id:13946051/friendof:649204047</sn>,ohlone ::: bday ::: * My Contacts,* Other,matthew.wolf.meyer@gmail.com,,,,,,Home,8313368463,Mobile,2488549066,,,,,,,,,,,,,,,,,,,,,
Maud Lavin,Maud,,Lavin,,,,,,,,,,,,,,,,,,,,,,<sn>id:768158444/friendof:649204047</sn>,,* Other,mlavin@saic.edu,,,,,,,,,,,,,,,,,,,,,,,,,,,,,,
maudlavin@aol.com,maudlavin@aol.com,,,,,,,,,,,,,,,,,,,,,,,,,,* ,MaudLavin@aol.com,,,,,,,,,,,,,,,,,,,,,,,,,,,,,,
Max Bateman,Max,,Bateman,,,,,,,,,,,,,,,,,,,,,,,,* ,bateman.m7@gmail.com,,,,,,,,,,,,,,,,,,,,,,,,,,,,,,
Max Keller,Max,,Keller,,,,,,,,,,,,,,,,,,,,,,<sn>id:906310435/friendof:649204047</sn>,* My Contacts,,,,,,,,Mobile,6159341203,,,,,,,,,,,,,,,,,,,,,,,
Max Reinhardt,Max,,Reinhardt,,,,,,,,,,,,,,,,,,,,,,<sn>id:721321747/friendof:649204047</sn>,* My Contacts,* Other,reinhardt_max@yahoo.com,,,,,,Mobile,3129614445,,,,,,,,,,,,,,,,,,,,,,,
,,,,,,,,,,,,,,,,,,,,,,,,,,,* ,mcroy@saic.edu,,,,,,,,,,,,,,,,,,,,,,,,,,,,,,
,,,,,,,,,,,,,,,,,,,,,,,,,,,* ,Mdupont@saic.edu,,,,,,,,,,,,,,,,,,,,,,,,,,,,,,
Megan Al,Megan Al,,,,,,,,,,,,,,,,,,,,,,,,,* My Contacts,,,,,,,,Mobile,8314313963p,,,,,,,,,,,,,,,,,,,,,,,
,,,,,,,,,,,,,,,,,,,,,,,,,,,* ,megan_mcnamara@yahoo.com,,,,,,,,,,,,,,,,,,,,,,,,,,,,,,
Mel Johnson,Mel,,Johnson,,,,,,,,,,,,,,,,,,,,,,<sn>id:1248438753/friendof:649204047</sn>,* My Contacts,* Other,missmellyj@gmail.com,,,,,,Mobile,7732206288,,,,,,,,,,,,,,,,,,,,,,,
melanie Brown,melanie,,Brown,,,,,,,,,,,,,,,,,,,,,,,,* ,melaniebrownone@hotmail.com,,,,,,,,,,,,,,,,,,,,,,,,,,,,,,
Melanie Willett,Melanie,,Willett,,,,,,,,,,,,,,,,,,,,,,<sn>id:1530582922/friendof:649204047</sn>,* My Contacts,,,,,,,,Mobile,5102292436,,,,,,,,,,,,,,,,,,,,,,,
Mercia Givogre,Mercia,,Givogre,,,,,,,,,,,,,,,,,,,,,,,,* ,mercia.givogre@gmail.com,,,,,,,,,,,,,,,,,,,,,,,,,,,,,,
Mia Pfotenhauer,Mia,,Pfotenhauer,,,,,,,,,,,,,,,,,,,,,,<sn>id:509663729/friendof:649204047</sn>,* My Contacts ::: bday,* Other,miababy742@yahoo.com,,,,,,Mobile,4152903560,,,,,,,,,,,,,,,,,,,,,,,
Michael George,Michael,,George,,,,,,,,,,,,,,,,,,,,,,,,* ,michael.georgie@gmail.com,,,,,,,,,,,,,,,,,,,,,,,,,,,,,,
Michael Simon,Michael,,Simon,,,,,,,,,,,,,,,,,,,,,,,* My Contacts,* Other,michaelanthonysimon@hotmail.com,,,,,,Mobile,6024184085,,,,,,,,,,,,,,,,,,,,,,,
Michael Slattery,Michael,,Slattery,,,,,,,,,,,,,,,,,,,,,,,,* ,xbmichael@yahoo.com,,,,,,,,,,,,,,,,,,,,,,,,,,,,,,
Michaela Weeks,Michaela,,Weeks,,,,,,,,,,,,,,,,,,,,,,<sn>id:830614213/friendof:649204047</sn>,* My Contacts,,,,,,,,Mobile,8312271849,,,,,,,,,,,,,,,,,,,,,,,
Michele Johann cardinal,Michele,Johann,cardinal,,,,,,,,,,,,,,,,,,,,,,,,* ,michele.johann@cardinalspecialties.com,,,,,,,,,,,,,,,,,,,,,,,,,,,,,,
Michelle Sciumbato,Michelle,,Sciumbato,,,,,,,,,,,,,,,,,,,,,,<sn>id:588697855/friendof:649204047</sn>,Starred in Android ::: bday ::: * My Contacts,Other,damagehole@gmail.com,* Other,michelle@sciumbato.com,,,,Mobile,3603914389,,,,,,,,,,,,,,,,,,,,,,,
Michelle Thelander,Michelle,,Thelander,,,,,,,,,,,,,,,,,,,,,,,,* ,michelle@elachieve.org,,,,,,,,,,,,,,,,,,,,,,,,,,,,,,
mike gibisser,mike,,gibisser,,,,,,,,,,,,,,,,,,,,,,<sn>id:641587827/friendof:649204047</sn>,,* Other,mike.gibisser@gmail.com,,,,,,,,,,,,,,,,,,,,,,,,,,,,,,
Mike Kubo,Mike,,Kubo,,,,,,,,,,,,,,,,,,,,,,,* My Contacts,,,,,,,,Mobile,4088214471,,,,,,,,,,,,,,,,,,,,,,,
Mike Kubo,Mike,,Kubo,,,,,,,,,,,,,,,,,,,,,,,,* ,michael.dy.kubo@gmail.com,,,,,,,,,,,,,,,,,,,,,,,,,,,,,,
Mike Kubo,Mike,,Kubo,,,,,,,,,,,,,,,,,,,,,,,* My Contacts ::: ohlone,* Other,mikekubo@cruzio.com,,,,,,,,,,,,,,,,,,,,,,,,,,,,,,
Mike Kubo,Mike,,Kubo,,,,,,,,,,,,,,,,,,,,,,,,* ,mikekubo@me.com,,,,,,,,,,,,,,,,,,,,,,,,,,,,,,
mike pfotenhauer,mike,,pfotenhauer,,,,,,,,,,,,,,,,,,,,,,,,* ,mike@ospreypacks.com,,,,,,,,,,,,,,,,,,,,,,,,,,,,,,
Mike Ramsburg,Mike,,Ramsburg,,,,,,,,,,,,,,,,,,,,,,,,* ,mike.ramsburg@gmail.com,,,,,,,,,,,,,,,,,,,,,,,,,,,,,,
mikekubo@cruzio.com,,,mikekubo@cruzio.com,,,,,,,,,,,,,,,,,,,,,,,bday ::: * My Contacts,* Other,mikekubo@cruzio.com,,,,,,,,,,,,,,,,,,,,,,,,,,,,,,
Miss Maes,Miss,,Maes,,,,,,,,,,,,,,,,,,,,,,,* My Contacts,,,,,,,,Work,8314251744,,,,,,,,,,,,,,,,,,,,,,,
Molly Lundberg,Molly,,Lundberg,,,,,,,,,,,,,,,,,,,,,,<sn>id:52901045/friendof:649204047</sn>,,* Other,MLundberg@thesca.org,,,,,,,,,,,,,,,,,,,,,,,,,,,,,,
mollz lundberg,mollz,,lundberg,,,,,,,,,,,,,,,,,,,,,,,,* ,mlundberg82@yahoo.com,,,,,,,,,,,,,,,,,,,,,,,,,,,,,,
Mom And Dad,Mom And Dad,,,,,,,,,,,,,,,,,,,,,,,,,Starred in Android ::: * My Contacts,,,,,,,,Other,831 462-6241,,,,,,,Other,"1115 Live Oak Avenue
Santa Cruz CA 95062
United States
","1115 Live Oak Avenue
Santa Cruz CA 95062
United States",,,,,,,,,,,,,,
Monica Morrison,Monica,,Morrison,,,,,,,,,,,,,,,,,,,,,,,* My Contacts,,,,,,,,Mobile,4083091516,,,,,,,,,,,,,,,,,,,,,,,
Monica Vantoch,Monica,,Vantoch,,,,,,,,,,,,,,,,,,,,,,,* My Contacts,,,,,,,,Mobile,8312462909,,,,,,,,,,,,,,,,,,,,,,,
Monica Vantoch,Monica,,Vantoch,,,,,,,,,,,,,,,,,,,,,,,,* ,mv@santacruzmediation.com,,,,,,,,,,,,,,,,,,,,,,,,,,,,,,
,,,,,,,,,,,,,,,,,,,,,,,,,,,* ,mpolan@artic.edu,,,,,,,,,,,,,,,,,,,,,,,,,,,,,,
Mr Magoo,,,Magoo,,,,,Mr,,,,,,,,,,,,,,,,,,,* ,schmecktmf@yahoo.com,,,,,,,,,,,,,,,,,,,,,,,,,,,,,,
,,,,,,,,,,,,,,,,,,,,,,,,,,,* ,mr.osmanovic@gmail.com,,,,,,,,,,,,,,,,,,,,,,,,,,,,,,
mransm@artic.edu,mransm@artic.edu,,,,,,,,,,,,,,,,,,,,,,,,,,* ,mransm@artic.edu,,,,,,,,,,,,,,,,,,,,,,,,,,,,,,
,,,,,,,,,,,,,,,,,,,,,,,,,,,* ,mreinh@artic.edu,,,,,,,,,,,,,,,,,,,,,,,,,,,,,,
,,,,,,,,,,,,,,,,,,,,,,,,,,,* ,msaran@artic.edu,,,,,,,,,,,,,,,,,,,,,,,,,,,,,,
N S,N,,S,,,,,,,,,,,,,,,,,,,,,,,,* ,fromvertical@gmail.com,,,,,,,,,,,,,,,,,,,,,,,,,,,,,,
Nancy Adams,Nancy,,Adams,,,,,,,,,,,,,,,,,,,,,,,* My Contacts,* ,nancy@newbigging.org,,,,,,Home / Mobile,01506853110,Work,01313331602,,,,,Home,"Newbigging Farm
Broxburn West Lothian  EH52 6PN
UK",,,,,,,,,,,,,,,
Nick Adams,Nick,,Adams,,,,,,,,,,,,,,,,,,,,,,<sn>id:222403012/friendof:649204047</sn>,,* Other,n8vision@gmail.com,,,,,,,,,,,,,,,,,,,,,,,,,,,,,,
,,,,,,,,,,,,,,,,,,,,,,,,,,,* ,noreply@cargocollective.com,,,,,,,,,,,,,,,,,,,,,,,,,,,,,,
,,,,,,,,,,,,,,,,,,,,,,,,,,,* ,nwhite@saic.edu,,,,,,,,,,,,,,,,,,,,,,,,,,,,,,
O'Reilly_Katie,O'Reilly_Katie,,,,,,,,,,,,,,,,,,,,,,,,,,* ,koreil@saic.edu,,,,,,,,,,,,,,,,,,,,,,,,,,,,,,
osirqueen@comcast.net,osirqueen@comcast.net,,,,,,,,,,,,,,,,,,,,,,,,,,* ,osirqueen@comcast.net,,,,,,,,,,,,,,,,,,,,,,,,,,,,,,
otar vox,otar,,vox,,,,,,,,,,,,,,,,,,,,,,,,* ,otarskydog@yahoo.com,,,,,,,,,,,,,,,,,,,,,,,,,,,,,,
Paitra Sharp,Paitra,,Sharp,,,,,,,,,,,,,,,,,,,,,,<sn>id:11504345/friendof:649204047</sn>,bday ::: * My Contacts,* Other,paitra.sharp@gmail.com,,,,,,Mobile,8315889703,,,,,,,,,,,,,,,,,,,,,,,
Pallas,Pallas,,,,,,,,,,,,,,,,,,,,,,,,,* My Contacts,,,,,,,,Mobile,8317680311,,,,,,,,,,,,,,,,,,,,,,,
Pam Moriarty,Pam,,Moriarty,,,,,,,,,,,,,,,,,,,,,,,* My Contacts ::: bday,* Other,mori@cruzio.com,,,,,,Home,8314583216,Mobile,8318187984,,,,,,,,,,,,,,,,,,,,,
Patrick Clawson,Patrick,,Clawson,,,,,,,,,,,,,,,,,,,,,,<sn>id:747740993/friendof:649204047</sn>,bday ::: * My Contacts,* Other,zombiebot@gmail.com,,,,,,Home / Mobile,1-831-247-3941,,,,,,,,,,,,,,,,,,,,,,,
Patrick Meehan,Patrick,,Meehan,,,,,,,,,,,,,,,,,,,,,,,,* ,patrick@scwomenshealth.org,,,,,,,,,,,,,,,,,,,,,,,,,,,,,,
Patrick Mirjahangir,Patrick,,Mirjahangir,,,,,,,,,,,,,,,,,,,,,,<sn>id:677928190/friendof:649204047</sn>,* My Contacts,* Other,pmirjahangir@gmail.com,,,,,,Mobile,7143887487,,,,,,,,,,,,,,,,,,,,,,,
Patrick Rivers,Patrick,,Rivers,,,,,,,,,,,,,,,,,,,,,,,ball - vcs ::: * My Contacts,* Other,priver@saic.edu,,,,,,Mobile,7734849047,,,,,,,,,,,,,,,,,,,,,,,
Paul Davis,Paul,,Davis,,,,,,,,,,,,,,,,,,,,,,,,Work,pd@wobblyfilms.com,* ,pauldavis@ukgateway.net,,,,,,,,,,,,,,,,,,,,,,,,,,,,
Paul Elitzik,Paul,,Elitzik,,,,,,,,,,,,,,,,,,,,,,,,* ,pelitz@artic.edu,,,,,,,,,,,,,,,,,,,,,,,,,,,,,,
Paul Jackson,Paul,,Jackson,,,,,,,,,,,,,,,,,,,,,,,,* ,pjacks2@gmail.com,,,,,,,,,,,,,,,,,,,,,,,,,,,,,,
paula pfotenhauer,paula,,pfotenhauer,,,,,,,,,,,,,,,,,,,,,,,,* ,paulapfotenhauer@gmail.com,,,,,,,,,,,,,,,,,,,,,,,,,,,,,,
Paula Pfotenhauer,Paula,,Pfotenhauer,,,,,,,,,,,,,,,,,,,,,,<sn>id:736996238/friendof:649204047</sn>,bday ::: * My Contacts,Other,paula_pfotenhauer@yahoo.com,* Other,queen.p@sbcglobal.net,,,,Mobile,4152698135,,,,,,,,,,,,,,,,,,,,,,,
,,,,,,,,,,,,,,,,,,,,,,,,,,,* ,PaulVarjack9@aol.com,,,,,,,,,,,,,,,,,,,,,,,,,,,,,,
pbsharp@sbcglobal.net,pbsharp@sbcglobal.net,,,,,,,,,,,,,,,,,,,,,,,,,,* ,pbsharp@sbcglobal.net,,,,,,,,,,,,,,,,,,,,,,,,,,,,,,
,,,,,,,,,,,,,,,,,,,,,,,,,,,* ,perens@saic.edu,,,,,,,,,,,,,,,,,,,,,,,,,,,,,,
Pete Pfotenhauer,Pete,,Pfotenhauer,,,,,,,,,,,,,,,,,,,,,,,,* ,pete.pfotenhauer@yahoo.com,,,,,,,,,,,,,,,,,,,,,,,,,,,,,,
Peter Pfotenhauer,Peter,,Pfotenhauer,,,,,,,,,,,,,,,,,,,,,,<sn>id:1453249347/friendof:649204047</sn>,* My Contacts,,,,,,,,Mobile,8312390030,,,,,,,,,,,,,,,,,,,,,,,
Peter Pfotenhauer,Peter,,Pfotenhauer,,,,,,,,,,,,,,,,,,,,,,<sn>id:1453249347/friendof:649204047</sn>,* My Contacts,,,,,,,,Mobile,8312390030,,,,,,,,,,,,,,,,,,,,,,,
pfanzler,pfanzler,,,,,,,,,,,,,,,,,,,,,,,,,,* ,pfanzler@gmail.com,,,,,,,,,,,,,,,,,,,,,,,,,,,,,,
Pippa Possible,Pippa,,Possible,,,,,,,,,,,,,,,,,,,,,,<sn>id:1167578667/friendof:649204047</sn>,,* Other,pippampossible@yahoo.com,,,,,,,,,,,,,,,,,,,,,,,,,,,,,,
,,,,,,,,,,,,,,,,,,,,,,,,,,,* ,planet1516@gmail.com,,,,,,,,,,,,,,,,,,,,,,,,,,,,,,
,,,,,,,,,,,,,,,,,,,,,,,,,,,* ,poblath@gmail.com,,,,,,,,,,,,,,,,,,,,,,,,,,,,,,
,,,,,,,,,,,,,,,,,,,,,,,,,,,* ,poiesiscometti@yahoo.it,,,,,,,,,,,,,,,,,,,,,,,,,,,,,,
Poki Namkung,Poki,,Namkung,,,,,,,,,,,,,,,,,,,,,,,,* ,pnamkung@co.santa-cruz.ca.us,,,,,,,,,,,,,,,,,,,,,,,,,,,,,,
,,,,,,,,,,,,,,,,,,,,,,,,,,,* ,postmenlikedoctors@gmail.com,,,,,,,,,,,,,,,,,,,,,,,,,,,,,,
,,,,,,,,,,,,,,,,,,,,,,,,,,,* ,priver@artic.edu,,,,,,,,,,,,,,,,,,,,,,,,,,,,,,
,,,,,,,,,,,,,,,,,,,,,,,,,,,* ,ptmoore82@hotmail.com,,,,,,,,,,,,,,,,,,,,,,,,,,,,,,
,,,,,,,,,,,,,,,,,,,,,,,,,,,* ,pvprinting@sbcglobal.net,,,,,,,,,,,,,,,,,,,,,,,,,,,,,,
Quinne Salameh,Quinne,,Salameh,,,,,,,,,,,,,,,,,,,,,,,* My Contacts,,,,,,,,Mobile,9712123497,,,,,,,,,,,,,,,,,,,,,,,
Quinne Salameh,Quinne,,Salameh,,,,,,,,,,,,,,,,,,,,,,,* My Contacts,,,,,,,,,,,,,,,,,,,,,,,,,,,,,,,,
Quinne Salameh,Quinne,,Salameh,,,,,,,,,,,,,,,,,,,,,,,* My Contacts,* Other,qsalameh@mail.csuchico.edu,,,,,,,,,,,,,,Other,"717 W 3rd Street
Chico CA 95928
",717 W 3rd Street,Chico CA 95928,,,,,,,,,,,,,
Rachel Pfotenhauer,Rachel,,Pfotenhauer,,,,,,,,,,,,,,,,,,,,,,,,* ,rachelpfotenhauer@gmail.com,,,,,,,,,,,,,,,,,,,,,,,,,,,,,,
Rachel Pfotenhauer,Rachel,,Pfotenhauer,,,,,,,,,,,,,,,,,,,,,,,* My Contacts ::: bday,* Other,rpphotos@frontier.net,,,,,,Home,8314272434,Mobile,8313348900,,,,,,,,,,,,,,,,,,,,,
Rae Ulrich,Rae,,Ulrich,,,,,,,,,,,,,,,,,,,,,,,,* ,rulrich@saic.edu,,,,,,,,,,,,,,,,,,,,,,,,,,,,,,
Rahn Garcia,Rahn,,Garcia,,,,,,,,,,,,,,,,,,,,,,,* My Contacts ::: bday,,,,,,,,Mobile,8314765911,,,,,,,,,,,,,,,,,,,,,,,
Rama Khalsa,Rama,,Khalsa,,,,,,,,,,,,,,,,,,,,,,,,* ,khalsar@health.co.santa-cruz.ca.us,,,,,,,,,,,,,,,,,,,,,,,,,,,,,,
,,,,,,,,,,,,,,,,,,,,,,,,,,,* ,rama_khalsa@yahoo.com,,,,,,,,,,,,,,,,,,,,,,,,,,,,,,
rama.khalsa@health.co.santa-cruz.ca.us,rama.khalsa@health.co.santa-cruz.ca.us,,,,,,,,,,,,,,,,,,,,,,,,,,* ,rama.khalsa@health.co.santa-cruz.ca.us,,,,,,,,,,,,,,,,,,,,,,,,,,,,,,
Rebecca Duffany,Rebecca,,Duffany,,,,,,,,,,,,,,,,,,,,,,,* My Contacts,,,,,,,,Mobile,8312341148,,,,,,,,,,,,,,,,,,,,,,,
Rebecca Gordon,Rebecca,,Gordon,,,,,,,,,,,,,,,,,,,,,,<sn>id:667253847/friendof:649204047</sn>,,* Other,rehgordon@gmail.com,,,,,,,,,,,,,,,,,,,,,,,,,,,,,,
Reid Tillinghast,Reid,,Tillinghast,,,,,,,,,,,,,,,,,,,,,,,,* ,reid@kenmarecorp.com,,,,,,,,,,,,,,,,,,,,,,,,,,,,,,
,,,,,,,,,,,,,,,,,,,,,,,,,,,* ,rent0643@softbank.ne.jp,,,,,,,,,,,,,,,,,,,,,,,,,,,,,,
Richard Van Deren,Richard,,Van Deren,,,,,,,,,,,,,,,,,,,,,,<sn>id:1024755416/friendof:649204047</sn>,,* Other,rvanderen@mac.com,,,,,,,,,,,,,,,,,,,,,,,,,,,,,,
,,,,,,,,,,,,,,,,,,,,,,,,,,,* ,rkardong@saic.edu,,,,,,,,,,,,,,,,,,,,,,,,,,,,,,
,,,,,,,,,,,,,,,,,,,,,,,,,,,* ,rneedlman@yahoo.com,,,,,,,,,,,,,,,,,,,,,,,,,,,,,,
Rob Campbell,Rob,,Campbell,,,,,,,,,,,,,,,,,,,,,,,* My Contacts,,,,,,,,Mobile,7735139430,,,,,,,,,,,,,,,,,,,,,,,
Rob Hixon,Rob,,Hixon,,,,,,,,,,,,,,,,,,,,,,,* My Contacts,,,,,,,,Mobile,3127140698,,,,,,,,,,,,,,,,,,,,,,,
Rob LaRiviere,Rob,,LaRiviere,,,,,,,,,,,,,,,,,,,,,,<sn>id:526089672/friendof:649204047</sn>,* My Contacts,,,,,,,,Mobile,8479514402,,,,,,,,,,,,,,,,,,,,,,,
Robb Jibson,Robb,,Jibson,,,,,,,,,,,,,,,,,,,,,,<sn>id:1665017877/friendof:649204047</sn>,,* Other,robb@robbjibson.com,,,,,,,,,,,,,,,,,,,,,,,,,,,,,,
Robert Hudson,Robert,,Hudson,,,,,,,,,,,,,,,,,,,,,,,,* ,rhudson@artic.edu,,,,,,,,,,,,,,,,,,,,,,,,,,,,,,
Rock Pfotenhauer,Rock,,Pfotenhauer,,,,,,,,,,,,,,,,,,,,,,<sn>id:668633670/friendof:649204047</sn>,Starred in Android ::: bday ::: * Family ::: * My Contacts,Other,rockpfot@gmail.com,* Other,rock@cabrillo.edu,None,None,rockpfot,Pager,8315317368,Home,8314626241,Mobile,8312127207,Work,8314796482,,,,,,,,,,,,,,,,,
,,,,,,,,,,,,,,,,,,,,,,,,,,,* ,roman.petruniak@gmail.com,,,,,,,,,,,,,,,,,,,,,,,,,,,,,,
Rory Pfotenhauer,Rory,,Pfotenhauer,,,,,,,,,,,,,,,,,,,,,,<sn>id:1823227105/friendof:649204047</sn>,* My Contacts,,,,,,,,Mobile,4153424324,,,,,,,,,,,,,,,,,,,,,,,
Rory Pfotenhauer,Rory,,Pfotenhauer,,,,,,,,,,,,,,,,,,,,,,<sn>id:1823227105/friendof:649204047</sn>,* My Contacts ::: bday,* Other,rorytheduck@hotmail.com,,,,,,,,,,,,,,,,,,,,,,,,,,,,,,
,,,,,,,,,,,,,,,,,,,,,,,,,,,* ,ross@commprinters.com,,,,,,,,,,,,,,,,,,,,,,,,,,,,,,
,,,,,,,,,,,,,,,,,,,,,,,,,,,* ,ross@comprinters.com,,,,,,,,,,,,,,,,,,,,,,,,,,,,,,
,,,,,,,,,,,,,,,,,,,,,,,,,,,* ,rpavez@artic.edu,,,,,,,,,,,,,,,,,,,,,,,,,,,,,,
,,,,,,,,,,,,,,,,,,,,,,,,,,,* ,rpendell@saic.edu,,,,,,,,,,,,,,,,,,,,,,,,,,,,,,
,,,,,,,,,,,,,,,,,,,,,,,,,,,* ,rreitb@saic.edu,,,,,,,,,,,,,,,,,,,,,,,,,,,,,,
,,,,,,,,,,,,,,,,,,,,,,,,,,,* ,Rroos@artic.edu,,,,,,,,,,,,,,,,,,,,,,,,,,,,,,
,,,,,,,,,,,,,,,,,,,,,,,,,,,* ,rsiegel@saic.edu,,,,,,,,,,,,,,,,,,,,,,,,,,,,,,
,,,,,,,,,,,,,,,,,,,,,,,,,,,* ,rulrich@artic.edu,,,,,,,,,,,,,,,,,,,,,,,,,,,,,,
Ryan Jewell,Ryan,,Jewell,,,,,,,,,,,,,,,,,,,,,,<sn>id:608346086/friendof:649204047</sn>,,* Other,ryan.jewell@gmail.com,,,,,,,,,,,,,,,,,,,,,,,,,,,,,,
Ryan Pfotenhauer,Ryan,,Pfotenhauer,,,,,,,,,,,,,,,,,,,,,,,,* ,rpfote@asu.edu,,,,,,,,,,,,,,,,,,,,,,,,,,,,,,
Ryan Sullivan,Ryan,,Sullivan,,,,,,,,,,,,,,,,,,,,,,<sn>id:10000502/friendof:649204047</sn>,* My Contacts,,,,,,,,Mobile,4802053445,,,,,,,,,,,,,,,,,,,,,,,
,,,,,,,,,,,,,,,,,,,,,,,,,,,* ,s.stahura@comcast.net,,,,,,,,,,,,,,,,,,,,,,,,,,,,,,
,,,,,,,,,,,,,,,,,,,,,,,,,,,* ,salata@saic.edu,,,,,,,,,,,,,,,,,,,,,,,,,,,,,,
,,,,,,,,,,,,,,,,,,,,,,,,,,,* ,sale-785200317@craigslist.org,,,,,,,,,,,,,,,,,,,,,,,,,,,,,,
,,,,,,,,,,,,,,,,,,,,,,,,,,,* ,sale-97rbw-1242375029@craigslist.org,,,,,,,,,,,,,,,,,,,,,,,,,,,,,,
,,,,,,,,,,,,,,,,,,,,,,,,,,,* ,sale-esaqk-1200578894@craigslist.org,,,,,,,,,,,,,,,,,,,,,,,,,,,,,,
,,,,,,,,,,,,,,,,,,,,,,,,,,,* ,sale-mtvqt-2288253446@craigslist.org,,,,,,,,,,,,,,,,,,,,,,,,,,,,,,
,,,,,,,,,,,,,,,,,,,,,,,,,,,* ,sale-xjzen-1200251046@craigslist.org,,,,,,,,,,,,,,,,,,,,,,,,,,,,,,
,,,,,,,,,,,,,,,,,,,,,,,,,,,* ,salford@artic.edu,,,,,,,,,,,,,,,,,,,,,,,,,,,,,,
Sally Boyd,Sally,,Boyd,,,,,,,,,,,,,,,,,,,,,,,* My Contacts,,,,,,,,Home,8314384549,Mobile,8318187611,,,,,,,,,,,,,,,,,,,,,
Sam Pfotenhauer,Sam,,Pfotenhauer,,,,,,,,,,,,,,,,,,,,,,<sn>id:561093475/friendof:649204047</sn>,* My Contacts,,,,,,,,Mobile,4802278879,,,,,,,,,,,,,,,,,,,,,,,
Sam Pfotenhauer,Sam,,Pfotenhauer,,,,,,,,,,,,,,,,,,,,,,,,* ,samiam82692@aol.com,,,,,,,,,,,,,,,,,,,,,,,,,,,,,,
Sam Strauss-Malcolm,Sam,,Strauss-Malcolm,,,,,,,,,,,,,,,,,,,,,,<sn>id:686308846/friendof:649204047</sn>,,* Other,simontuesday@mac.com,,,,,,,,,,,,,,,,,,,,,,,,,,,,,,
Samantha Kruse,Samantha,,Kruse,,,,,,,,,,,,,,,,,,,,,,<sn>id:603196590/friendof:649204047</sn>,,* Other,samantha.kruse@gmail.com,,,,,,,,,,,,,,,,,,,,,,,,,,,,,,
,,,,,,,,,,,,,,,,,,,,,,,,,,,* ,samantha.topol@gmail.com,,,,,,,,,,,,,,,,,,,,,,,,,,,,,,
Sandra Romano,Sandra,,Romano,,,,,,,,,,,,,,,,,,,,,,<sn>id:709501630/friendof:649204047</sn>,,* Other,sandraromano34@hotmail.com,,,,,,,,,,,,,,,,,,,,,,,,,,,,,,
Sandy  Keith,Sandy,,Keith,,,,,,,,,,,,,,,,,,,,,,,,* ,keithinosprey@comcast.net,,,,,,,,,,,,,,,,,,,,,,,,,,,,,,
Sandy Glaze,Sandy,,Glaze,,,,,,,,,,,,,,,,,,,,,,,,* ,sandy@sininlinen.com,,,,,,,,,,,,,,,,,,,,,,,,,,,,,,
Sara Clarenbach,Sara,,Clarenbach,,,,,,,,,,,,,,,,,,,,,,,,* ,sclarenbach@splg.org,,,,,,,,,,,,,,,,,,,,,,,,,,,,,,
Sarah Alford,Sarah,,Alford,,,,,,,,,,,,,,,,,,,,,,,,* ,salfor@saic.edu,,,,,,,,,,,,,,,,,,,,,,,,,,,,,,
Sarah Alford,Sarah,,Alford,,,,,,,,,,,,,,,,,,,,,,<sn>id:82102037/friendof:649204047</sn>,,* Other,sarah_alford@yahoo.com,,,,,,,,,,,,,,,,,,,,,,,,,,,,,,
Sarah Mallin,Sarah,,Mallin,,,,,,,,,,,,,,,,,,,,,,,,* ,smalli@artic.edu,,,,,,,,,,,,,,,,,,,,,,,,,,,,,,
Sarah Mallin,Sarah,,Mallin,,,,,,,,,,,,,,,,,,,,,,,,* ,smallin@saic.edu,,,,,,,,,,,,,,,,,,,,,,,,,,,,,,
Sarina Cupo,Sarina,,Cupo,,,,,,,,,,,,,,,,,,,,,,,,* ,sarinacupo@yahoo.com,,,,,,,,,,,,,,,,,,,,,,,,,,,,,,
scott pfotenhauer,scott,,pfotenhauer,,,,,,,,,,,,,,,,,,,,,," 
<sn>id:1341490253/friendof:649204047</sn>",* My Contacts,* Other,spfotey@aol.com,,,,,,,,,,,,,,,,,,,,,,,,,,,,,,
,,,,,,,,,,,,,,,,,,,,,,,,,,,* ,sdegra@artic.edu,,,,,,,,,,,,,,,,,,,,,,,,,,,,,,
,,,,,,,,,,,,,,,,,,,,,,,,,,,* ,sdelaney@saic.edu,,,,,,,,,,,,,,,,,,,,,,,,,,,,,,
Sean Echols,Sean,,Echols,,,,,,,,,,,,,,,,,,,,,,,* My Contacts,,,,,,,,Mobile,8313590817,,,,,,,,,,,,,,,,,,,,,,,
Sean Himle,Sean,,Himle,,,,,,,,,,,,,,,,,,,,,,,* My Contacts,,,,,,,,Mobile,2064508091,,,,,,,,,,,,,,,,,,,,,,,
Sean P. cell,Sean,P.,cell,,,,,,,,,,,,,,,,,,,,,,,,* ,sean.p3@gmail.com,,,,,,,,,,,,,,,,,,,,,,,,,,,,,,
Sebastian Assaf,Sebastian,,Assaf,,,,,,,,,,,,,,,,,,,,,,annette: annetteassaf@hotmail.com<sn>id:592851208/friendof:649204047</sn>,* My Contacts ::: bday,* Other,sebastianassaf@gmail.com,,,,,,Other,3474393557,,,,,,,,,,,,,,,,,,,,,,,
,,,,,,,,,,,,,,,,,,,,,,,,,,,* ,sensenol2001@yahoo.com,,,,,,,,,,,,,,,,,,,,,,,,,,,,,,
Seth Hunter,Seth,,Hunter,,,,,,,,,,,,,,,,,,,,,,,,* ,seth@perspectum.com,,,,,,,,,,,,,,,,,,,,,,,,,,,,,,
,,,,,,,,,,,,,,,,,,,,,,,,,,,* ,sethmeister@excite.com,,,,,,,,,,,,,,,,,,,,,,,,,,,,,,
Sharon Beebee,Sharon,,Beebee,,,,,,,,,,,,,,,,,,,,,,,,* ,sharon@scwomenshealth.org,,,,,,,,,,,,,,,,,,,,,,,,,,,,,,
Shawn Michelle Smith,Shawn,Michelle,Smith,,,,,,,,,,,,,,,,,,,,,,,,* ,ssmith8@saic.edu,,,,,,,,,,,,,,,,,,,,,,,,,,,,,,
shay degrandis,shay,,degrandis,,,,,,,,,,,,,,,,,,,,,,,,* ,sdegra@saic.edu,,,,,,,,,,,,,,,,,,,,,,,,,,,,,,
,,,,,,,,,,,,,,,,,,,,,,,,,,,* ,siegel@vancouver.wsu.edu,,,,,,,,,,,,,,,,,,,,,,,,,,,,,,
Sienne Hayes,Sienne,,Hayes,,,,,,,,,,,,,,,,,,,,,,,,* ,sienne@scwomenshealth.org,,,,,,,,,,,,,,,,,,,,,,,,,,,,,,
Simone reynaud,Simone,,reynaud,,,,,,,,,,,,,,,,,,,,,,,,* ,simone@scwomenshealth.org,,,,,,,,,,,,,,,,,,,,,,,,,,,,,,
sirartzyg@aol.com,sirartzyg@aol.com,,,,,,,,,,,,,,,,,,,,,,,,,,* ,sirartzyg@aol.com,,,,,,,,,,,,,,,,,,,,,,,,,,,,,,
,,,,,,,,,,,,,,,,,,,,,,,,,,,* ,skisch@gmail.com,,,,,,,,,,,,,,,,,,,,,,,,,,,,,,
Solomon Infiniti,Solomon,,Infiniti,,,,,,,,,,,,,,,,,,,,,,,* My Contacts,* Other,tokingquel@yahoo.com,,,,,,Home,7736332588,Mobile,7733544068,,,,,,,,,,,,,,,,,,,,,
,,,,,,,,,,,,,,,,,,,,,,,,,,,* ,spencer_deante@yahoo.com,,,,,,,,,,,,,,,,,,,,,,,,,,,,,,
,,,,,,,,,,,,,,,,,,,,,,,,,,,* ,sroyst@artic.edu,,,,,,,,,,,,,,,,,,,,,,,,,,,,,,
,,,,,,,,,,,,,,,,,,,,,,,,,,,* ,sroyston@artic.edu,,,,,,,,,,,,,,,,,,,,,,,,,,,,,,
,,,,,,,,,,,,,,,,,,,,,,,,,,,* ,ssmith8@saic.ede,,,,,,,,,,,,,,,,,,,,,,,,,,,,,,
Stanford Carpenter,Stanford,,Carpenter,,,,,,,,,,,,,,,,,,,,,,,,* ,stanford_carpenter@yahoo.com,,,,,,,,,,,,,,,,,,,,,,,,,,,,,,
Stayce Moise,Stayce,,Moise,,,,,,,,,,,,,,,,,,,,,,,* My Contacts,,,,,,,,Mobile,8317139833 ::: 4088574561,,,,,,,,,,,,,,,,,,,,,,,
Stayce Pruitt,Stayce,,Pruitt,,,,,,,,,,,,,,,,,,,,,,,* My Contacts,,,,,,,,Mobile,(408) 857-4561,,,,,,,,,,,,,,,,,,,,,,,
Stefan Reiss,Stefan,,Reiss,,,,,,,,,,,,,,,,,,,,,,,,* ,stefan.reiss@dessauer.ch,,,,,,,,,,,,,,,,,,,,,,,,,,,,,,
,,,,,,,,,,,,,,,,,,,,,,,,,,,* ,stephan.reiss@dessauer.ch,,,,,,,,,,,,,,,,,,,,,,,,,,,,,,
Stephens_Nathalie,Stephens_Nathalie,,,,,,,,,,,,,,,,,,,,,,,,,,* ,nsteph@saic.edu,,,,,,,,,,,,,,,,,,,,,,,,,,,,,,
steve melvage,steve,,melvage,,,,,,,,,,,,,,,,,,,,,,,,* ,stevemelvage@yahoo.com,,,,,,,,,,,,,,,,,,,,,,,,,,,,,,
Sue Gilchrist,Sue,,Gilchrist,,,,,,,,,,,,,,,,,,,,,,,* My Contacts ::: ohlone,* Other,jga@cruzio.com,,,,,,,,,,,,,,,,,,,,,,,,,,,,,,
Sue Gilchrist,Sue,,Gilchrist,,,,,,,,,,,,,,,,,,,,,,,,* ,Sue.Gilchrist@hsd.co.santa-cruz.ca.us,,,,,,,,,,,,,,,,,,,,,,,,,,,,,,
,,,,,,,,,,,,,,,,,,,,,,,,,,,* ,support@cargocollective.com,,,,,,,,,,,,,,,,,,,,,,,,,,,,,,
Susana Dutro,Susana,,Dutro,,,,,,,,,,,,,,,,,,,,,,,,* ,susana@elachieve.org,,,,,,,,,,,,,,,,,,,,,,,,,,,,,,
Sutter Lac,Sutter,,Lac,,,,,,,,,,,,,,,,,,,,,,,* My Contacts,,,,,,,,Mobile,8314772200,,,,,,,,,,,,,,,,,,,,,,,
Suzanne Dyer,Suzanne,,Dyer,,,,,,,,,,,,,,,,,,,,,,,,* ,sudyer@cabrillo.edu,,,,,,,,,,,,,,,,,,,,,,,,,,,,,,
Suzanne Koebler,Suzanne,,Koebler,,,,,,,,,,,,,,,,,,,,,,,bday ::: * My Contacts,Other,koebler@baymoon.com,* Other,suzannekoebler@gmail.com,,,,Mobile,8316890252,,,,,,,,,,,,,,,,,,,,,,,
,,,,,,,,,,,,,,,,,,,,,,,,,,,* ,switchbladeswingdance@burntmail.com,,,,,,,,,,,,,,,,,,,,,,,,,,,,,,
Sylvie Fortin,Sylvie,,Fortin,,,,,,,,,,,,,,,,,,,,,,,* My Contacts,* Other,editor@artpapers.org,,,,,,Mobile,4047599377,,,,,,,,,,,,,,,,,,,,,,,
"Szucs, Ashley L",Ashley,L,Szucs,,,,,,,,,,,,,,,,,,,,,,,,* ,aszucs@indiana.edu,,,,,,,,,,,,,,,,,,,,,,,,,,,,,,
szuhan@treegracefarms.com,szuhan@treegracefarms.com,,,,,,,,,,,,,,,,,,,,,,,,,,* ,szuhan@treegracefarms.com,,,,,,,,,,,,,,,,,,,,,,,,,,,,,,
Tara Sullivan,Tara,,Sullivan,,,,,,,,,,,,,,,,,,,,,,,,* ,tsulli1@saic.edu,,,,,,,,,,,,,,,,,,,,,,,,,,,,,,
Tawn Kennedy,Tawn Kennedy,,,,,,,,,,,,,,,,,,,,,,,,,* My Contacts,,,,,,,,Mobile,8314285109,,,,,,,,,,,,,,,,,,,,,,,
,,,,,,,,,,,,,,,,,,,,,,,,,,,* ,tbank@sccs.santacruz.k12.ca.us,,,,,,,,,,,,,,,,,,,,,,,,,,,,,,
Teena McClelland,Teena,,McClelland,,,,,,,,,,,,,,,,,,,,,,,ball - vcs ::: * My Contacts,* Other,tmcclelland@saic.edu,,,,,,,,,,,,,,,,,,,,,,,,,,,,,,
Teresa Thomae,Teresa,,Thomae,,,,,,,,,,,,,,,,,,,,,,,,* ,tethomae@cabrillo.edu,,,,,,,,,,,,,,,,,,,,,,,,,,,,,,
Terri Kapsalis,Terri,,Kapsalis,,,,,,,,,,,,,,,,,,,,,,,ball - vcs ::: * My Contacts,* Other,tkapsalis2@artic.edu,,,,,,,,,,,,,,,,,,,,,,,,,,,,,,
Terry Teitelbaum,Terry,,Teitelbaum,,,,,,,,,,,,,,,,,,,,,,,,* ,terryt@cowelk.com,,,,,,,,,,,,,,,,,,,,,,,,,,,,,,
Terry Teitelbaum,Terry,,Teitelbaum,,,,,,,,,,,,,,,,,,,,,,,,* ,terryteitelbaum@gmail.com,,,,,,,,,,,,,,,,,,,,,,,,,,,,,,
The Brand New Willets,Brand,New,Willets,,,,,The,,,,,,,,,,,,,,,,,,,* ,jasmineowillett@gmail.com,,,,,,,,,,,,,,,,,,,,,,,,,,,,,,
,,,,,,,,,,,,,,,,,,,,,,,,,,,* ,thejuka@gmail.com,,,,,,,,,,,,,,,,,,,,,,,,,,,,,,
Thuan Ngygen,Thuan,,Ngygen,,,,,,,,,,,,,,,,,,,,,,,,* ,xuanthuan79@hotmail.com,,,,,,,,,,,,,,,,,,,,,,,,,,,,,,
tiffany@elachieve.org,tiffany@elachieve.org,,,,,,,,,,,,,,,,,,,,,,,,,,* ,tiffany@elachieve.org,,,,,,,,,,,,,,,,,,,,,,,,,,,,,,
Tim Woods,Tim,,Woods,,,,,,,,,,,,,,,,,,,,,,,* My Contacts,,,,,,,,Work,8314620700,,,,,,,,,,,,,,,,,,,,,,,
Timmi Pereira,Timmi,,Pereira,,,,,,,,,,,,,,,,,,,,,,,* My Contacts,,,,,,,,Mobile,8314772375,,,,,,,,,,,,,,,,,,,,,,,
Tiny Tots Diaper Service,Tiny,Tots Diaper,Service,,,,,,,,,,,,,,,,,,,,,,,,* ,service@tinytots.com,,,,,,,,,,,,,,,,,,,,,,,,,,,,,,
Tj Maciak,Tj,,Maciak,,,,,,,,,,,,,,,,,,,,,,,* My Contacts,,,,,,,,Mobile,8313313188,,,,,,,,,,,,,,,,,,,,,,,
,,,,,,,,,,,,,,,,,,,,,,,,,,,* ,tjwoods49@sbcglobal.net,,,,,,,,,,,,,,,,,,,,,,,,,,,,,,
,,,,,,,,,,,,,,,,,,,,,,,,,,,* ,tmccle@saic.edu,,,,,,,,,,,,,,,,,,,,,,,,,,,,,,
,,,,,,,,,,,,,,,,,,,,,,,,,,,* ,todd.pittman@farmersinsurance.com,,,,,,,,,,,,,,,,,,,,,,,,,,,,,,
Traci Hukill,Traci,,Hukill,,,,,,,,,,,,,,,,,,,,,,,,* ,thukill@santacruzweekly.com,,,,,,,,,,,,,,,,,,,,,,,,,,,,,,
Trickster Talk -- A Discussion List,Trickster,Talk -- A Discussion,List,,,,,,,,,,,,,,,,,,,,,,,,* ,trickster_talk@lyris.its.trinity.edu,,,,,,,,,,,,,,,,,,,,,,,,,,,,,,
,,,,,,,,,,,,,,,,,,,,,,,,,,,* ,trikr@yahoo.com,,,,,,,,,,,,,,,,,,,,,,,,,,,,,,
Uriah Clevinger,Uriah,,Clevinger,,,,,,,,,,,,,,,,,,,,,,,* My Contacts,,,,,,,,Mobile,8317866678,,,,,,,,,,,,,,,,,,,,,,,
"Urwin, John",John,,Urwin,,,,,,,,,,,,,,,,,,,,,,,,* ,john.urwin@myyp.com,,,,,,,,,,,,,,,,,,,,,,,,,,,,,,
,,,,,,,,,,,,,,,,,,,,,,,,,,,* ,user@fxnetworks.com,,,,,,,,,,,,,,,,,,,,,,,,,,,,,,
,,,,,,,,,,,,,,,,,,,,,,,,,,,* ,Vcorzo@saic.edu,,,,,,,,,,,,,,,,,,,,,,,,,,,,,,
Veronica Tonay,Veronica,,Tonay,,,,,,,,,,,,,,,,,,,,,,,,* ,drtonay@veronicatonay.com,,,,,,,,,,,,,,,,,,,,,,,,,,,,,,
Victor Grigas,Victor,,Grigas,,,,,,,,,,,,,,,,,,,,,,,,* ,victorgrigas@hotmail.com,,,,,,,,,,,,,,,,,,,,,,,,,,,,,,
Vinny Rosso,Vinny,,Rosso,,,,,,,,,,,,,,,,,,,,,,,* My Contacts,* Other,powderunsc@hotmail.com,,,,,,Mobile,8312953121,,,,,,,,,,,,,,,,,,,,,,,
Vslerie M,Vslerie,,M,,,,,,,,,,,,,,,,,,,,,,,* My Contacts,,,,,,,,Mobile,8315884362,,,,,,,,,,,,,,,,,,,,,,,
Walgreens Soquel,Walgreens,,Soquel,,,,,,,,,,,,,,,,,,,,,,,* My Contacts,,,,,,,,Mobile,8314253911,,,,,,,,,,,,,,,,,,,,,,,
Warren Cockerham,Warren,,Cockerham,,,,,,,,,,,,,,,,,,,,,,,,* ,warren_g30@hotmail.com,,,,,,,,,,,,,,,,,,,,,,,,,,,,,,
wendyav010,wendyav010,,,,,,,,,,,,,,,,,,,,,,,,,,* ,wendyav010@gmail.com,,,,,,,,,,,,,,,,,,,,,,,,,,,,,,
Western Associates,Western,,Associates,,,,,,,,,,,,,,,,,,,,,,,* My Contacts,,,,,,,,Work,8316880238,,,,,,,,,,,,,,,,,,,,,,,
wgrams@uchicago.edu,wgrams@uchicago.edu,,,,,,,,,,,,,,,,,,,,,,,,,,* ,wgrams@uchicago.edu,,,,,,,,,,,,,,,,,,,,,,,,,,,,,,
William Kenefick,William,,Kenefick,,,,,,,,,,,,,,,,,,,,,,,,* ,billykenefick@gmail.com,,,,,,,,,,,,,,,,,,,,,,,,,,,,,,
Womens Health Center,Womens,Health,Center,,,,,,,,,,,,,,,,,,,,,,,* My Contacts,,,,,,,,Mobile,18314273500,,,,,,,,,,,,,,,,,,,,,,,
,,,,,,,,,,,,,,,,,,,,,,,,,,,* ,zepfot@yahoo.co.uk,,,,,,,,,,,,,,,,,,,,,,,,,,,,,,
zephyr pfo,zephyr,,pfo,,,,,,,,,,,,,,,,,,,,,,,,* ,ambiconti@gmail.com,,,,,,,,,,,,,,,,,,,,,,,,,,,,,,
Zephyr Pfotenhauer,Zephyr,,Pfotenhauer,,,,,,,,,,,,,,,,,,,,,,,,* ,portable.mortal@gmail.com,,,,,,,,,,,,,,,,,,,,,,,,,,,,,,
Zephyr Pfotenhauer,Zephyr,,Pfotenhauer,,,,,,,,,,,,,,,,,,,,,,,,* ,torrential.potential@gmail.com,,,,,,,,,,,,,,,,,,,,,,,,,,,,,,
,,,,,,,,,,,,,,,,,,,,,,,,,,,* ,zephyrpfo@gmail.com,,,,,,,,,,,,,,,,,,,,,,,,,,,,,,
,,,,,,,,,,,,,,,,,,,,,,,,,,,* ,zeug1@earthlink.net,,,,,,,,,,,,,,,,,,,,,,,,,,,,,,
Zeya Schindler,Zeya,,Schindler,,,,,,,,,,,,,,,,,,,,,,<sn>id:510492760/friendof:649204047</sn>,* My Contacts ::: bday,* Other,wanderinglion@gmail.com,,,,,,Mobile,8315881426,,,,,,,,,,,,,,,,,,,,,,,
Ziggy Rendler-Bregman,Ziggy,,Rendler-Bregman,,,,,,,,,,,,,,,,,,,,,,,bday ::: ohlone ::: * My Contacts,Other,zigrb@airpost.net,* Other,zig.poet@gmail.com,,,,Home,8314271644,Mobile,8314306207,,,,,,,,,,,,,,,,,,,,,
,,,,,,,,,,,,,,,,,,,,,,,,,,,* ,zpfote@saic.edu,,,,,,,,,,,,,,,,,,,,,,,,,,,,,,
